0,11.610682,200,676.470278,f2 v17 v6 ,y=u+a17(x17)+iaa(x17*x6)
1,15.144185,200,580.081980,f3 f0 f0 v7 V2 v1 v3 ,y=u+a1(x1)+a3(x3)+iaa(x7*x1)+ida(z2*x1)+iaa(x7*x3)+ida(z2*x3)
7,32.554328,200,578.211180,f0 f1 f3 v0 v3 f0 V1     v2 v8   ,y=u+iaa(x0*x3)+a2(x2)+a8(x8)+ida(z1*x2)+ida(z1*x8)
8,34.891843,200,551.027421,f3 f2 f0 V1 v4 v1 v3 ,y=u+a1(x1)+a3(x3)+ida(z1*x1)+idaa(z1*x4*x1)+ida(z1*x3)+idaa(z1*x4*x3)
11,38.997636,200,524.256948,f0 v4 f3   f0 v3     v3 v2   ,y=u+a4(x4)+a3(x3)+a2(x2)+iaa(x3*x3)+iaa(x3*x2)
13,40.28312,200,459.512288,f4 f0 f3 f0 f0 f0 v3 v4 v2 v0 v1 v3 v19   ,y=u+a4(x4)+a2(x2)+a0(x0)+a1(x1)+a3(x3)+a19(x19)+iaa(x3*x3)+iaa(x3*x19)+iaa(x4*x3)+iaa(x2*x3)+iaa(x0*x3)+iaa(x1*x3)+iaa(x4*x19)+iaa(x2*x19)+iaa(x0*x19)+iaa(x1*x19)+iaaa(x4*x3*x3)+iaaa(x2*x3*x3)+iaaa(x0*x3*x3)+iaaa(x1*x3*x3)+iaaa(x4*x3*x19)+iaaa(x2*x3*x19)+iaaa(x0*x3*x19)+iaaa(x1*x3*x19)
14,40.411008,200,452.700284,f4 f0 v0 f0 f0   v4 v2 v0 v1     ,y=u+a0(x0)+a4(x4)+a2(x2)+a1(x1)+iaa(x0*x4)+iaa(x0*x2)+iaa(x0*x0)+iaa(x0*x1)
15,40.822698,200,452.551263,f3 f0 f0 v0 V2 v1 v0 ,y=u+a1(x1)+a0(x0)+iaa(x0*x1)+ida(z2*x1)+iaa(x0*x0)+ida(z2*x0)
18,42.220823,206,442.835037,f1 f0 f0 f0 f0 f0 v9 v4 v2 v0 v1 v3 v2   ,y=u+iaa(x4*x9)+iaa(x2*x9)+iaa(x0*x9)+iaa(x1*x9)+iaa(x4*x3)+iaa(x2*x3)+iaa(x0*x3)+iaa(x1*x3)+iaa(x4*x2)+iaa(x2*x2)+iaa(x0*x2)+iaa(x1*x2)
22,46.286717,208,421.519536,f2 f0 f3 f0 f0 f0 v3 v4 v2 v0 v1 v3 v2   ,y=u+a4(x4)+a2(x2)+a0(x0)+a1(x1)+iaa(x4*x3)+iaa(x2*x3)+iaa(x0*x3)+iaa(x1*x3)+iaa(x4*x2)+iaa(x2*x2)+iaa(x0*x2)+iaa(x1*x2)+iaaa(x4*x3*x3)+iaaa(x2*x3*x3)+iaaa(x0*x3*x3)+iaaa(x1*x3*x3)+iaaa(x4*x3*x2)+iaaa(x2*x3*x2)+iaaa(x0*x3*x2)+iaaa(x1*x3*x2)
32,60.231103,210,417.807965,f1 f0 f3 f0 f0 f0 v3 v4 v2 v0 v1 v3 v2   ,y=u+iaa(x4*x3)+iaa(x2*x3)+iaa(x0*x3)+iaa(x1*x3)+iaa(x4*x2)+iaa(x2*x2)+iaa(x0*x2)+iaa(x1*x2)+iaaa(x4*x3*x3)+iaaa(x2*x3*x3)+iaaa(x0*x3*x3)+iaaa(x1*x3*x3)+iaaa(x4*x3*x2)+iaaa(x2*x3*x2)+iaaa(x0*x3*x2)+iaaa(x1*x3*x2)
44,80.352932,210,387.546584,f2 f0 f3 f0 f0 f0 v3 v4 v2 v0 v8 v3 v2   ,y=u+a4(x4)+a2(x2)+a0(x0)+a8(x8)+iaa(x4*x3)+iaa(x2*x3)+iaa(x0*x3)+iaa(x8*x3)+iaa(x4*x2)+iaa(x2*x2)+iaa(x0*x2)+iaa(x8*x2)+iaaa(x4*x3*x3)+iaaa(x2*x3*x3)+iaaa(x0*x3*x3)+iaaa(x8*x3*x3)+iaaa(x4*x3*x2)+iaaa(x2*x3*x2)+iaaa(x0*x3*x2)+iaaa(x8*x3*x2)
72,171.626779,210,383.230922,f1 f0 f3 f0 f0 f0 v3 v4 v2 v0 v8 v3 v2   ,y=u+iaa(x4*x3)+iaa(x2*x3)+iaa(x0*x3)+iaa(x8*x3)+iaa(x4*x2)+iaa(x2*x2)+iaa(x0*x2)+iaa(x8*x2)+iaaa(x4*x3*x3)+iaaa(x2*x3*x3)+iaaa(x0*x3*x3)+iaaa(x8*x3*x3)+iaaa(x4*x3*x2)+iaaa(x2*x3*x2)+iaaa(x0*x3*x2)+iaaa(x8*x3*x2)
76,190.194786,210,380.991935,f1 f0 f3 f0 f0 f0 v3 v16 v8 v1 v2 v3 v2   ,y=u+iaa(x16*x3)+iaa(x8*x3)+iaa(x1*x3)+iaa(x2*x3)+iaa(x16*x2)+iaa(x8*x2)+iaa(x1*x2)+iaa(x2*x2)+iaaa(x16*x3*x3)+iaaa(x8*x3*x3)+iaaa(x1*x3*x3)+iaaa(x2*x3*x3)+iaaa(x16*x3*x2)+iaaa(x8*x3*x2)+iaaa(x1*x3*x2)+iaaa(x2*x3*x2)
90,249.912755,210,370.570690,f1 f0 f3 f0 f0 f0 v3 v0 v2 v1 v8 v3 v2   ,y=u+iaa(x0*x3)+iaa(x2*x3)+iaa(x1*x3)+iaa(x8*x3)+iaa(x0*x2)+iaa(x2*x2)+iaa(x1*x2)+iaa(x8*x2)+iaaa(x0*x3*x3)+iaaa(x2*x3*x3)+iaaa(x1*x3*x3)+iaaa(x8*x3*x3)+iaaa(x0*x3*x2)+iaaa(x2*x3*x2)+iaaa(x1*x3*x2)+iaaa(x8*x3*x2)
100,295.246589,210,370.570690,f1 f0 f3 f0 f0 f0 v3 v0 v8 v1 v2 v3 v2   ,y=u+iaa(x0*x3)+iaa(x8*x3)+iaa(x1*x3)+iaa(x2*x3)+iaa(x0*x2)+iaa(x8*x2)+iaa(x1*x2)+iaa(x2*x2)+iaaa(x0*x3*x3)+iaaa(x8*x3*x3)+iaaa(x1*x3*x3)+iaaa(x2*x3*x3)+iaaa(x0*x3*x2)+iaaa(x8*x3*x2)+iaaa(x1*x3*x2)+iaaa(x2*x3*x2)
113,358.741186,210,370.570690,f1 f0 f3 f0 f0 f0 v3 v1 v2 v0 v8 v3 v2   ,y=u+iaa(x1*x3)+iaa(x2*x3)+iaa(x0*x3)+iaa(x8*x3)+iaa(x1*x2)+iaa(x2*x2)+iaa(x0*x2)+iaa(x8*x2)+iaaa(x1*x3*x3)+iaaa(x2*x3*x3)+iaaa(x0*x3*x3)+iaaa(x8*x3*x3)+iaaa(x1*x3*x2)+iaaa(x2*x3*x2)+iaaa(x0*x3*x2)+iaaa(x8*x3*x2)
118,385.920948,200,370.570690,f1 f0 f3 f0 f0 f0 v3 v0 v8 v1 v2 v3 v2   ,y=u+iaa(x0*x3)+iaa(x8*x3)+iaa(x1*x3)+iaa(x2*x3)+iaa(x0*x2)+iaa(x8*x2)+iaa(x1*x2)+iaa(x2*x2)+iaaa(x0*x3*x3)+iaaa(x8*x3*x3)+iaaa(x1*x3*x3)+iaaa(x2*x3*x3)+iaaa(x0*x3*x2)+iaaa(x8*x3*x2)+iaaa(x1*x3*x2)+iaaa(x2*x3*x2)
120,392.16464,206,370.570690,f1 f0 f3 f0 f0 f0 v3 v1 v2 v0 v8 v3 v2   ,y=u+iaa(x1*x3)+iaa(x2*x3)+iaa(x0*x3)+iaa(x8*x3)+iaa(x1*x2)+iaa(x2*x2)+iaa(x0*x2)+iaa(x8*x2)+iaaa(x1*x3*x3)+iaaa(x2*x3*x3)+iaaa(x0*x3*x3)+iaaa(x8*x3*x3)+iaaa(x1*x3*x2)+iaaa(x2*x3*x2)+iaaa(x0*x3*x2)+iaaa(x8*x3*x2)
127,423.51329,200,370.570690,f1 f0 f3 f0 f0 f0 v3 v0 v8 v1 v2 v3 v2   ,y=u+iaa(x0*x3)+iaa(x8*x3)+iaa(x1*x3)+iaa(x2*x3)+iaa(x0*x2)+iaa(x8*x2)+iaa(x1*x2)+iaa(x2*x2)+iaaa(x0*x3*x3)+iaaa(x8*x3*x3)+iaaa(x1*x3*x3)+iaaa(x2*x3*x3)+iaaa(x0*x3*x2)+iaaa(x8*x3*x2)+iaaa(x1*x3*x2)+iaaa(x2*x3*x2)
128,427.925584,200,370.570690,f1 f0 f3 f0 f0 f0 v3 v1 v2 v0 v8 v3 v2   ,y=u+iaa(x1*x3)+iaa(x2*x3)+iaa(x0*x3)+iaa(x8*x3)+iaa(x1*x2)+iaa(x2*x2)+iaa(x0*x2)+iaa(x8*x2)+iaaa(x1*x3*x3)+iaaa(x2*x3*x3)+iaaa(x0*x3*x3)+iaaa(x8*x3*x3)+iaaa(x1*x3*x2)+iaaa(x2*x3*x2)+iaaa(x0*x3*x2)+iaaa(x8*x3*x2)
131,444.817310,200,370.570690,f1 f0 f3 f0 f0 f0 v3 v0 v8 v1 v2 v3 v2   ,y=u+iaa(x0*x3)+iaa(x8*x3)+iaa(x1*x3)+iaa(x2*x3)+iaa(x0*x2)+iaa(x8*x2)+iaa(x1*x2)+iaa(x2*x2)+iaaa(x0*x3*x3)+iaaa(x8*x3*x3)+iaaa(x1*x3*x3)+iaaa(x2*x3*x3)+iaaa(x0*x3*x2)+iaaa(x8*x3*x2)+iaaa(x1*x3*x2)+iaaa(x2*x3*x2)
136,459.565938,208,370.570690,f1 f0 f3 f0 f0 f0 v3 v1 v2 v0 v8 v3 v2   ,y=u+iaa(x1*x3)+iaa(x2*x3)+iaa(x0*x3)+iaa(x8*x3)+iaa(x1*x2)+iaa(x2*x2)+iaa(x0*x2)+iaa(x8*x2)+iaaa(x1*x3*x3)+iaaa(x2*x3*x3)+iaaa(x0*x3*x3)+iaaa(x8*x3*x3)+iaaa(x1*x3*x2)+iaaa(x2*x3*x2)+iaaa(x0*x3*x2)+iaaa(x8*x3*x2)
140,478.207689,210,370.570690,f1 f0 f3 f0 f0 f0 v3 v0 v8 v1 v2 v3 v2   ,y=u+iaa(x0*x3)+iaa(x8*x3)+iaa(x1*x3)+iaa(x2*x3)+iaa(x0*x2)+iaa(x8*x2)+iaa(x1*x2)+iaa(x2*x2)+iaaa(x0*x3*x3)+iaaa(x8*x3*x3)+iaaa(x1*x3*x3)+iaaa(x2*x3*x3)+iaaa(x0*x3*x2)+iaaa(x8*x3*x2)+iaaa(x1*x3*x2)+iaaa(x2*x3*x2)
144,500.106190,208,370.570690,f1 f0 f3 f0 f0 f0 v3 v1 v2 v0 v8 v3 v2   ,y=u+iaa(x1*x3)+iaa(x2*x3)+iaa(x0*x3)+iaa(x8*x3)+iaa(x1*x2)+iaa(x2*x2)+iaa(x0*x2)+iaa(x8*x2)+iaaa(x1*x3*x3)+iaaa(x2*x3*x3)+iaaa(x0*x3*x3)+iaaa(x8*x3*x3)+iaaa(x1*x3*x2)+iaaa(x2*x3*x2)+iaaa(x0*x3*x2)+iaaa(x8*x3*x2)
145,505.292973,210,370.570690,f1 f0 f3 f0 f0 f0 v3 v0 v8 v1 v2 v3 v2   ,y=u+iaa(x0*x3)+iaa(x8*x3)+iaa(x1*x3)+iaa(x2*x3)+iaa(x0*x2)+iaa(x8*x2)+iaa(x1*x2)+iaa(x2*x2)+iaaa(x0*x3*x3)+iaaa(x8*x3*x3)+iaaa(x1*x3*x3)+iaaa(x2*x3*x3)+iaaa(x0*x3*x2)+iaaa(x8*x3*x2)+iaaa(x1*x3*x2)+iaaa(x2*x3*x2)
148,520.891137,210,370.570690,f1 f0 f3 f0 f0 f0 v3 v1 v2 v0 v8 v3 v2   ,y=u+iaa(x1*x3)+iaa(x2*x3)+iaa(x0*x3)+iaa(x8*x3)+iaa(x1*x2)+iaa(x2*x2)+iaa(x0*x2)+iaa(x8*x2)+iaaa(x1*x3*x3)+iaaa(x2*x3*x3)+iaaa(x0*x3*x3)+iaaa(x8*x3*x3)+iaaa(x1*x3*x2)+iaaa(x2*x3*x2)+iaaa(x0*x3*x2)+iaaa(x8*x3*x2)
149,526.109071,210,370.570690,f1 f0 f3 f0 f0 f0 v3 v0 v8 v1 v2 v3 v2   ,y=u+iaa(x0*x3)+iaa(x8*x3)+iaa(x1*x3)+iaa(x2*x3)+iaa(x0*x2)+iaa(x8*x2)+iaa(x1*x2)+iaa(x2*x2)+iaaa(x0*x3*x3)+iaaa(x8*x3*x3)+iaaa(x1*x3*x3)+iaaa(x2*x3*x3)+iaaa(x0*x3*x2)+iaaa(x8*x3*x2)+iaaa(x1*x3*x2)+iaaa(x2*x3*x2)
150,530.722374,210,370.570690,f1 f0 f3 f0 f0 f0 v3 v1 v2 v0 v8 v3 v2   ,y=u+iaa(x1*x3)+iaa(x2*x3)+iaa(x0*x3)+iaa(x8*x3)+iaa(x1*x2)+iaa(x2*x2)+iaa(x0*x2)+iaa(x8*x2)+iaaa(x1*x3*x3)+iaaa(x2*x3*x3)+iaaa(x0*x3*x3)+iaaa(x8*x3*x3)+iaaa(x1*x3*x2)+iaaa(x2*x3*x2)+iaaa(x0*x3*x2)+iaaa(x8*x3*x2)
151,533.798055,210,370.570690,f1 f0 f3 f0 f0 f0 v3 v0 v8 v1 v2 v3 v2   ,y=u+iaa(x0*x3)+iaa(x8*x3)+iaa(x1*x3)+iaa(x2*x3)+iaa(x0*x2)+iaa(x8*x2)+iaa(x1*x2)+iaa(x2*x2)+iaaa(x0*x3*x3)+iaaa(x8*x3*x3)+iaaa(x1*x3*x3)+iaaa(x2*x3*x3)+iaaa(x0*x3*x2)+iaaa(x8*x3*x2)+iaaa(x1*x3*x2)+iaaa(x2*x3*x2)
154,547.75679,210,370.570690,f1 f0 f3 f0 f0 f0 v3 v1 v2 v0 v8 v3 v2   ,y=u+iaa(x1*x3)+iaa(x2*x3)+iaa(x0*x3)+iaa(x8*x3)+iaa(x1*x2)+iaa(x2*x2)+iaa(x0*x2)+iaa(x8*x2)+iaaa(x1*x3*x3)+iaaa(x2*x3*x3)+iaaa(x0*x3*x3)+iaaa(x8*x3*x3)+iaaa(x1*x3*x2)+iaaa(x2*x3*x2)+iaaa(x0*x3*x2)+iaaa(x8*x3*x2)
157,562.630294,210,370.570690,f1 f0 f3 f0 f0 f0 v3 v0 v8 v1 v2 v3 v2   ,y=u+iaa(x0*x3)+iaa(x8*x3)+iaa(x1*x3)+iaa(x2*x3)+iaa(x0*x2)+iaa(x8*x2)+iaa(x1*x2)+iaa(x2*x2)+iaaa(x0*x3*x3)+iaaa(x8*x3*x3)+iaaa(x1*x3*x3)+iaaa(x2*x3*x3)+iaaa(x0*x3*x2)+iaaa(x8*x3*x2)+iaaa(x1*x3*x2)+iaaa(x2*x3*x2)
159,573.92980,210,370.570690,f1 f0 f3 f0 f0 f0 v3 v1 v2 v0 v8 v3 v2   ,y=u+iaa(x1*x3)+iaa(x2*x3)+iaa(x0*x3)+iaa(x8*x3)+iaa(x1*x2)+iaa(x2*x2)+iaa(x0*x2)+iaa(x8*x2)+iaaa(x1*x3*x3)+iaaa(x2*x3*x3)+iaaa(x0*x3*x3)+iaaa(x8*x3*x3)+iaaa(x1*x3*x2)+iaaa(x2*x3*x2)+iaaa(x0*x3*x2)+iaaa(x8*x3*x2)
161,584.356683,210,370.570690,f1 f0 f3 f0 f0 f0 v3 v0 v8 v1 v2 v3 v2   ,y=u+iaa(x0*x3)+iaa(x8*x3)+iaa(x1*x3)+iaa(x2*x3)+iaa(x0*x2)+iaa(x8*x2)+iaa(x1*x2)+iaa(x2*x2)+iaaa(x0*x3*x3)+iaaa(x8*x3*x3)+iaaa(x1*x3*x3)+iaaa(x2*x3*x3)+iaaa(x0*x3*x2)+iaaa(x8*x3*x2)+iaaa(x1*x3*x2)+iaaa(x2*x3*x2)
166,608.452752,210,370.570690,f1 f0 f3 f0 f0 f0 v3 v1 v2 v0 v8 v3 v2   ,y=u+iaa(x1*x3)+iaa(x2*x3)+iaa(x0*x3)+iaa(x8*x3)+iaa(x1*x2)+iaa(x2*x2)+iaa(x0*x2)+iaa(x8*x2)+iaaa(x1*x3*x3)+iaaa(x2*x3*x3)+iaaa(x0*x3*x3)+iaaa(x8*x3*x3)+iaaa(x1*x3*x2)+iaaa(x2*x3*x2)+iaaa(x0*x3*x2)+iaaa(x8*x3*x2)
169,621.742727,210,370.570690,f1 f0 f3 f0 f0 f0 v3 v0 v8 v1 v2 v3 v2   ,y=u+iaa(x0*x3)+iaa(x8*x3)+iaa(x1*x3)+iaa(x2*x3)+iaa(x0*x2)+iaa(x8*x2)+iaa(x1*x2)+iaa(x2*x2)+iaaa(x0*x3*x3)+iaaa(x8*x3*x3)+iaaa(x1*x3*x3)+iaaa(x2*x3*x3)+iaaa(x0*x3*x2)+iaaa(x8*x3*x2)+iaaa(x1*x3*x2)+iaaa(x2*x3*x2)
172,638.932418,210,370.570690,f1 f0 f3 f0 f0 f0 v3 v1 v2 v0 v8 v3 v2   ,y=u+iaa(x1*x3)+iaa(x2*x3)+iaa(x0*x3)+iaa(x8*x3)+iaa(x1*x2)+iaa(x2*x2)+iaa(x0*x2)+iaa(x8*x2)+iaaa(x1*x3*x3)+iaaa(x2*x3*x3)+iaaa(x0*x3*x3)+iaaa(x8*x3*x3)+iaaa(x1*x3*x2)+iaaa(x2*x3*x2)+iaaa(x0*x3*x2)+iaaa(x8*x3*x2)
177,665.812910,208,370.570690,f1 f0 f3 f0 f0 f0 v3 v0 v8 v1 v2 v3 v2   ,y=u+iaa(x0*x3)+iaa(x8*x3)+iaa(x1*x3)+iaa(x2*x3)+iaa(x0*x2)+iaa(x8*x2)+iaa(x1*x2)+iaa(x2*x2)+iaaa(x0*x3*x3)+iaaa(x8*x3*x3)+iaaa(x1*x3*x3)+iaaa(x2*x3*x3)+iaaa(x0*x3*x2)+iaaa(x8*x3*x2)+iaaa(x1*x3*x2)+iaaa(x2*x3*x2)
178,671.312713,200,370.570690,f1 f0 f3 f0 f0 f0 v3 v1 v2 v0 v8 v3 v2   ,y=u+iaa(x1*x3)+iaa(x2*x3)+iaa(x0*x3)+iaa(x8*x3)+iaa(x1*x2)+iaa(x2*x2)+iaa(x0*x2)+iaa(x8*x2)+iaaa(x1*x3*x3)+iaaa(x2*x3*x3)+iaaa(x0*x3*x3)+iaaa(x8*x3*x3)+iaaa(x1*x3*x2)+iaaa(x2*x3*x2)+iaaa(x0*x3*x2)+iaaa(x8*x3*x2)
182,690.95383,204,370.570690,f1 f0 f3 f0 f0 f0 v3 v0 v8 v1 v2 v3 v2   ,y=u+iaa(x0*x3)+iaa(x8*x3)+iaa(x1*x3)+iaa(x2*x3)+iaa(x0*x2)+iaa(x8*x2)+iaa(x1*x2)+iaa(x2*x2)+iaaa(x0*x3*x3)+iaaa(x8*x3*x3)+iaaa(x1*x3*x3)+iaaa(x2*x3*x3)+iaaa(x0*x3*x2)+iaaa(x8*x3*x2)+iaaa(x1*x3*x2)+iaaa(x2*x3*x2)
184,701.316195,200,370.570690,f1 f0 f3 f0 f0 f0 v3 v1 v2 v0 v8 v3 v2   ,y=u+iaa(x1*x3)+iaa(x2*x3)+iaa(x0*x3)+iaa(x8*x3)+iaa(x1*x2)+iaa(x2*x2)+iaa(x0*x2)+iaa(x8*x2)+iaaa(x1*x3*x3)+iaaa(x2*x3*x3)+iaaa(x0*x3*x3)+iaaa(x8*x3*x3)+iaaa(x1*x3*x2)+iaaa(x2*x3*x2)+iaaa(x0*x3*x2)+iaaa(x8*x3*x2)
187,719.960384,202,370.570690,f1 f0 f3 f0 f0 f0 v3 v0 v8 v1 v2 v3 v2   ,y=u+iaa(x0*x3)+iaa(x8*x3)+iaa(x1*x3)+iaa(x2*x3)+iaa(x0*x2)+iaa(x8*x2)+iaa(x1*x2)+iaa(x2*x2)+iaaa(x0*x3*x3)+iaaa(x8*x3*x3)+iaaa(x1*x3*x3)+iaaa(x2*x3*x3)+iaaa(x0*x3*x2)+iaaa(x8*x3*x2)+iaaa(x1*x3*x2)+iaaa(x2*x3*x2)
191,734.78306,204,370.570690,f1 f0 f3 f0 f0 f0 v3 v1 v2 v0 v8 v3 v2   ,y=u+iaa(x1*x3)+iaa(x2*x3)+iaa(x0*x3)+iaa(x8*x3)+iaa(x1*x2)+iaa(x2*x2)+iaa(x0*x2)+iaa(x8*x2)+iaaa(x1*x3*x3)+iaaa(x2*x3*x3)+iaaa(x0*x3*x3)+iaaa(x8*x3*x3)+iaaa(x1*x3*x2)+iaaa(x2*x3*x2)+iaaa(x0*x3*x2)+iaaa(x8*x3*x2)
192,737.369049,206,370.570690,f1 f0 f3 f0 f0 f0 v3 v0 v8 v1 v2 v3 v2   ,y=u+iaa(x0*x3)+iaa(x8*x3)+iaa(x1*x3)+iaa(x2*x3)+iaa(x0*x2)+iaa(x8*x2)+iaa(x1*x2)+iaa(x2*x2)+iaaa(x0*x3*x3)+iaaa(x8*x3*x3)+iaaa(x1*x3*x3)+iaaa(x2*x3*x3)+iaaa(x0*x3*x2)+iaaa(x8*x3*x2)+iaaa(x1*x3*x2)+iaaa(x2*x3*x2)
194,748.650248,208,370.570690,f1 f0 f3 f0 f0 f0 v3 v1 v2 v0 v8 v3 v2   ,y=u+iaa(x1*x3)+iaa(x2*x3)+iaa(x0*x3)+iaa(x8*x3)+iaa(x1*x2)+iaa(x2*x2)+iaa(x0*x2)+iaa(x8*x2)+iaaa(x1*x3*x3)+iaaa(x2*x3*x3)+iaaa(x0*x3*x3)+iaaa(x8*x3*x3)+iaaa(x1*x3*x2)+iaaa(x2*x3*x2)+iaaa(x0*x3*x2)+iaaa(x8*x3*x2)
202,790.645850,210,370.570690,f1 f0 f3 f0 f0 f0 v3 v0 v8 v1 v2 v3 v2   ,y=u+iaa(x0*x3)+iaa(x8*x3)+iaa(x1*x3)+iaa(x2*x3)+iaa(x0*x2)+iaa(x8*x2)+iaa(x1*x2)+iaa(x2*x2)+iaaa(x0*x3*x3)+iaaa(x8*x3*x3)+iaaa(x1*x3*x3)+iaaa(x2*x3*x3)+iaaa(x0*x3*x2)+iaaa(x8*x3*x2)+iaaa(x1*x3*x2)+iaaa(x2*x3*x2)
203,796.133213,210,370.570690,f1 f0 f3 f0 f0 f0 v3 v1 v2 v0 v8 v3 v2   ,y=u+iaa(x1*x3)+iaa(x2*x3)+iaa(x0*x3)+iaa(x8*x3)+iaa(x1*x2)+iaa(x2*x2)+iaa(x0*x2)+iaa(x8*x2)+iaaa(x1*x3*x3)+iaaa(x2*x3*x3)+iaaa(x0*x3*x3)+iaaa(x8*x3*x3)+iaaa(x1*x3*x2)+iaaa(x2*x3*x2)+iaaa(x0*x3*x2)+iaaa(x8*x3*x2)
204,802.376296,210,370.570690,f1 f0 f3 f0 f0 f0 v3 v0 v8 v1 v2 v3 v2   ,y=u+iaa(x0*x3)+iaa(x8*x3)+iaa(x1*x3)+iaa(x2*x3)+iaa(x0*x2)+iaa(x8*x2)+iaa(x1*x2)+iaa(x2*x2)+iaaa(x0*x3*x3)+iaaa(x8*x3*x3)+iaaa(x1*x3*x3)+iaaa(x2*x3*x3)+iaaa(x0*x3*x2)+iaaa(x8*x3*x2)+iaaa(x1*x3*x2)+iaaa(x2*x3*x2)
208,820.663230,208,370.570690,f1 f0 f3 f0 f0 f0 v3 v1 v2 v0 v8 v3 v2   ,y=u+iaa(x1*x3)+iaa(x2*x3)+iaa(x0*x3)+iaa(x8*x3)+iaa(x1*x2)+iaa(x2*x2)+iaa(x0*x2)+iaa(x8*x2)+iaaa(x1*x3*x3)+iaaa(x2*x3*x3)+iaaa(x0*x3*x3)+iaaa(x8*x3*x3)+iaaa(x1*x3*x2)+iaaa(x2*x3*x2)+iaaa(x0*x3*x2)+iaaa(x8*x3*x2)
212,841.580966,210,370.570690,f1 f0 f3 f0 f0 f0 v3 v0 v8 v1 v2 v3 v2   ,y=u+iaa(x0*x3)+iaa(x8*x3)+iaa(x1*x3)+iaa(x2*x3)+iaa(x0*x2)+iaa(x8*x2)+iaa(x1*x2)+iaa(x2*x2)+iaaa(x0*x3*x3)+iaaa(x8*x3*x3)+iaaa(x1*x3*x3)+iaaa(x2*x3*x3)+iaaa(x0*x3*x2)+iaaa(x8*x3*x2)+iaaa(x1*x3*x2)+iaaa(x2*x3*x2)
213,847.790622,210,370.570690,f1 f0 f3 f0 f0 f0 v3 v1 v2 v0 v8 v3 v2   ,y=u+iaa(x1*x3)+iaa(x2*x3)+iaa(x0*x3)+iaa(x8*x3)+iaa(x1*x2)+iaa(x2*x2)+iaa(x0*x2)+iaa(x8*x2)+iaaa(x1*x3*x3)+iaaa(x2*x3*x3)+iaaa(x0*x3*x3)+iaaa(x8*x3*x3)+iaaa(x1*x3*x2)+iaaa(x2*x3*x2)+iaaa(x0*x3*x2)+iaaa(x8*x3*x2)
214,854.237114,210,370.570690,f1 f0 f3 f0 f0 f0 v3 v0 v8 v1 v2 v3 v2   ,y=u+iaa(x0*x3)+iaa(x8*x3)+iaa(x1*x3)+iaa(x2*x3)+iaa(x0*x2)+iaa(x8*x2)+iaa(x1*x2)+iaa(x2*x2)+iaaa(x0*x3*x3)+iaaa(x8*x3*x3)+iaaa(x1*x3*x3)+iaaa(x2*x3*x3)+iaaa(x0*x3*x2)+iaaa(x8*x3*x2)+iaaa(x1*x3*x2)+iaaa(x2*x3*x2)
215,860.488671,210,370.570690,f1 f0 f3 f0 f0 f0 v3 v1 v2 v8 v0 v3 v2   ,y=u+iaa(x1*x3)+iaa(x2*x3)+iaa(x8*x3)+iaa(x0*x3)+iaa(x1*x2)+iaa(x2*x2)+iaa(x8*x2)+iaa(x0*x2)+iaaa(x1*x3*x3)+iaaa(x2*x3*x3)+iaaa(x8*x3*x3)+iaaa(x0*x3*x3)+iaaa(x1*x3*x2)+iaaa(x2*x3*x2)+iaaa(x8*x3*x2)+iaaa(x0*x3*x2)
216,866.522643,210,370.570690,f1 f0 f3 f0 f0 f0 v3 v0 v8 v1 v2 v3 v2   ,y=u+iaa(x0*x3)+iaa(x8*x3)+iaa(x1*x3)+iaa(x2*x3)+iaa(x0*x2)+iaa(x8*x2)+iaa(x1*x2)+iaa(x2*x2)+iaaa(x0*x3*x3)+iaaa(x8*x3*x3)+iaaa(x1*x3*x3)+iaaa(x2*x3*x3)+iaaa(x0*x3*x2)+iaaa(x8*x3*x2)+iaaa(x1*x3*x2)+iaaa(x2*x3*x2)
217,870.431236,210,370.570690,f1 f0 f3 f0 f0 f0 v3 v1 v2 v0 v8 v3 v2   ,y=u+iaa(x1*x3)+iaa(x2*x3)+iaa(x0*x3)+iaa(x8*x3)+iaa(x1*x2)+iaa(x2*x2)+iaa(x0*x2)+iaa(x8*x2)+iaaa(x1*x3*x3)+iaaa(x2*x3*x3)+iaaa(x0*x3*x3)+iaaa(x8*x3*x3)+iaaa(x1*x3*x2)+iaaa(x2*x3*x2)+iaaa(x0*x3*x2)+iaaa(x8*x3*x2)
218,875.135189,210,370.570690,f1 f0 f3 f0 f0 f0 v3 v0 v8 v1 v2 v3 v2   ,y=u+iaa(x0*x3)+iaa(x8*x3)+iaa(x1*x3)+iaa(x2*x3)+iaa(x0*x2)+iaa(x8*x2)+iaa(x1*x2)+iaa(x2*x2)+iaaa(x0*x3*x3)+iaaa(x8*x3*x3)+iaaa(x1*x3*x3)+iaaa(x2*x3*x3)+iaaa(x0*x3*x2)+iaaa(x8*x3*x2)+iaaa(x1*x3*x2)+iaaa(x2*x3*x2)
220,883.559920,204,370.570690,f1 f0 f3 f0 f0 f0 v3 v1 v2 v0 v8 v3 v2   ,y=u+iaa(x1*x3)+iaa(x2*x3)+iaa(x0*x3)+iaa(x8*x3)+iaa(x1*x2)+iaa(x2*x2)+iaa(x0*x2)+iaa(x8*x2)+iaaa(x1*x3*x3)+iaaa(x2*x3*x3)+iaaa(x0*x3*x3)+iaaa(x8*x3*x3)+iaaa(x1*x3*x2)+iaaa(x2*x3*x2)+iaaa(x0*x3*x2)+iaaa(x8*x3*x2)
222,896.321466,210,370.570690,f1 f0 f3 f0 f0 f0 v3 v1 v2 v8 v0 v3 v2   ,y=u+iaa(x1*x3)+iaa(x2*x3)+iaa(x8*x3)+iaa(x0*x3)+iaa(x1*x2)+iaa(x2*x2)+iaa(x8*x2)+iaa(x0*x2)+iaaa(x1*x3*x3)+iaaa(x2*x3*x3)+iaaa(x8*x3*x3)+iaaa(x0*x3*x3)+iaaa(x1*x3*x2)+iaaa(x2*x3*x2)+iaaa(x8*x3*x2)+iaaa(x0*x3*x2)
224,908.171369,210,370.570690,f1 f0 f3 f0 f0 f0 v3 v0 v8 v1 v2 v3 v2   ,y=u+iaa(x0*x3)+iaa(x8*x3)+iaa(x1*x3)+iaa(x2*x3)+iaa(x0*x2)+iaa(x8*x2)+iaa(x1*x2)+iaa(x2*x2)+iaaa(x0*x3*x3)+iaaa(x8*x3*x3)+iaaa(x1*x3*x3)+iaaa(x2*x3*x3)+iaaa(x0*x3*x2)+iaaa(x8*x3*x2)+iaaa(x1*x3*x2)+iaaa(x2*x3*x2)
225,911.479030,210,370.570690,f1 f0 f3 f0 f0 f0 v3 v1 v2 v8 v0 v3 v2   ,y=u+iaa(x1*x3)+iaa(x2*x3)+iaa(x8*x3)+iaa(x0*x3)+iaa(x1*x2)+iaa(x2*x2)+iaa(x8*x2)+iaa(x0*x2)+iaaa(x1*x3*x3)+iaaa(x2*x3*x3)+iaaa(x8*x3*x3)+iaaa(x0*x3*x3)+iaaa(x1*x3*x2)+iaaa(x2*x3*x2)+iaaa(x8*x3*x2)+iaaa(x0*x3*x2)
226,916.651453,210,370.570690,f1 f0 f3 f0 f0 f0 v3 v0 v8 v1 v2 v3 v2   ,y=u+iaa(x0*x3)+iaa(x8*x3)+iaa(x1*x3)+iaa(x2*x3)+iaa(x0*x2)+iaa(x8*x2)+iaa(x1*x2)+iaa(x2*x2)+iaaa(x0*x3*x3)+iaaa(x8*x3*x3)+iaaa(x1*x3*x3)+iaaa(x2*x3*x3)+iaaa(x0*x3*x2)+iaaa(x8*x3*x2)+iaaa(x1*x3*x2)+iaaa(x2*x3*x2)
227,922.418569,210,370.570690,f1 f0 f3 f0 f0 f0 v3 v1 v2 v8 v0 v3 v2   ,y=u+iaa(x1*x3)+iaa(x2*x3)+iaa(x8*x3)+iaa(x0*x3)+iaa(x1*x2)+iaa(x2*x2)+iaa(x8*x2)+iaa(x0*x2)+iaaa(x1*x3*x3)+iaaa(x2*x3*x3)+iaaa(x8*x3*x3)+iaaa(x0*x3*x3)+iaaa(x1*x3*x2)+iaaa(x2*x3*x2)+iaaa(x8*x3*x2)+iaaa(x0*x3*x2)
228,927.810530,210,370.570690,f1 f0 f3 f0 f0 f0 v3 v0 v8 v1 v2 v3 v2   ,y=u+iaa(x0*x3)+iaa(x8*x3)+iaa(x1*x3)+iaa(x2*x3)+iaa(x0*x2)+iaa(x8*x2)+iaa(x1*x2)+iaa(x2*x2)+iaaa(x0*x3*x3)+iaaa(x8*x3*x3)+iaaa(x1*x3*x3)+iaaa(x2*x3*x3)+iaaa(x0*x3*x2)+iaaa(x8*x3*x2)+iaaa(x1*x3*x2)+iaaa(x2*x3*x2)
231,941.206209,210,370.570690,f1 f0 f3 f0 f0 f0 v3 v1 v2 v0 v8 v3 v2   ,y=u+iaa(x1*x3)+iaa(x2*x3)+iaa(x0*x3)+iaa(x8*x3)+iaa(x1*x2)+iaa(x2*x2)+iaa(x0*x2)+iaa(x8*x2)+iaaa(x1*x3*x3)+iaaa(x2*x3*x3)+iaaa(x0*x3*x3)+iaaa(x8*x3*x3)+iaaa(x1*x3*x2)+iaaa(x2*x3*x2)+iaaa(x0*x3*x2)+iaaa(x8*x3*x2)
232,946.856066,210,370.570690,f1 f0 f3 f0 f0 f0 v3 v1 v2 v8 v0 v3 v2   ,y=u+iaa(x1*x3)+iaa(x2*x3)+iaa(x8*x3)+iaa(x0*x3)+iaa(x1*x2)+iaa(x2*x2)+iaa(x8*x2)+iaa(x0*x2)+iaaa(x1*x3*x3)+iaaa(x2*x3*x3)+iaaa(x8*x3*x3)+iaaa(x0*x3*x3)+iaaa(x1*x3*x2)+iaaa(x2*x3*x2)+iaaa(x8*x3*x2)+iaaa(x0*x3*x2)
233,952.830948,210,370.570690,f1 f0 f3 f0 f0 f0 v3 v0 v8 v1 v2 v3 v2   ,y=u+iaa(x0*x3)+iaa(x8*x3)+iaa(x1*x3)+iaa(x2*x3)+iaa(x0*x2)+iaa(x8*x2)+iaa(x1*x2)+iaa(x2*x2)+iaaa(x0*x3*x3)+iaaa(x8*x3*x3)+iaaa(x1*x3*x3)+iaaa(x2*x3*x3)+iaaa(x0*x3*x2)+iaaa(x8*x3*x2)+iaaa(x1*x3*x2)+iaaa(x2*x3*x2)
234,957.380436,210,370.570690,f1 f0 f3 f0 f0 f0 v3 v1 v2 v8 v0 v3 v2   ,y=u+iaa(x1*x3)+iaa(x2*x3)+iaa(x8*x3)+iaa(x0*x3)+iaa(x1*x2)+iaa(x2*x2)+iaa(x8*x2)+iaa(x0*x2)+iaaa(x1*x3*x3)+iaaa(x2*x3*x3)+iaaa(x8*x3*x3)+iaaa(x0*x3*x3)+iaaa(x1*x3*x2)+iaaa(x2*x3*x2)+iaaa(x8*x3*x2)+iaaa(x0*x3*x2)
235,961.569616,200,370.570690,f1 f0 f3 f0 f0 f0 v3 v1 v2 v0 v8 v3 v2   ,y=u+iaa(x1*x3)+iaa(x2*x3)+iaa(x0*x3)+iaa(x8*x3)+iaa(x1*x2)+iaa(x2*x2)+iaa(x0*x2)+iaa(x8*x2)+iaaa(x1*x3*x3)+iaaa(x2*x3*x3)+iaaa(x0*x3*x3)+iaaa(x8*x3*x3)+iaaa(x1*x3*x2)+iaaa(x2*x3*x2)+iaaa(x0*x3*x2)+iaaa(x8*x3*x2)
236,969.950488,200,370.570690,f1 f0 f3 f0 f0 f0 v3 v1 v2 v8 v0 v3 v2   ,y=u+iaa(x1*x3)+iaa(x2*x3)+iaa(x8*x3)+iaa(x0*x3)+iaa(x1*x2)+iaa(x2*x2)+iaa(x8*x2)+iaa(x0*x2)+iaaa(x1*x3*x3)+iaaa(x2*x3*x3)+iaaa(x8*x3*x3)+iaaa(x0*x3*x3)+iaaa(x1*x3*x2)+iaaa(x2*x3*x2)+iaaa(x8*x3*x2)+iaaa(x0*x3*x2)
237,976.829175,200,370.570690,f1 f0 f3 f0 f0 f0 v3 v0 v8 v1 v2 v3 v2   ,y=u+iaa(x0*x3)+iaa(x8*x3)+iaa(x1*x3)+iaa(x2*x3)+iaa(x0*x2)+iaa(x8*x2)+iaa(x1*x2)+iaa(x2*x2)+iaaa(x0*x3*x3)+iaaa(x8*x3*x3)+iaaa(x1*x3*x3)+iaaa(x2*x3*x3)+iaaa(x0*x3*x2)+iaaa(x8*x3*x2)+iaaa(x1*x3*x2)+iaaa(x2*x3*x2)
239,986.899131,200,370.570690,f1 f0 f3 f0 f0 f0 v3 v1 v2 v8 v0 v3 v2   ,y=u+iaa(x1*x3)+iaa(x2*x3)+iaa(x8*x3)+iaa(x0*x3)+iaa(x1*x2)+iaa(x2*x2)+iaa(x8*x2)+iaa(x0*x2)+iaaa(x1*x3*x3)+iaaa(x2*x3*x3)+iaaa(x8*x3*x3)+iaaa(x0*x3*x3)+iaaa(x1*x3*x2)+iaaa(x2*x3*x2)+iaaa(x8*x3*x2)+iaaa(x0*x3*x2)
241,999.475591,206,370.570690,f1 f0 f3 f0 f0 f0 v3 v1 v2 v0 v8 v3 v2   ,y=u+iaa(x1*x3)+iaa(x2*x3)+iaa(x0*x3)+iaa(x8*x3)+iaa(x1*x2)+iaa(x2*x2)+iaa(x0*x2)+iaa(x8*x2)+iaaa(x1*x3*x3)+iaaa(x2*x3*x3)+iaaa(x0*x3*x3)+iaaa(x8*x3*x3)+iaaa(x1*x3*x2)+iaaa(x2*x3*x2)+iaaa(x0*x3*x2)+iaaa(x8*x3*x2)
243,1013.238924,210,370.570690,f1 f0 f3 f0 f0 f0 v3 v0 v8 v1 v2 v3 v2   ,y=u+iaa(x0*x3)+iaa(x8*x3)+iaa(x1*x3)+iaa(x2*x3)+iaa(x0*x2)+iaa(x8*x2)+iaa(x1*x2)+iaa(x2*x2)+iaaa(x0*x3*x3)+iaaa(x8*x3*x3)+iaaa(x1*x3*x3)+iaaa(x2*x3*x3)+iaaa(x0*x3*x2)+iaaa(x8*x3*x2)+iaaa(x1*x3*x2)+iaaa(x2*x3*x2)
244,1020.415367,210,370.570690,f1 f0 f3 f0 f0 f0 v3 v1 v2 v0 v8 v3 v2   ,y=u+iaa(x1*x3)+iaa(x2*x3)+iaa(x0*x3)+iaa(x8*x3)+iaa(x1*x2)+iaa(x2*x2)+iaa(x0*x2)+iaa(x8*x2)+iaaa(x1*x3*x3)+iaaa(x2*x3*x3)+iaaa(x0*x3*x3)+iaaa(x8*x3*x3)+iaaa(x1*x3*x2)+iaaa(x2*x3*x2)+iaaa(x0*x3*x2)+iaaa(x8*x3*x2)
246,1033.812042,210,370.570690,f1 f0 f3 f0 f0 f0 v3 v0 v8 v1 v2 v3 v2   ,y=u+iaa(x0*x3)+iaa(x8*x3)+iaa(x1*x3)+iaa(x2*x3)+iaa(x0*x2)+iaa(x8*x2)+iaa(x1*x2)+iaa(x2*x2)+iaaa(x0*x3*x3)+iaaa(x8*x3*x3)+iaaa(x1*x3*x3)+iaaa(x2*x3*x3)+iaaa(x0*x3*x2)+iaaa(x8*x3*x2)+iaaa(x1*x3*x2)+iaaa(x2*x3*x2)
247,1040.740720,210,370.570690,f1 f0 f3 f0 f0 f0 v3 v1 v2 v0 v8 v3 v2   ,y=u+iaa(x1*x3)+iaa(x2*x3)+iaa(x0*x3)+iaa(x8*x3)+iaa(x1*x2)+iaa(x2*x2)+iaa(x0*x2)+iaa(x8*x2)+iaaa(x1*x3*x3)+iaaa(x2*x3*x3)+iaaa(x0*x3*x3)+iaaa(x8*x3*x3)+iaaa(x1*x3*x2)+iaaa(x2*x3*x2)+iaaa(x0*x3*x2)+iaaa(x8*x3*x2)
248,1047.414713,210,370.570690,f1 f0 f3 f0 f0 f0 v3 v1 v2 v8 v0 v3 v2   ,y=u+iaa(x1*x3)+iaa(x2*x3)+iaa(x8*x3)+iaa(x0*x3)+iaa(x1*x2)+iaa(x2*x2)+iaa(x8*x2)+iaa(x0*x2)+iaaa(x1*x3*x3)+iaaa(x2*x3*x3)+iaaa(x8*x3*x3)+iaaa(x0*x3*x3)+iaaa(x1*x3*x2)+iaaa(x2*x3*x2)+iaaa(x8*x3*x2)+iaaa(x0*x3*x2)
250,1056.214502,210,370.570690,f1 f0 f3 f0 f0 f0 v3 v0 v8 v1 v2 v3 v2   ,y=u+iaa(x0*x3)+iaa(x8*x3)+iaa(x1*x3)+iaa(x2*x3)+iaa(x0*x2)+iaa(x8*x2)+iaa(x1*x2)+iaa(x2*x2)+iaaa(x0*x3*x3)+iaaa(x8*x3*x3)+iaaa(x1*x3*x3)+iaaa(x2*x3*x3)+iaaa(x0*x3*x2)+iaaa(x8*x3*x2)+iaaa(x1*x3*x2)+iaaa(x2*x3*x2)
251,1061.288404,210,370.570690,f1 f0 f3 f0 f0 f0 v3 v1 v2 v8 v0 v3 v2   ,y=u+iaa(x1*x3)+iaa(x2*x3)+iaa(x8*x3)+iaa(x0*x3)+iaa(x1*x2)+iaa(x2*x2)+iaa(x8*x2)+iaa(x0*x2)+iaaa(x1*x3*x3)+iaaa(x2*x3*x3)+iaaa(x8*x3*x3)+iaaa(x0*x3*x3)+iaaa(x1*x3*x2)+iaaa(x2*x3*x2)+iaaa(x8*x3*x2)+iaaa(x0*x3*x2)
253,1071.866193,210,370.570690,f1 f0 f3 f0 f0 f0 v3 v0 v8 v1 v2 v3 v2   ,y=u+iaa(x0*x3)+iaa(x8*x3)+iaa(x1*x3)+iaa(x2*x3)+iaa(x0*x2)+iaa(x8*x2)+iaa(x1*x2)+iaa(x2*x2)+iaaa(x0*x3*x3)+iaaa(x8*x3*x3)+iaaa(x1*x3*x3)+iaaa(x2*x3*x3)+iaaa(x0*x3*x2)+iaaa(x8*x3*x2)+iaaa(x1*x3*x2)+iaaa(x2*x3*x2)
254,1078.84835,210,370.570690,f1 f0 f3 f0 f0 f0 v3 v1 v2 v0 v8 v3 v2   ,y=u+iaa(x1*x3)+iaa(x2*x3)+iaa(x0*x3)+iaa(x8*x3)+iaa(x1*x2)+iaa(x2*x2)+iaa(x0*x2)+iaa(x8*x2)+iaaa(x1*x3*x3)+iaaa(x2*x3*x3)+iaaa(x0*x3*x3)+iaaa(x8*x3*x3)+iaaa(x1*x3*x2)+iaaa(x2*x3*x2)+iaaa(x0*x3*x2)+iaaa(x8*x3*x2)
255,1082.408529,210,370.570690,f1 f0 f3 f0 f0 f0 v3 v0 v8 v1 v2 v3 v2   ,y=u+iaa(x0*x3)+iaa(x8*x3)+iaa(x1*x3)+iaa(x2*x3)+iaa(x0*x2)+iaa(x8*x2)+iaa(x1*x2)+iaa(x2*x2)+iaaa(x0*x3*x3)+iaaa(x8*x3*x3)+iaaa(x1*x3*x3)+iaaa(x2*x3*x3)+iaaa(x0*x3*x2)+iaaa(x8*x3*x2)+iaaa(x1*x3*x2)+iaaa(x2*x3*x2)
257,1093.588000,210,370.570690,f1 f0 f3 f0 f0 f0 v3 v1 v2 v0 v8 v3 v2   ,y=u+iaa(x1*x3)+iaa(x2*x3)+iaa(x0*x3)+iaa(x8*x3)+iaa(x1*x2)+iaa(x2*x2)+iaa(x0*x2)+iaa(x8*x2)+iaaa(x1*x3*x3)+iaaa(x2*x3*x3)+iaaa(x0*x3*x3)+iaaa(x8*x3*x3)+iaaa(x1*x3*x2)+iaaa(x2*x3*x2)+iaaa(x0*x3*x2)+iaaa(x8*x3*x2)
258,1100.55977,210,370.570690,f1 f0 f3 f0 f0 f0 v3 v0 v8 v1 v2 v3 v2   ,y=u+iaa(x0*x3)+iaa(x8*x3)+iaa(x1*x3)+iaa(x2*x3)+iaa(x0*x2)+iaa(x8*x2)+iaa(x1*x2)+iaa(x2*x2)+iaaa(x0*x3*x3)+iaaa(x8*x3*x3)+iaaa(x1*x3*x3)+iaaa(x2*x3*x3)+iaaa(x0*x3*x2)+iaaa(x8*x3*x2)+iaaa(x1*x3*x2)+iaaa(x2*x3*x2)
259,1106.980714,210,370.570690,f1 f0 f3 f0 f0 f0 v3 v1 v2 v0 v8 v3 v2   ,y=u+iaa(x1*x3)+iaa(x2*x3)+iaa(x0*x3)+iaa(x8*x3)+iaa(x1*x2)+iaa(x2*x2)+iaa(x0*x2)+iaa(x8*x2)+iaaa(x1*x3*x3)+iaaa(x2*x3*x3)+iaaa(x0*x3*x3)+iaaa(x8*x3*x3)+iaaa(x1*x3*x2)+iaaa(x2*x3*x2)+iaaa(x0*x3*x2)+iaaa(x8*x3*x2)
260,1113.522611,210,370.570690,f1 f0 f3 f0 f0 f0 v3 v1 v2 v8 v0 v3 v2   ,y=u+iaa(x1*x3)+iaa(x2*x3)+iaa(x8*x3)+iaa(x0*x3)+iaa(x1*x2)+iaa(x2*x2)+iaa(x8*x2)+iaa(x0*x2)+iaaa(x1*x3*x3)+iaaa(x2*x3*x3)+iaaa(x8*x3*x3)+iaaa(x0*x3*x3)+iaaa(x1*x3*x2)+iaaa(x2*x3*x2)+iaaa(x8*x3*x2)+iaaa(x0*x3*x2)
261,1120.451636,210,370.570690,f1 f0 f3 f0 f0 f0 v3 v1 v2 v0 v8 v3 v2   ,y=u+iaa(x1*x3)+iaa(x2*x3)+iaa(x0*x3)+iaa(x8*x3)+iaa(x1*x2)+iaa(x2*x2)+iaa(x0*x2)+iaa(x8*x2)+iaaa(x1*x3*x3)+iaaa(x2*x3*x3)+iaaa(x0*x3*x3)+iaaa(x8*x3*x3)+iaaa(x1*x3*x2)+iaaa(x2*x3*x2)+iaaa(x0*x3*x2)+iaaa(x8*x3*x2)
263,1131.114126,210,370.570690,f1 f0 f3 f0 f0 f0 v3 v1 v2 v8 v0 v3 v2   ,y=u+iaa(x1*x3)+iaa(x2*x3)+iaa(x8*x3)+iaa(x0*x3)+iaa(x1*x2)+iaa(x2*x2)+iaa(x8*x2)+iaa(x0*x2)+iaaa(x1*x3*x3)+iaaa(x2*x3*x3)+iaaa(x8*x3*x3)+iaaa(x0*x3*x3)+iaaa(x1*x3*x2)+iaaa(x2*x3*x2)+iaaa(x8*x3*x2)+iaaa(x0*x3*x2)
264,1136.120003,210,370.570690,f1 f0 f3 f0 f0 f0 v3 v0 v8 v1 v2 v3 v2   ,y=u+iaa(x0*x3)+iaa(x8*x3)+iaa(x1*x3)+iaa(x2*x3)+iaa(x0*x2)+iaa(x8*x2)+iaa(x1*x2)+iaa(x2*x2)+iaaa(x0*x3*x3)+iaaa(x8*x3*x3)+iaaa(x1*x3*x3)+iaaa(x2*x3*x3)+iaaa(x0*x3*x2)+iaaa(x8*x3*x2)+iaaa(x1*x3*x2)+iaaa(x2*x3*x2)
265,1139.665829,210,370.570690,f1 f0 f3 f0 f0 f0 v3 v1 v2 v0 v8 v3 v2   ,y=u+iaa(x1*x3)+iaa(x2*x3)+iaa(x0*x3)+iaa(x8*x3)+iaa(x1*x2)+iaa(x2*x2)+iaa(x0*x2)+iaa(x8*x2)+iaaa(x1*x3*x3)+iaaa(x2*x3*x3)+iaaa(x0*x3*x3)+iaaa(x8*x3*x3)+iaaa(x1*x3*x2)+iaaa(x2*x3*x2)+iaaa(x0*x3*x2)+iaaa(x8*x3*x2)
266,1145.806454,210,370.570690,f1 f0 f3 f0 f0 f0 v3 v1 v2 v8 v0 v3 v2   ,y=u+iaa(x1*x3)+iaa(x2*x3)+iaa(x8*x3)+iaa(x0*x3)+iaa(x1*x2)+iaa(x2*x2)+iaa(x8*x2)+iaa(x0*x2)+iaaa(x1*x3*x3)+iaaa(x2*x3*x3)+iaaa(x8*x3*x3)+iaaa(x0*x3*x3)+iaaa(x1*x3*x2)+iaaa(x2*x3*x2)+iaaa(x8*x3*x2)+iaaa(x0*x3*x2)
267,1152.748178,210,370.570690,f1 f0 f3 f0 f0 f0 v3 v1 v2 v0 v8 v3 v2   ,y=u+iaa(x1*x3)+iaa(x2*x3)+iaa(x0*x3)+iaa(x8*x3)+iaa(x1*x2)+iaa(x2*x2)+iaa(x0*x2)+iaa(x8*x2)+iaaa(x1*x3*x3)+iaaa(x2*x3*x3)+iaaa(x0*x3*x3)+iaaa(x8*x3*x3)+iaaa(x1*x3*x2)+iaaa(x2*x3*x2)+iaaa(x0*x3*x2)+iaaa(x8*x3*x2)
269,1164.857589,210,370.570690,f1 f0 f3 f0 f0 f0 v3 v1 v2 v8 v0 v3 v2   ,y=u+iaa(x1*x3)+iaa(x2*x3)+iaa(x8*x3)+iaa(x0*x3)+iaa(x1*x2)+iaa(x2*x2)+iaa(x8*x2)+iaa(x0*x2)+iaaa(x1*x3*x3)+iaaa(x2*x3*x3)+iaaa(x8*x3*x3)+iaaa(x0*x3*x3)+iaaa(x1*x3*x2)+iaaa(x2*x3*x2)+iaaa(x8*x3*x2)+iaaa(x0*x3*x2)
273,1185.454842,210,370.570690,f1 f0 f3 f0 f0 f0 v3 v1 v2 v0 v8 v3 v2   ,y=u+iaa(x1*x3)+iaa(x2*x3)+iaa(x0*x3)+iaa(x8*x3)+iaa(x1*x2)+iaa(x2*x2)+iaa(x0*x2)+iaa(x8*x2)+iaaa(x1*x3*x3)+iaaa(x2*x3*x3)+iaaa(x0*x3*x3)+iaaa(x8*x3*x3)+iaaa(x1*x3*x2)+iaaa(x2*x3*x2)+iaaa(x0*x3*x2)+iaaa(x8*x3*x2)
276,1199.481394,210,370.570690,f1 f0 f3 f0 f0 f0 v3 v1 v2 v8 v0 v3 v2   ,y=u+iaa(x1*x3)+iaa(x2*x3)+iaa(x8*x3)+iaa(x0*x3)+iaa(x1*x2)+iaa(x2*x2)+iaa(x8*x2)+iaa(x0*x2)+iaaa(x1*x3*x3)+iaaa(x2*x3*x3)+iaaa(x8*x3*x3)+iaaa(x0*x3*x3)+iaaa(x1*x3*x2)+iaaa(x2*x3*x2)+iaaa(x8*x3*x2)+iaaa(x0*x3*x2)
279,1215.27894,210,370.570690,f1 f0 f3 f0 f0 f0 v3 v1 v2 v0 v8 v3 v2   ,y=u+iaa(x1*x3)+iaa(x2*x3)+iaa(x0*x3)+iaa(x8*x3)+iaa(x1*x2)+iaa(x2*x2)+iaa(x0*x2)+iaa(x8*x2)+iaaa(x1*x3*x3)+iaaa(x2*x3*x3)+iaaa(x0*x3*x3)+iaaa(x8*x3*x3)+iaaa(x1*x3*x2)+iaaa(x2*x3*x2)+iaaa(x0*x3*x2)+iaaa(x8*x3*x2)
281,1223.355106,202,370.570690,f1 f0 f3 f0 f0 f0 v3 v0 v8 v1 v2 v3 v2   ,y=u+iaa(x0*x3)+iaa(x8*x3)+iaa(x1*x3)+iaa(x2*x3)+iaa(x0*x2)+iaa(x8*x2)+iaa(x1*x2)+iaa(x2*x2)+iaaa(x0*x3*x3)+iaaa(x8*x3*x3)+iaaa(x1*x3*x3)+iaaa(x2*x3*x3)+iaaa(x0*x3*x2)+iaaa(x8*x3*x2)+iaaa(x1*x3*x2)+iaaa(x2*x3*x2)
282,1228.226818,200,370.570690,f1 f0 f3 f0 f0 f0 v3 v1 v2 v8 v0 v3 v2   ,y=u+iaa(x1*x3)+iaa(x2*x3)+iaa(x8*x3)+iaa(x0*x3)+iaa(x1*x2)+iaa(x2*x2)+iaa(x8*x2)+iaa(x0*x2)+iaaa(x1*x3*x3)+iaaa(x2*x3*x3)+iaaa(x8*x3*x3)+iaaa(x0*x3*x3)+iaaa(x1*x3*x2)+iaaa(x2*x3*x2)+iaaa(x8*x3*x2)+iaaa(x0*x3*x2)
283,1234.338329,206,370.570690,f1 f0 f3 f0 f0 f0 v3 v1 v2 v0 v8 v3 v2   ,y=u+iaa(x1*x3)+iaa(x2*x3)+iaa(x0*x3)+iaa(x8*x3)+iaa(x1*x2)+iaa(x2*x2)+iaa(x0*x2)+iaa(x8*x2)+iaaa(x1*x3*x3)+iaaa(x2*x3*x3)+iaaa(x0*x3*x3)+iaaa(x8*x3*x3)+iaaa(x1*x3*x2)+iaaa(x2*x3*x2)+iaaa(x0*x3*x2)+iaaa(x8*x3*x2)
285,1246.78278,210,370.570690,f1 f0 f3 f0 f0 f0 v3 v0 v8 v1 v2 v3 v2   ,y=u+iaa(x0*x3)+iaa(x8*x3)+iaa(x1*x3)+iaa(x2*x3)+iaa(x0*x2)+iaa(x8*x2)+iaa(x1*x2)+iaa(x2*x2)+iaaa(x0*x3*x3)+iaaa(x8*x3*x3)+iaaa(x1*x3*x3)+iaaa(x2*x3*x3)+iaaa(x0*x3*x2)+iaaa(x8*x3*x2)+iaaa(x1*x3*x2)+iaaa(x2*x3*x2)
286,1250.194236,210,370.570690,f1 f0 f3 f0 f0 f0 v3 v0 v2 v8 v1 v3 v2   ,y=u+iaa(x0*x3)+iaa(x2*x3)+iaa(x8*x3)+iaa(x1*x3)+iaa(x0*x2)+iaa(x2*x2)+iaa(x8*x2)+iaa(x1*x2)+iaaa(x0*x3*x3)+iaaa(x2*x3*x3)+iaaa(x8*x3*x3)+iaaa(x1*x3*x3)+iaaa(x0*x3*x2)+iaaa(x2*x3*x2)+iaaa(x8*x3*x2)+iaaa(x1*x3*x2)
287,1253.802363,210,370.570690,f1 f0 f3 f0 f0 f0 v3 v1 v2 v0 v8 v3 v2   ,y=u+iaa(x1*x3)+iaa(x2*x3)+iaa(x0*x3)+iaa(x8*x3)+iaa(x1*x2)+iaa(x2*x2)+iaa(x0*x2)+iaa(x8*x2)+iaaa(x1*x3*x3)+iaaa(x2*x3*x3)+iaaa(x0*x3*x3)+iaaa(x8*x3*x3)+iaaa(x1*x3*x2)+iaaa(x2*x3*x2)+iaaa(x0*x3*x2)+iaaa(x8*x3*x2)
288,1259.532122,210,370.570690,f1 f0 f3 f0 f0 f0 v3 v0 v8 v1 v2 v3 v2   ,y=u+iaa(x0*x3)+iaa(x8*x3)+iaa(x1*x3)+iaa(x2*x3)+iaa(x0*x2)+iaa(x8*x2)+iaa(x1*x2)+iaa(x2*x2)+iaaa(x0*x3*x3)+iaaa(x8*x3*x3)+iaaa(x1*x3*x3)+iaaa(x2*x3*x3)+iaaa(x0*x3*x2)+iaaa(x8*x3*x2)+iaaa(x1*x3*x2)+iaaa(x2*x3*x2)
290,1272.98892,210,370.570690,f1 f0 f3 f0 f0 f0 v3 v1 v2 v0 v8 v3 v2   ,y=u+iaa(x1*x3)+iaa(x2*x3)+iaa(x0*x3)+iaa(x8*x3)+iaa(x1*x2)+iaa(x2*x2)+iaa(x0*x2)+iaa(x8*x2)+iaaa(x1*x3*x3)+iaaa(x2*x3*x3)+iaaa(x0*x3*x3)+iaaa(x8*x3*x3)+iaaa(x1*x3*x2)+iaaa(x2*x3*x2)+iaaa(x0*x3*x2)+iaaa(x8*x3*x2)
291,1277.363763,210,370.570690,f1 f0 f3 f0 f0 f0 v3 v0 v2 v8 v1 v3 v2   ,y=u+iaa(x0*x3)+iaa(x2*x3)+iaa(x8*x3)+iaa(x1*x3)+iaa(x0*x2)+iaa(x2*x2)+iaa(x8*x2)+iaa(x1*x2)+iaaa(x0*x3*x3)+iaaa(x2*x3*x3)+iaaa(x8*x3*x3)+iaaa(x1*x3*x3)+iaaa(x0*x3*x2)+iaaa(x2*x3*x2)+iaaa(x8*x3*x2)+iaaa(x1*x3*x2)
293,1287.659589,210,370.570690,f1 f0 f3 f0 f0 f0 v3 v0 v8 v1 v2 v3 v2   ,y=u+iaa(x0*x3)+iaa(x8*x3)+iaa(x1*x3)+iaa(x2*x3)+iaa(x0*x2)+iaa(x8*x2)+iaa(x1*x2)+iaa(x2*x2)+iaaa(x0*x3*x3)+iaaa(x8*x3*x3)+iaaa(x1*x3*x3)+iaaa(x2*x3*x3)+iaaa(x0*x3*x2)+iaaa(x8*x3*x2)+iaaa(x1*x3*x2)+iaaa(x2*x3*x2)
295,1298.873570,210,370.570690,f1 f0 f3 f0 f0 f0 v3 v0 v2 v8 v1 v3 v2   ,y=u+iaa(x0*x3)+iaa(x2*x3)+iaa(x8*x3)+iaa(x1*x3)+iaa(x0*x2)+iaa(x2*x2)+iaa(x8*x2)+iaa(x1*x2)+iaaa(x0*x3*x3)+iaaa(x2*x3*x3)+iaaa(x8*x3*x3)+iaaa(x1*x3*x3)+iaaa(x0*x3*x2)+iaaa(x2*x3*x2)+iaaa(x8*x3*x2)+iaaa(x1*x3*x2)
296,1303.790136,210,370.570690,f1 f0 f3 f0 f0 f0 v3 v1 v2 v0 v8 v3 v2   ,y=u+iaa(x1*x3)+iaa(x2*x3)+iaa(x0*x3)+iaa(x8*x3)+iaa(x1*x2)+iaa(x2*x2)+iaa(x0*x2)+iaa(x8*x2)+iaaa(x1*x3*x3)+iaaa(x2*x3*x3)+iaaa(x0*x3*x3)+iaaa(x8*x3*x3)+iaaa(x1*x3*x2)+iaaa(x2*x3*x2)+iaaa(x0*x3*x2)+iaaa(x8*x3*x2)
298,1316.932241,210,370.570690,f1 f0 f3 f0 f0 f0 v3 v0 v2 v8 v1 v3 v2   ,y=u+iaa(x0*x3)+iaa(x2*x3)+iaa(x8*x3)+iaa(x1*x3)+iaa(x0*x2)+iaa(x2*x2)+iaa(x8*x2)+iaa(x1*x2)+iaaa(x0*x3*x3)+iaaa(x2*x3*x3)+iaaa(x8*x3*x3)+iaaa(x1*x3*x3)+iaaa(x0*x3*x2)+iaaa(x2*x3*x2)+iaaa(x8*x3*x2)+iaaa(x1*x3*x2)
299,1323.125576,210,370.570690,f1 f0 f3 f0 f0 f0 v3 v1 v2 v0 v8 v3 v2   ,y=u+iaa(x1*x3)+iaa(x2*x3)+iaa(x0*x3)+iaa(x8*x3)+iaa(x1*x2)+iaa(x2*x2)+iaa(x0*x2)+iaa(x8*x2)+iaaa(x1*x3*x3)+iaaa(x2*x3*x3)+iaaa(x0*x3*x3)+iaaa(x8*x3*x3)+iaaa(x1*x3*x2)+iaaa(x2*x3*x2)+iaaa(x0*x3*x2)+iaaa(x8*x3*x2)
300,1327.165228,210,370.570690,f1 f0 f3 f0 f0 f0 v3 v0 v8 v1 v2 v3 v2   ,y=u+iaa(x0*x3)+iaa(x8*x3)+iaa(x1*x3)+iaa(x2*x3)+iaa(x0*x2)+iaa(x8*x2)+iaa(x1*x2)+iaa(x2*x2)+iaaa(x0*x3*x3)+iaaa(x8*x3*x3)+iaaa(x1*x3*x3)+iaaa(x2*x3*x3)+iaaa(x0*x3*x2)+iaaa(x8*x3*x2)+iaaa(x1*x3*x2)+iaaa(x2*x3*x2)
303,1343.730710,210,370.570690,f1 f0 f3 f0 f0 f0 v3 v1 v2 v0 v8 v3 v2   ,y=u+iaa(x1*x3)+iaa(x2*x3)+iaa(x0*x3)+iaa(x8*x3)+iaa(x1*x2)+iaa(x2*x2)+iaa(x0*x2)+iaa(x8*x2)+iaaa(x1*x3*x3)+iaaa(x2*x3*x3)+iaaa(x0*x3*x3)+iaaa(x8*x3*x3)+iaaa(x1*x3*x2)+iaaa(x2*x3*x2)+iaaa(x0*x3*x2)+iaaa(x8*x3*x2)
305,1355.727399,210,370.570690,f1 f0 f3 f0 f0 f0 v3 v1 v2 v8 v0 v3 v2   ,y=u+iaa(x1*x3)+iaa(x2*x3)+iaa(x8*x3)+iaa(x0*x3)+iaa(x1*x2)+iaa(x2*x2)+iaa(x8*x2)+iaa(x0*x2)+iaaa(x1*x3*x3)+iaaa(x2*x3*x3)+iaaa(x8*x3*x3)+iaaa(x0*x3*x3)+iaaa(x1*x3*x2)+iaaa(x2*x3*x2)+iaaa(x8*x3*x2)+iaaa(x0*x3*x2)
310,1383.582341,210,370.570690,f1 f0 f3 f0 f0 f0 v3 v0 v8 v1 v2 v3 v2   ,y=u+iaa(x0*x3)+iaa(x8*x3)+iaa(x1*x3)+iaa(x2*x3)+iaa(x0*x2)+iaa(x8*x2)+iaa(x1*x2)+iaa(x2*x2)+iaaa(x0*x3*x3)+iaaa(x8*x3*x3)+iaaa(x1*x3*x3)+iaaa(x2*x3*x3)+iaaa(x0*x3*x2)+iaaa(x8*x3*x2)+iaaa(x1*x3*x2)+iaaa(x2*x3*x2)
311,1389.965684,210,370.570690,f1 f0 f3 f0 f0 f0 v3 v0 v2 v8 v1 v3 v2   ,y=u+iaa(x0*x3)+iaa(x2*x3)+iaa(x8*x3)+iaa(x1*x3)+iaa(x0*x2)+iaa(x2*x2)+iaa(x8*x2)+iaa(x1*x2)+iaaa(x0*x3*x3)+iaaa(x2*x3*x3)+iaaa(x8*x3*x3)+iaaa(x1*x3*x3)+iaaa(x0*x3*x2)+iaaa(x2*x3*x2)+iaaa(x8*x3*x2)+iaaa(x1*x3*x2)
312,1396.295225,208,370.570690,f1 f0 f3 f0 f0 f0 v3 v2 v1 v8 v0 v3 v2   ,y=u+iaa(x2*x3)+iaa(x1*x3)+iaa(x8*x3)+iaa(x0*x3)+iaa(x2*x2)+iaa(x1*x2)+iaa(x8*x2)+iaa(x0*x2)+iaaa(x2*x3*x3)+iaaa(x1*x3*x3)+iaaa(x8*x3*x3)+iaaa(x0*x3*x3)+iaaa(x2*x3*x2)+iaaa(x1*x3*x2)+iaaa(x8*x3*x2)+iaaa(x0*x3*x2)
313,1401.193393,200,370.570690,f1 f0 f3 f0 f0 f0 v3 v0 v2 v8 v1 v3 v2   ,y=u+iaa(x0*x3)+iaa(x2*x3)+iaa(x8*x3)+iaa(x1*x3)+iaa(x0*x2)+iaa(x2*x2)+iaa(x8*x2)+iaa(x1*x2)+iaaa(x0*x3*x3)+iaaa(x2*x3*x3)+iaaa(x8*x3*x3)+iaaa(x1*x3*x3)+iaaa(x0*x3*x2)+iaaa(x2*x3*x2)+iaaa(x8*x3*x2)+iaaa(x1*x3*x2)
317,1418.768311,206,370.570690,f1 f0 f3 f0 f0 f0 v3 v1 v2 v0 v8 v3 v2   ,y=u+iaa(x1*x3)+iaa(x2*x3)+iaa(x0*x3)+iaa(x8*x3)+iaa(x1*x2)+iaa(x2*x2)+iaa(x0*x2)+iaa(x8*x2)+iaaa(x1*x3*x3)+iaaa(x2*x3*x3)+iaaa(x0*x3*x3)+iaaa(x8*x3*x3)+iaaa(x1*x3*x2)+iaaa(x2*x3*x2)+iaaa(x0*x3*x2)+iaaa(x8*x3*x2)
318,1424.739855,208,370.570690,f1 f0 f3 f0 f0 f0 v3 v1 v2 v8 v0 v3 v2   ,y=u+iaa(x1*x3)+iaa(x2*x3)+iaa(x8*x3)+iaa(x0*x3)+iaa(x1*x2)+iaa(x2*x2)+iaa(x8*x2)+iaa(x0*x2)+iaaa(x1*x3*x3)+iaaa(x2*x3*x3)+iaaa(x8*x3*x3)+iaaa(x0*x3*x3)+iaaa(x1*x3*x2)+iaaa(x2*x3*x2)+iaaa(x8*x3*x2)+iaaa(x0*x3*x2)
319,1430.996738,208,370.570690,f1 f0 f3 f0 f0 f0 v3 v2 v1 v8 v0 v3 v2   ,y=u+iaa(x2*x3)+iaa(x1*x3)+iaa(x8*x3)+iaa(x0*x3)+iaa(x2*x2)+iaa(x1*x2)+iaa(x8*x2)+iaa(x0*x2)+iaaa(x2*x3*x3)+iaaa(x1*x3*x3)+iaaa(x8*x3*x3)+iaaa(x0*x3*x3)+iaaa(x2*x3*x2)+iaaa(x1*x3*x2)+iaaa(x8*x3*x2)+iaaa(x0*x3*x2)
320,1436.603146,210,370.570690,f1 f0 f3 f0 f0 f0 v3 v0 v8 v1 v2 v3 v2   ,y=u+iaa(x0*x3)+iaa(x8*x3)+iaa(x1*x3)+iaa(x2*x3)+iaa(x0*x2)+iaa(x8*x2)+iaa(x1*x2)+iaa(x2*x2)+iaaa(x0*x3*x3)+iaaa(x8*x3*x3)+iaaa(x1*x3*x3)+iaaa(x2*x3*x3)+iaaa(x0*x3*x2)+iaaa(x8*x3*x2)+iaaa(x1*x3*x2)+iaaa(x2*x3*x2)
321,1442.108342,210,370.570690,f1 f0 f3 f0 f0 f0 v3 v1 v2 v8 v0 v3 v2   ,y=u+iaa(x1*x3)+iaa(x2*x3)+iaa(x8*x3)+iaa(x0*x3)+iaa(x1*x2)+iaa(x2*x2)+iaa(x8*x2)+iaa(x0*x2)+iaaa(x1*x3*x3)+iaaa(x2*x3*x3)+iaaa(x8*x3*x3)+iaaa(x0*x3*x3)+iaaa(x1*x3*x2)+iaaa(x2*x3*x2)+iaaa(x8*x3*x2)+iaaa(x0*x3*x2)
322,1446.127717,210,370.570690,f1 f0 f3 f0 f0 f0 v3 v0 v2 v8 v1 v3 v2   ,y=u+iaa(x0*x3)+iaa(x2*x3)+iaa(x8*x3)+iaa(x1*x3)+iaa(x0*x2)+iaa(x2*x2)+iaa(x8*x2)+iaa(x1*x2)+iaaa(x0*x3*x3)+iaaa(x2*x3*x3)+iaaa(x8*x3*x3)+iaaa(x1*x3*x3)+iaaa(x0*x3*x2)+iaaa(x2*x3*x2)+iaaa(x8*x3*x2)+iaaa(x1*x3*x2)
323,1449.802948,210,370.570690,f1 f0 f3 f0 f0 f0 v3 v0 v8 v1 v2 v3 v2   ,y=u+iaa(x0*x3)+iaa(x8*x3)+iaa(x1*x3)+iaa(x2*x3)+iaa(x0*x2)+iaa(x8*x2)+iaa(x1*x2)+iaa(x2*x2)+iaaa(x0*x3*x3)+iaaa(x8*x3*x3)+iaaa(x1*x3*x3)+iaaa(x2*x3*x3)+iaaa(x0*x3*x2)+iaaa(x8*x3*x2)+iaaa(x1*x3*x2)+iaaa(x2*x3*x2)
324,1454.588707,210,370.570690,f1 f0 f3 f0 f0 f0 v3 v1 v2 v0 v8 v3 v2   ,y=u+iaa(x1*x3)+iaa(x2*x3)+iaa(x0*x3)+iaa(x8*x3)+iaa(x1*x2)+iaa(x2*x2)+iaa(x0*x2)+iaa(x8*x2)+iaaa(x1*x3*x3)+iaaa(x2*x3*x3)+iaaa(x0*x3*x3)+iaaa(x8*x3*x3)+iaaa(x1*x3*x2)+iaaa(x2*x3*x2)+iaaa(x0*x3*x2)+iaaa(x8*x3*x2)
325,1460.589386,210,370.570690,f1 f0 f3 f0 f0 f0 v3 v1 v2 v8 v0 v3 v2   ,y=u+iaa(x1*x3)+iaa(x2*x3)+iaa(x8*x3)+iaa(x0*x3)+iaa(x1*x2)+iaa(x2*x2)+iaa(x8*x2)+iaa(x0*x2)+iaaa(x1*x3*x3)+iaaa(x2*x3*x3)+iaaa(x8*x3*x3)+iaaa(x0*x3*x3)+iaaa(x1*x3*x2)+iaaa(x2*x3*x2)+iaaa(x8*x3*x2)+iaaa(x0*x3*x2)
326,1466.843301,210,370.570690,f1 f0 f3 f0 f0 f0 v3 v0 v2 v8 v1 v3 v2   ,y=u+iaa(x0*x3)+iaa(x2*x3)+iaa(x8*x3)+iaa(x1*x3)+iaa(x0*x2)+iaa(x2*x2)+iaa(x8*x2)+iaa(x1*x2)+iaaa(x0*x3*x3)+iaaa(x2*x3*x3)+iaaa(x8*x3*x3)+iaaa(x1*x3*x3)+iaaa(x0*x3*x2)+iaaa(x2*x3*x2)+iaaa(x8*x3*x2)+iaaa(x1*x3*x2)
329,1484.628576,210,370.570690,f1 f0 f3 f0 f0 f0 v3 v1 v2 v0 v8 v3 v2   ,y=u+iaa(x1*x3)+iaa(x2*x3)+iaa(x0*x3)+iaa(x8*x3)+iaa(x1*x2)+iaa(x2*x2)+iaa(x0*x2)+iaa(x8*x2)+iaaa(x1*x3*x3)+iaaa(x2*x3*x3)+iaaa(x0*x3*x3)+iaaa(x8*x3*x3)+iaaa(x1*x3*x2)+iaaa(x2*x3*x2)+iaaa(x0*x3*x2)+iaaa(x8*x3*x2)
330,1489.712764,210,370.570690,f1 f0 f3 f0 f0 f0 v3 v0 v8 v1 v2 v3 v2   ,y=u+iaa(x0*x3)+iaa(x8*x3)+iaa(x1*x3)+iaa(x2*x3)+iaa(x0*x2)+iaa(x8*x2)+iaa(x1*x2)+iaa(x2*x2)+iaaa(x0*x3*x3)+iaaa(x8*x3*x3)+iaaa(x1*x3*x3)+iaaa(x2*x3*x3)+iaaa(x0*x3*x2)+iaaa(x8*x3*x2)+iaaa(x1*x3*x2)+iaaa(x2*x3*x2)
331,1493.616541,210,370.570690,f1 f0 f3 f0 f0 f0 v3 v2 v1 v8 v0 v3 v2   ,y=u+iaa(x2*x3)+iaa(x1*x3)+iaa(x8*x3)+iaa(x0*x3)+iaa(x2*x2)+iaa(x1*x2)+iaa(x8*x2)+iaa(x0*x2)+iaaa(x2*x3*x3)+iaaa(x1*x3*x3)+iaaa(x8*x3*x3)+iaaa(x0*x3*x3)+iaaa(x2*x3*x2)+iaaa(x1*x3*x2)+iaaa(x8*x3*x2)+iaaa(x0*x3*x2)
332,1496.442499,210,370.570690,f1 f0 f3 f0 f0 f0 v3 v1 v2 v8 v0 v3 v2   ,y=u+iaa(x1*x3)+iaa(x2*x3)+iaa(x8*x3)+iaa(x0*x3)+iaa(x1*x2)+iaa(x2*x2)+iaa(x8*x2)+iaa(x0*x2)+iaaa(x1*x3*x3)+iaaa(x2*x3*x3)+iaaa(x8*x3*x3)+iaaa(x0*x3*x3)+iaaa(x1*x3*x2)+iaaa(x2*x3*x2)+iaaa(x8*x3*x2)+iaaa(x0*x3*x2)
333,1500.784012,210,370.570690,f1 f0 f3 f0 f0 f0 v3 v1 v2 v0 v8 v3 v2   ,y=u+iaa(x1*x3)+iaa(x2*x3)+iaa(x0*x3)+iaa(x8*x3)+iaa(x1*x2)+iaa(x2*x2)+iaa(x0*x2)+iaa(x8*x2)+iaaa(x1*x3*x3)+iaaa(x2*x3*x3)+iaaa(x0*x3*x3)+iaaa(x8*x3*x3)+iaaa(x1*x3*x2)+iaaa(x2*x3*x2)+iaaa(x0*x3*x2)+iaaa(x8*x3*x2)
334,1503.431776,210,370.570690,f1 f0 f3 f0 f0 f0 v3 v2 v1 v8 v0 v3 v2   ,y=u+iaa(x2*x3)+iaa(x1*x3)+iaa(x8*x3)+iaa(x0*x3)+iaa(x2*x2)+iaa(x1*x2)+iaa(x8*x2)+iaa(x0*x2)+iaaa(x2*x3*x3)+iaaa(x1*x3*x3)+iaaa(x8*x3*x3)+iaaa(x0*x3*x3)+iaaa(x2*x3*x2)+iaaa(x1*x3*x2)+iaaa(x8*x3*x2)+iaaa(x0*x3*x2)
335,1507.264824,210,370.570690,f1 f0 f3 f0 f0 f0 v3 v0 v2 v8 v1 v3 v2   ,y=u+iaa(x0*x3)+iaa(x2*x3)+iaa(x8*x3)+iaa(x1*x3)+iaa(x0*x2)+iaa(x2*x2)+iaa(x8*x2)+iaa(x1*x2)+iaaa(x0*x3*x3)+iaaa(x2*x3*x3)+iaaa(x8*x3*x3)+iaaa(x1*x3*x3)+iaaa(x0*x3*x2)+iaaa(x2*x3*x2)+iaaa(x8*x3*x2)+iaaa(x1*x3*x2)
336,1512.591998,210,370.570690,f1 f0 f3 f0 f0 f0 v3 v2 v1 v8 v0 v3 v2   ,y=u+iaa(x2*x3)+iaa(x1*x3)+iaa(x8*x3)+iaa(x0*x3)+iaa(x2*x2)+iaa(x1*x2)+iaa(x8*x2)+iaa(x0*x2)+iaaa(x2*x3*x3)+iaaa(x1*x3*x3)+iaaa(x8*x3*x3)+iaaa(x0*x3*x3)+iaaa(x2*x3*x2)+iaaa(x1*x3*x2)+iaaa(x8*x3*x2)+iaaa(x0*x3*x2)
337,1517.815432,210,370.570690,f1 f0 f3 f0 f0 f0 v3 v0 v2 v8 v1 v3 v2   ,y=u+iaa(x0*x3)+iaa(x2*x3)+iaa(x8*x3)+iaa(x1*x3)+iaa(x0*x2)+iaa(x2*x2)+iaa(x8*x2)+iaa(x1*x2)+iaaa(x0*x3*x3)+iaaa(x2*x3*x3)+iaaa(x8*x3*x3)+iaaa(x1*x3*x3)+iaaa(x0*x3*x2)+iaaa(x2*x3*x2)+iaaa(x8*x3*x2)+iaaa(x1*x3*x2)
338,1523.227563,210,370.570690,f1 f0 f3 f0 f0 f0 v3 v0 v8 v1 v2 v3 v2   ,y=u+iaa(x0*x3)+iaa(x8*x3)+iaa(x1*x3)+iaa(x2*x3)+iaa(x0*x2)+iaa(x8*x2)+iaa(x1*x2)+iaa(x2*x2)+iaaa(x0*x3*x3)+iaaa(x8*x3*x3)+iaaa(x1*x3*x3)+iaaa(x2*x3*x3)+iaaa(x0*x3*x2)+iaaa(x8*x3*x2)+iaaa(x1*x3*x2)+iaaa(x2*x3*x2)
339,1527.810433,210,370.570690,f1 f0 f3 f0 f0 f0 v3 v2 v1 v8 v0 v3 v2   ,y=u+iaa(x2*x3)+iaa(x1*x3)+iaa(x8*x3)+iaa(x0*x3)+iaa(x2*x2)+iaa(x1*x2)+iaa(x8*x2)+iaa(x0*x2)+iaaa(x2*x3*x3)+iaaa(x1*x3*x3)+iaaa(x8*x3*x3)+iaaa(x0*x3*x3)+iaaa(x2*x3*x2)+iaaa(x1*x3*x2)+iaaa(x8*x3*x2)+iaaa(x0*x3*x2)
341,1536.847808,210,370.570690,f1 f0 f3 f0 f0 f0 v3 v0 v8 v1 v2 v3 v2   ,y=u+iaa(x0*x3)+iaa(x8*x3)+iaa(x1*x3)+iaa(x2*x3)+iaa(x0*x2)+iaa(x8*x2)+iaa(x1*x2)+iaa(x2*x2)+iaaa(x0*x3*x3)+iaaa(x8*x3*x3)+iaaa(x1*x3*x3)+iaaa(x2*x3*x3)+iaaa(x0*x3*x2)+iaaa(x8*x3*x2)+iaaa(x1*x3*x2)+iaaa(x2*x3*x2)
342,1539.557178,210,370.570690,f1 f0 f3 f0 f0 f0 v3 v1 v2 v0 v8 v3 v2   ,y=u+iaa(x1*x3)+iaa(x2*x3)+iaa(x0*x3)+iaa(x8*x3)+iaa(x1*x2)+iaa(x2*x2)+iaa(x0*x2)+iaa(x8*x2)+iaaa(x1*x3*x3)+iaaa(x2*x3*x3)+iaaa(x0*x3*x3)+iaaa(x8*x3*x3)+iaaa(x1*x3*x2)+iaaa(x2*x3*x2)+iaaa(x0*x3*x2)+iaaa(x8*x3*x2)
343,1543.380873,210,370.570690,f1 f0 f3 f0 f0 f0 v3 v1 v2 v8 v0 v3 v2   ,y=u+iaa(x1*x3)+iaa(x2*x3)+iaa(x8*x3)+iaa(x0*x3)+iaa(x1*x2)+iaa(x2*x2)+iaa(x8*x2)+iaa(x0*x2)+iaaa(x1*x3*x3)+iaaa(x2*x3*x3)+iaaa(x8*x3*x3)+iaaa(x0*x3*x3)+iaaa(x1*x3*x2)+iaaa(x2*x3*x2)+iaaa(x8*x3*x2)+iaaa(x0*x3*x2)
344,1548.824246,210,370.570690,f1 f0 f3 f0 f0 f0 v3 v0 v2 v8 v1 v3 v2   ,y=u+iaa(x0*x3)+iaa(x2*x3)+iaa(x8*x3)+iaa(x1*x3)+iaa(x0*x2)+iaa(x2*x2)+iaa(x8*x2)+iaa(x1*x2)+iaaa(x0*x3*x3)+iaaa(x2*x3*x3)+iaaa(x8*x3*x3)+iaaa(x1*x3*x3)+iaaa(x0*x3*x2)+iaaa(x2*x3*x2)+iaaa(x8*x3*x2)+iaaa(x1*x3*x2)
345,1554.33993,200,370.570690,f1 f0 f3 f0 f0 f0 f0 v0 v8 v1 v2 v3 v2 v3 v3 ,y=u+iaa(x0*x3)+iaa(x8*x3)+iaa(x1*x3)+iaa(x2*x3)+iaa(x0*x2)+iaa(x8*x2)+iaa(x1*x2)+iaa(x2*x2)+iaaa(x0*x3*x3)+iaaa(x8*x3*x3)+iaaa(x1*x3*x3)+iaaa(x2*x3*x3)+iaaa(x0*x3*x2)+iaaa(x8*x3*x2)+iaaa(x1*x3*x2)+iaaa(x2*x3*x2)
346,1557.501952,204,370.570690,f1 f0 f3 f0 f0 f0 v3 v0 v2 v8 v1 v3 v2   ,y=u+iaa(x0*x3)+iaa(x2*x3)+iaa(x8*x3)+iaa(x1*x3)+iaa(x0*x2)+iaa(x2*x2)+iaa(x8*x2)+iaa(x1*x2)+iaaa(x0*x3*x3)+iaaa(x2*x3*x3)+iaaa(x8*x3*x3)+iaaa(x1*x3*x3)+iaaa(x0*x3*x2)+iaaa(x2*x3*x2)+iaaa(x8*x3*x2)+iaaa(x1*x3*x2)
347,1560.227991,208,370.570690,f1 f0 f3 f0 f0 f0 v3 v1 v2 v0 v8 v3 v2   ,y=u+iaa(x1*x3)+iaa(x2*x3)+iaa(x0*x3)+iaa(x8*x3)+iaa(x1*x2)+iaa(x2*x2)+iaa(x0*x2)+iaa(x8*x2)+iaaa(x1*x3*x3)+iaaa(x2*x3*x3)+iaaa(x0*x3*x3)+iaaa(x8*x3*x3)+iaaa(x1*x3*x2)+iaaa(x2*x3*x2)+iaaa(x0*x3*x2)+iaaa(x8*x3*x2)
349,1569.540358,210,370.570690,f1 f0 f3 f0 f0 f0 v3 v0 v8 v1 v2 v3 v2   ,y=u+iaa(x0*x3)+iaa(x8*x3)+iaa(x1*x3)+iaa(x2*x3)+iaa(x0*x2)+iaa(x8*x2)+iaa(x1*x2)+iaa(x2*x2)+iaaa(x0*x3*x3)+iaaa(x8*x3*x3)+iaaa(x1*x3*x3)+iaaa(x2*x3*x3)+iaaa(x0*x3*x2)+iaaa(x8*x3*x2)+iaaa(x1*x3*x2)+iaaa(x2*x3*x2)
350,1574.255482,210,370.570690,f1 f0 f3 f0 f0 f0 v3 v1 v2 v0 v8 v3 v2   ,y=u+iaa(x1*x3)+iaa(x2*x3)+iaa(x0*x3)+iaa(x8*x3)+iaa(x1*x2)+iaa(x2*x2)+iaa(x0*x2)+iaa(x8*x2)+iaaa(x1*x3*x3)+iaaa(x2*x3*x3)+iaaa(x0*x3*x3)+iaaa(x8*x3*x3)+iaaa(x1*x3*x2)+iaaa(x2*x3*x2)+iaaa(x0*x3*x2)+iaaa(x8*x3*x2)
351,1577.905933,210,370.570690,f1 f0 f3 f0 f0 f0 v3 v1 v2 v8 v0 v3 v2   ,y=u+iaa(x1*x3)+iaa(x2*x3)+iaa(x8*x3)+iaa(x0*x3)+iaa(x1*x2)+iaa(x2*x2)+iaa(x8*x2)+iaa(x0*x2)+iaaa(x1*x3*x3)+iaaa(x2*x3*x3)+iaaa(x8*x3*x3)+iaaa(x0*x3*x3)+iaaa(x1*x3*x2)+iaaa(x2*x3*x2)+iaaa(x8*x3*x2)+iaaa(x0*x3*x2)
352,1580.978379,200,370.570690,f1 f0 f3 f0 f0 f0 v3 v0 v8 v1 v2 v3 v2   ,y=u+iaa(x0*x3)+iaa(x8*x3)+iaa(x1*x3)+iaa(x2*x3)+iaa(x0*x2)+iaa(x8*x2)+iaa(x1*x2)+iaa(x2*x2)+iaaa(x0*x3*x3)+iaaa(x8*x3*x3)+iaaa(x1*x3*x3)+iaaa(x2*x3*x3)+iaaa(x0*x3*x2)+iaaa(x8*x3*x2)+iaaa(x1*x3*x2)+iaaa(x2*x3*x2)
353,1585.875938,200,370.570690,f1 f0 f3 f0 f0 f0 v3 v1 v2 v0 v8 v2 v3   ,y=u+iaa(x1*x2)+iaa(x2*x2)+iaa(x0*x2)+iaa(x8*x2)+iaa(x1*x3)+iaa(x2*x3)+iaa(x0*x3)+iaa(x8*x3)+iaaa(x1*x3*x2)+iaaa(x2*x3*x2)+iaaa(x0*x3*x2)+iaaa(x8*x3*x2)+iaaa(x1*x3*x3)+iaaa(x2*x3*x3)+iaaa(x0*x3*x3)+iaaa(x8*x3*x3)
354,1591.553393,200,370.570690,f1 f0 f3 f0 f0 f0 f0 v1 v2 v0 v8 v3 v2 v3 v3 ,y=u+iaa(x1*x3)+iaa(x2*x3)+iaa(x0*x3)+iaa(x8*x3)+iaa(x1*x2)+iaa(x2*x2)+iaa(x0*x2)+iaa(x8*x2)+iaaa(x1*x3*x3)+iaaa(x2*x3*x3)+iaaa(x0*x3*x3)+iaaa(x8*x3*x3)+iaaa(x1*x3*x2)+iaaa(x2*x3*x2)+iaaa(x0*x3*x2)+iaaa(x8*x3*x2)
355,1594.620415,202,370.570690,f1 f0 f3 f0 f0 f0 v3 v1 v2 v8 v0 v3 v2   ,y=u+iaa(x1*x3)+iaa(x2*x3)+iaa(x8*x3)+iaa(x0*x3)+iaa(x1*x2)+iaa(x2*x2)+iaa(x8*x2)+iaa(x0*x2)+iaaa(x1*x3*x3)+iaaa(x2*x3*x3)+iaaa(x8*x3*x3)+iaaa(x0*x3*x3)+iaaa(x1*x3*x2)+iaaa(x2*x3*x2)+iaaa(x8*x3*x2)+iaaa(x0*x3*x2)
356,1598.547439,202,370.570690,f1 f0 f3 f0 f0 f0 f0 v1 v2 v0 v8 v3 v2 v3 v3 ,y=u+iaa(x1*x3)+iaa(x2*x3)+iaa(x0*x3)+iaa(x8*x3)+iaa(x1*x2)+iaa(x2*x2)+iaa(x0*x2)+iaa(x8*x2)+iaaa(x1*x3*x3)+iaaa(x2*x3*x3)+iaaa(x0*x3*x3)+iaaa(x8*x3*x3)+iaaa(x1*x3*x2)+iaaa(x2*x3*x2)+iaaa(x0*x3*x2)+iaaa(x8*x3*x2)
357,1603.646804,206,370.570690,f1 f0 f3 f0 f0 f0 v3 v0 v8 v1 v2 v3 v2   ,y=u+iaa(x0*x3)+iaa(x8*x3)+iaa(x1*x3)+iaa(x2*x3)+iaa(x0*x2)+iaa(x8*x2)+iaa(x1*x2)+iaa(x2*x2)+iaaa(x0*x3*x3)+iaaa(x8*x3*x3)+iaaa(x1*x3*x3)+iaaa(x2*x3*x3)+iaaa(x0*x3*x2)+iaaa(x8*x3*x2)+iaaa(x1*x3*x2)+iaaa(x2*x3*x2)
358,1608.903860,208,370.570690,f1 f0 f3 f0 f0 f0 v3 v1 v2 v8 v0 v3 v2   ,y=u+iaa(x1*x3)+iaa(x2*x3)+iaa(x8*x3)+iaa(x0*x3)+iaa(x1*x2)+iaa(x2*x2)+iaa(x8*x2)+iaa(x0*x2)+iaaa(x1*x3*x3)+iaaa(x2*x3*x3)+iaaa(x8*x3*x3)+iaaa(x0*x3*x3)+iaaa(x1*x3*x2)+iaaa(x2*x3*x2)+iaaa(x8*x3*x2)+iaaa(x0*x3*x2)
359,1614.730965,200,370.570690,f1 f0 f3 f0 f0 f0 v3 v1 v2 v0 v8 v3 v2   ,y=u+iaa(x1*x3)+iaa(x2*x3)+iaa(x0*x3)+iaa(x8*x3)+iaa(x1*x2)+iaa(x2*x2)+iaa(x0*x2)+iaa(x8*x2)+iaaa(x1*x3*x3)+iaaa(x2*x3*x3)+iaaa(x0*x3*x3)+iaaa(x8*x3*x3)+iaaa(x1*x3*x2)+iaaa(x2*x3*x2)+iaaa(x0*x3*x2)+iaaa(x8*x3*x2)
360,1622.542072,200,370.570690,f1 f0 f3 f0 f0 f0 v3 v1 v2 v8 v0 v3 v2   ,y=u+iaa(x1*x3)+iaa(x2*x3)+iaa(x8*x3)+iaa(x0*x3)+iaa(x1*x2)+iaa(x2*x2)+iaa(x8*x2)+iaa(x0*x2)+iaaa(x1*x3*x3)+iaaa(x2*x3*x3)+iaaa(x8*x3*x3)+iaaa(x0*x3*x3)+iaaa(x1*x3*x2)+iaaa(x2*x3*x2)+iaaa(x8*x3*x2)+iaaa(x0*x3*x2)
361,1629.718969,200,370.570690,f1 f0 f3 f0 f0 f0 f0 v0 v1 v2 v8 v3 v2 v3 v3 ,y=u+iaa(x0*x3)+iaa(x1*x3)+iaa(x2*x3)+iaa(x8*x3)+iaa(x0*x2)+iaa(x1*x2)+iaa(x2*x2)+iaa(x8*x2)+iaaa(x0*x3*x3)+iaaa(x1*x3*x3)+iaaa(x2*x3*x3)+iaaa(x8*x3*x3)+iaaa(x0*x3*x2)+iaaa(x1*x3*x2)+iaaa(x2*x3*x2)+iaaa(x8*x3*x2)
362,1635.325659,200,370.570690,f1 f0 f3 f0 f0 f0 v3 v0 v1 v2 v8 v3 v2   ,y=u+iaa(x0*x3)+iaa(x1*x3)+iaa(x2*x3)+iaa(x8*x3)+iaa(x0*x2)+iaa(x1*x2)+iaa(x2*x2)+iaa(x8*x2)+iaaa(x0*x3*x3)+iaaa(x1*x3*x3)+iaaa(x2*x3*x3)+iaaa(x8*x3*x3)+iaaa(x0*x3*x2)+iaaa(x1*x3*x2)+iaaa(x2*x3*x2)+iaaa(x8*x3*x2)
363,1640.938814,200,370.570690,f1 f0 f3 f0 f0 f0 v3 v1 v2 v0 v8 v2 v3   ,y=u+iaa(x1*x2)+iaa(x2*x2)+iaa(x0*x2)+iaa(x8*x2)+iaa(x1*x3)+iaa(x2*x3)+iaa(x0*x3)+iaa(x8*x3)+iaaa(x1*x3*x2)+iaaa(x2*x3*x2)+iaaa(x0*x3*x2)+iaaa(x8*x3*x2)+iaaa(x1*x3*x3)+iaaa(x2*x3*x3)+iaaa(x0*x3*x3)+iaaa(x8*x3*x3)
365,1648.666498,200,370.570690,f1 f0 f3 f0 f0 f0 v3 v1 v2 v0 v8 v3 v2   ,y=u+iaa(x1*x3)+iaa(x2*x3)+iaa(x0*x3)+iaa(x8*x3)+iaa(x1*x2)+iaa(x2*x2)+iaa(x0*x2)+iaa(x8*x2)+iaaa(x1*x3*x3)+iaaa(x2*x3*x3)+iaaa(x0*x3*x3)+iaaa(x8*x3*x3)+iaaa(x1*x3*x2)+iaaa(x2*x3*x2)+iaaa(x0*x3*x2)+iaaa(x8*x3*x2)
366,1653.372490,206,370.570690,f1 f0 f3 f0 f0 f0 f0 v2 v1 v8 v0 v3 v2 v3 v3 ,y=u+iaa(x2*x3)+iaa(x1*x3)+iaa(x8*x3)+iaa(x0*x3)+iaa(x2*x2)+iaa(x1*x2)+iaa(x8*x2)+iaa(x0*x2)+iaaa(x2*x3*x3)+iaaa(x1*x3*x3)+iaaa(x8*x3*x3)+iaaa(x0*x3*x3)+iaaa(x2*x3*x2)+iaaa(x1*x3*x2)+iaaa(x8*x3*x2)+iaaa(x0*x3*x2)
367,1659.19657,208,370.570690,f1 f0 f3 f0 f0 f0 f0 v1 v2 v8 v0 v3 v2 v3 v3 ,y=u+iaa(x1*x3)+iaa(x2*x3)+iaa(x8*x3)+iaa(x0*x3)+iaa(x1*x2)+iaa(x2*x2)+iaa(x8*x2)+iaa(x0*x2)+iaaa(x1*x3*x3)+iaaa(x2*x3*x3)+iaaa(x8*x3*x3)+iaaa(x0*x3*x3)+iaaa(x1*x3*x2)+iaaa(x2*x3*x2)+iaaa(x8*x3*x2)+iaaa(x0*x3*x2)
368,1664.511679,206,370.570690,f1 f0 f3 f0 f0 f0 f0 v2 v1 v8 v0 v3 v2 v3 v3 ,y=u+iaa(x2*x3)+iaa(x1*x3)+iaa(x8*x3)+iaa(x0*x3)+iaa(x2*x2)+iaa(x1*x2)+iaa(x8*x2)+iaa(x0*x2)+iaaa(x2*x3*x3)+iaaa(x1*x3*x3)+iaaa(x8*x3*x3)+iaaa(x0*x3*x3)+iaaa(x2*x3*x2)+iaaa(x1*x3*x2)+iaaa(x8*x3*x2)+iaaa(x0*x3*x2)
369,1667.474267,208,370.570690,f1 f0 f3 f0 f0 f0 v3 v1 v2 v0 v8 v2 v3   ,y=u+iaa(x1*x2)+iaa(x2*x2)+iaa(x0*x2)+iaa(x8*x2)+iaa(x1*x3)+iaa(x2*x3)+iaa(x0*x3)+iaa(x8*x3)+iaaa(x1*x3*x2)+iaaa(x2*x3*x2)+iaaa(x0*x3*x2)+iaaa(x8*x3*x2)+iaaa(x1*x3*x3)+iaaa(x2*x3*x3)+iaaa(x0*x3*x3)+iaaa(x8*x3*x3)
370,1671.641964,210,370.570690,f1 f0 f3 f0 f0 f0 v3 v2 v1 v8 v0 v3 v2   ,y=u+iaa(x2*x3)+iaa(x1*x3)+iaa(x8*x3)+iaa(x0*x3)+iaa(x2*x2)+iaa(x1*x2)+iaa(x8*x2)+iaa(x0*x2)+iaaa(x2*x3*x3)+iaaa(x1*x3*x3)+iaaa(x8*x3*x3)+iaaa(x0*x3*x3)+iaaa(x2*x3*x2)+iaaa(x1*x3*x2)+iaaa(x8*x3*x2)+iaaa(x0*x3*x2)
371,1677.133908,210,370.570690,f1 f0 f3 f0 f0 f0 v3 v0 v1 v2 v8 v3 v2   ,y=u+iaa(x0*x3)+iaa(x1*x3)+iaa(x2*x3)+iaa(x8*x3)+iaa(x0*x2)+iaa(x1*x2)+iaa(x2*x2)+iaa(x8*x2)+iaaa(x0*x3*x3)+iaaa(x1*x3*x3)+iaaa(x2*x3*x3)+iaaa(x8*x3*x3)+iaaa(x0*x3*x2)+iaaa(x1*x3*x2)+iaaa(x2*x3*x2)+iaaa(x8*x3*x2)
372,1682.780504,210,370.570690,f1 f0 f3 f0 f0 f0 v3 v2 v1 v8 v0 v3 v2   ,y=u+iaa(x2*x3)+iaa(x1*x3)+iaa(x8*x3)+iaa(x0*x3)+iaa(x2*x2)+iaa(x1*x2)+iaa(x8*x2)+iaa(x0*x2)+iaaa(x2*x3*x3)+iaaa(x1*x3*x3)+iaaa(x8*x3*x3)+iaaa(x0*x3*x3)+iaaa(x2*x3*x2)+iaaa(x1*x3*x2)+iaaa(x8*x3*x2)+iaaa(x0*x3*x2)
373,1688.596798,210,370.570690,f1 f0 f3 f0 f0 f0 v3 v0 v8 v1 v2 v2 v3   ,y=u+iaa(x0*x2)+iaa(x8*x2)+iaa(x1*x2)+iaa(x2*x2)+iaa(x0*x3)+iaa(x8*x3)+iaa(x1*x3)+iaa(x2*x3)+iaaa(x0*x3*x2)+iaaa(x8*x3*x2)+iaaa(x1*x3*x2)+iaaa(x2*x3*x2)+iaaa(x0*x3*x3)+iaaa(x8*x3*x3)+iaaa(x1*x3*x3)+iaaa(x2*x3*x3)
374,1693.498175,210,370.570690,f1 f0 f3 f0 f0 f0 f0 v1 v2 v8 v0 v3 v2 v3 v3 ,y=u+iaa(x1*x3)+iaa(x2*x3)+iaa(x8*x3)+iaa(x0*x3)+iaa(x1*x2)+iaa(x2*x2)+iaa(x8*x2)+iaa(x0*x2)+iaaa(x1*x3*x3)+iaaa(x2*x3*x3)+iaaa(x8*x3*x3)+iaaa(x0*x3*x3)+iaaa(x1*x3*x2)+iaaa(x2*x3*x2)+iaaa(x8*x3*x2)+iaaa(x0*x3*x2)
375,1696.917730,210,370.570690,f1 f0 f3 f0 f0 f0 v3 v2 v1 v8 v0 v3 v2   ,y=u+iaa(x2*x3)+iaa(x1*x3)+iaa(x8*x3)+iaa(x0*x3)+iaa(x2*x2)+iaa(x1*x2)+iaa(x8*x2)+iaa(x0*x2)+iaaa(x2*x3*x3)+iaaa(x1*x3*x3)+iaaa(x8*x3*x3)+iaaa(x0*x3*x3)+iaaa(x2*x3*x2)+iaaa(x1*x3*x2)+iaaa(x8*x3*x2)+iaaa(x0*x3*x2)
377,1704.628786,210,370.570690,f1 f0 f3 f0 f0 f0 v3 v0 v8 v1 v2 v2 v3   ,y=u+iaa(x0*x2)+iaa(x8*x2)+iaa(x1*x2)+iaa(x2*x2)+iaa(x0*x3)+iaa(x8*x3)+iaa(x1*x3)+iaa(x2*x3)+iaaa(x0*x3*x2)+iaaa(x8*x3*x2)+iaaa(x1*x3*x2)+iaaa(x2*x3*x2)+iaaa(x0*x3*x3)+iaaa(x8*x3*x3)+iaaa(x1*x3*x3)+iaaa(x2*x3*x3)
378,1709.488874,210,370.570690,f1 f0 f3 f0 f0 f0 f0 v2 v1 v8 v0 v3 v2 v3 v3 ,y=u+iaa(x2*x3)+iaa(x1*x3)+iaa(x8*x3)+iaa(x0*x3)+iaa(x2*x2)+iaa(x1*x2)+iaa(x8*x2)+iaa(x0*x2)+iaaa(x2*x3*x3)+iaaa(x1*x3*x3)+iaaa(x8*x3*x3)+iaaa(x0*x3*x3)+iaaa(x2*x3*x2)+iaaa(x1*x3*x2)+iaaa(x8*x3*x2)+iaaa(x0*x3*x2)
379,1715.405266,210,370.570690,f1 f0 f3 f0 f0 f0 v3 v0 v8 v1 v2 v2 v3   ,y=u+iaa(x0*x2)+iaa(x8*x2)+iaa(x1*x2)+iaa(x2*x2)+iaa(x0*x3)+iaa(x8*x3)+iaa(x1*x3)+iaa(x2*x3)+iaaa(x0*x3*x2)+iaaa(x8*x3*x2)+iaaa(x1*x3*x2)+iaaa(x2*x3*x2)+iaaa(x0*x3*x3)+iaaa(x8*x3*x3)+iaaa(x1*x3*x3)+iaaa(x2*x3*x3)
380,1720.514259,210,370.570690,f1 f0 f3 f0 f0 f0 v3 v0 v1 v2 v8 v3 v2   ,y=u+iaa(x0*x3)+iaa(x1*x3)+iaa(x2*x3)+iaa(x8*x3)+iaa(x0*x2)+iaa(x1*x2)+iaa(x2*x2)+iaa(x8*x2)+iaaa(x0*x3*x3)+iaaa(x1*x3*x3)+iaaa(x2*x3*x3)+iaaa(x8*x3*x3)+iaaa(x0*x3*x2)+iaaa(x1*x3*x2)+iaaa(x2*x3*x2)+iaaa(x8*x3*x2)
381,1723.538845,210,370.570690,f1 f0 f3 f0 f0 f0 v3 v2 v1 v8 v0 v3 v2   ,y=u+iaa(x2*x3)+iaa(x1*x3)+iaa(x8*x3)+iaa(x0*x3)+iaa(x2*x2)+iaa(x1*x2)+iaa(x8*x2)+iaa(x0*x2)+iaaa(x2*x3*x3)+iaaa(x1*x3*x3)+iaaa(x8*x3*x3)+iaaa(x0*x3*x3)+iaaa(x2*x3*x2)+iaaa(x1*x3*x2)+iaaa(x8*x3*x2)+iaaa(x0*x3*x2)
382,1728.26699,210,370.570690,f1 f0 f3 f0 f0 f0 v3 v1 v2 v8 v0 v3 v2   ,y=u+iaa(x1*x3)+iaa(x2*x3)+iaa(x8*x3)+iaa(x0*x3)+iaa(x1*x2)+iaa(x2*x2)+iaa(x8*x2)+iaa(x0*x2)+iaaa(x1*x3*x3)+iaaa(x2*x3*x3)+iaaa(x8*x3*x3)+iaaa(x0*x3*x3)+iaaa(x1*x3*x2)+iaaa(x2*x3*x2)+iaaa(x8*x3*x2)+iaaa(x0*x3*x2)
383,1733.516148,210,370.570690,f1 f0 f3 f0 f0 f0 v3 v1 v2 v0 v8 v2 v3   ,y=u+iaa(x1*x2)+iaa(x2*x2)+iaa(x0*x2)+iaa(x8*x2)+iaa(x1*x3)+iaa(x2*x3)+iaa(x0*x3)+iaa(x8*x3)+iaaa(x1*x3*x2)+iaaa(x2*x3*x2)+iaaa(x0*x3*x2)+iaaa(x8*x3*x2)+iaaa(x1*x3*x3)+iaaa(x2*x3*x3)+iaaa(x0*x3*x3)+iaaa(x8*x3*x3)
384,1738.524008,210,370.570690,f1 f0 f3 f0 f0 f0 f0 v2 v1 v8 v0 v3 v2 v3 v3 ,y=u+iaa(x2*x3)+iaa(x1*x3)+iaa(x8*x3)+iaa(x0*x3)+iaa(x2*x2)+iaa(x1*x2)+iaa(x8*x2)+iaa(x0*x2)+iaaa(x2*x3*x3)+iaaa(x1*x3*x3)+iaaa(x8*x3*x3)+iaaa(x0*x3*x3)+iaaa(x2*x3*x2)+iaaa(x1*x3*x2)+iaaa(x8*x3*x2)+iaaa(x0*x3*x2)
386,1748.585916,210,370.570690,f1 f0 f3 f0 f0 f0 f0 v1 v2 v0 v8 v3 v2 v3 v3 ,y=u+iaa(x1*x3)+iaa(x2*x3)+iaa(x0*x3)+iaa(x8*x3)+iaa(x1*x2)+iaa(x2*x2)+iaa(x0*x2)+iaa(x8*x2)+iaaa(x1*x3*x3)+iaaa(x2*x3*x3)+iaaa(x0*x3*x3)+iaaa(x8*x3*x3)+iaaa(x1*x3*x2)+iaaa(x2*x3*x2)+iaaa(x0*x3*x2)+iaaa(x8*x3*x2)
387,1753.15335,210,370.570690,f1 f0 f3 f0 f0 f0 v3 v1 v2 v0 v8 v3 v2   ,y=u+iaa(x1*x3)+iaa(x2*x3)+iaa(x0*x3)+iaa(x8*x3)+iaa(x1*x2)+iaa(x2*x2)+iaa(x0*x2)+iaa(x8*x2)+iaaa(x1*x3*x3)+iaaa(x2*x3*x3)+iaaa(x0*x3*x3)+iaaa(x8*x3*x3)+iaaa(x1*x3*x2)+iaaa(x2*x3*x2)+iaaa(x0*x3*x2)+iaaa(x8*x3*x2)
390,1763.34403,210,370.570690,f1 f0 f3 f0 f0 f0 f0 v2 v1 v8 v0 v3 v2 v3 v3 ,y=u+iaa(x2*x3)+iaa(x1*x3)+iaa(x8*x3)+iaa(x0*x3)+iaa(x2*x2)+iaa(x1*x2)+iaa(x8*x2)+iaa(x0*x2)+iaaa(x2*x3*x3)+iaaa(x1*x3*x3)+iaaa(x8*x3*x3)+iaaa(x0*x3*x3)+iaaa(x2*x3*x2)+iaaa(x1*x3*x2)+iaaa(x8*x3*x2)+iaaa(x0*x3*x2)
391,1766.409609,210,370.570690,f1 f0 f3 f0 f0 f0 v3 v1 v2 v0 v8 v3 v2   ,y=u+iaa(x1*x3)+iaa(x2*x3)+iaa(x0*x3)+iaa(x8*x3)+iaa(x1*x2)+iaa(x2*x2)+iaa(x0*x2)+iaa(x8*x2)+iaaa(x1*x3*x3)+iaaa(x2*x3*x3)+iaaa(x0*x3*x3)+iaaa(x8*x3*x3)+iaaa(x1*x3*x2)+iaaa(x2*x3*x2)+iaaa(x0*x3*x2)+iaaa(x8*x3*x2)
392,1771.444489,210,370.570690,f1 f0 f3 f0 f0 f0 f0 v1 v2 v8 v0 v3 v2 v3 v3 ,y=u+iaa(x1*x3)+iaa(x2*x3)+iaa(x8*x3)+iaa(x0*x3)+iaa(x1*x2)+iaa(x2*x2)+iaa(x8*x2)+iaa(x0*x2)+iaaa(x1*x3*x3)+iaaa(x2*x3*x3)+iaaa(x8*x3*x3)+iaaa(x0*x3*x3)+iaaa(x1*x3*x2)+iaaa(x2*x3*x2)+iaaa(x8*x3*x2)+iaaa(x0*x3*x2)
393,1776.398664,200,370.570690,f1 f0 f3 f0 f0 f0 v3 v2 v1 v0 v8 v2 v3   ,y=u+iaa(x2*x2)+iaa(x1*x2)+iaa(x0*x2)+iaa(x8*x2)+iaa(x2*x3)+iaa(x1*x3)+iaa(x0*x3)+iaa(x8*x3)+iaaa(x2*x3*x2)+iaaa(x1*x3*x2)+iaaa(x0*x3*x2)+iaaa(x8*x3*x2)+iaaa(x2*x3*x3)+iaaa(x1*x3*x3)+iaaa(x0*x3*x3)+iaaa(x8*x3*x3)
394,1781.33523,204,370.570690,f1 f0 f3 f0 f0 f0 v3 v1 v2 v0 v8 v2 v3   ,y=u+iaa(x1*x2)+iaa(x2*x2)+iaa(x0*x2)+iaa(x8*x2)+iaa(x1*x3)+iaa(x2*x3)+iaa(x0*x3)+iaa(x8*x3)+iaaa(x1*x3*x2)+iaaa(x2*x3*x2)+iaaa(x0*x3*x2)+iaaa(x8*x3*x2)+iaaa(x1*x3*x3)+iaaa(x2*x3*x3)+iaaa(x0*x3*x3)+iaaa(x8*x3*x3)
395,1783.820925,208,370.570690,f1 f0 f3 f0 f0 f0 v3 v2 v1 v0 v8 v2 v3   ,y=u+iaa(x2*x2)+iaa(x1*x2)+iaa(x0*x2)+iaa(x8*x2)+iaa(x2*x3)+iaa(x1*x3)+iaa(x0*x3)+iaa(x8*x3)+iaaa(x2*x3*x2)+iaaa(x1*x3*x2)+iaaa(x0*x3*x2)+iaaa(x8*x3*x2)+iaaa(x2*x3*x3)+iaaa(x1*x3*x3)+iaaa(x0*x3*x3)+iaaa(x8*x3*x3)
396,1787.749319,210,370.570690,f1 f0 f3 f0 f0 f0 v3 v0 v1 v2 v8 v3 v2   ,y=u+iaa(x0*x3)+iaa(x1*x3)+iaa(x2*x3)+iaa(x8*x3)+iaa(x0*x2)+iaa(x1*x2)+iaa(x2*x2)+iaa(x8*x2)+iaaa(x0*x3*x3)+iaaa(x1*x3*x3)+iaaa(x2*x3*x3)+iaaa(x8*x3*x3)+iaaa(x0*x3*x2)+iaaa(x1*x3*x2)+iaaa(x2*x3*x2)+iaaa(x8*x3*x2)
397,1792.954395,210,370.570690,f1 f0 f3 f0 f0 f0 v3 v2 v1 v0 v8 v2 v3   ,y=u+iaa(x2*x2)+iaa(x1*x2)+iaa(x0*x2)+iaa(x8*x2)+iaa(x2*x3)+iaa(x1*x3)+iaa(x0*x3)+iaa(x8*x3)+iaaa(x2*x3*x2)+iaaa(x1*x3*x2)+iaaa(x0*x3*x2)+iaaa(x8*x3*x2)+iaaa(x2*x3*x3)+iaaa(x1*x3*x3)+iaaa(x0*x3*x3)+iaaa(x8*x3*x3)
398,1797.879183,210,370.570690,f1 f0 f3 f0 f0 f0 v3 v1 v2 v0 v8 v2 v3   ,y=u+iaa(x1*x2)+iaa(x2*x2)+iaa(x0*x2)+iaa(x8*x2)+iaa(x1*x3)+iaa(x2*x3)+iaa(x0*x3)+iaa(x8*x3)+iaaa(x1*x3*x2)+iaaa(x2*x3*x2)+iaaa(x0*x3*x2)+iaaa(x8*x3*x2)+iaaa(x1*x3*x3)+iaaa(x2*x3*x3)+iaaa(x0*x3*x3)+iaaa(x8*x3*x3)
399,1802.486618,210,370.570690,f1 f0 f3 f0 f0 f0 v3 v1 v2 v8 v0 v3 v2   ,y=u+iaa(x1*x3)+iaa(x2*x3)+iaa(x8*x3)+iaa(x0*x3)+iaa(x1*x2)+iaa(x2*x2)+iaa(x8*x2)+iaa(x0*x2)+iaaa(x1*x3*x3)+iaaa(x2*x3*x3)+iaaa(x8*x3*x3)+iaaa(x0*x3*x3)+iaaa(x1*x3*x2)+iaaa(x2*x3*x2)+iaaa(x8*x3*x2)+iaaa(x0*x3*x2)
400,1806.779079,210,370.570690,f1 f0 f3 f0 f0 f0 v3 v2 v1 v0 v8 v2 v3   ,y=u+iaa(x2*x2)+iaa(x1*x2)+iaa(x0*x2)+iaa(x8*x2)+iaa(x2*x3)+iaa(x1*x3)+iaa(x0*x3)+iaa(x8*x3)+iaaa(x2*x3*x2)+iaaa(x1*x3*x2)+iaaa(x0*x3*x2)+iaaa(x8*x3*x2)+iaaa(x2*x3*x3)+iaaa(x1*x3*x3)+iaaa(x0*x3*x3)+iaaa(x8*x3*x3)
401,1810.259863,210,370.570690,f1 f0 f3 f0 f0 f0 v3 v2 v1 v8 v0 v2 v3   ,y=u+iaa(x2*x2)+iaa(x1*x2)+iaa(x8*x2)+iaa(x0*x2)+iaa(x2*x3)+iaa(x1*x3)+iaa(x8*x3)+iaa(x0*x3)+iaaa(x2*x3*x2)+iaaa(x1*x3*x2)+iaaa(x8*x3*x2)+iaaa(x0*x3*x2)+iaaa(x2*x3*x3)+iaaa(x1*x3*x3)+iaaa(x8*x3*x3)+iaaa(x0*x3*x3)
402,1813.139918,210,370.570690,f1 f0 f3 f0 f0 f0 f0 v1 v2 v0 v8 v2 v3 v3 v3 ,y=u+iaa(x1*x2)+iaa(x2*x2)+iaa(x0*x2)+iaa(x8*x2)+iaa(x1*x3)+iaa(x2*x3)+iaa(x0*x3)+iaa(x8*x3)+iaaa(x1*x3*x2)+iaaa(x2*x3*x2)+iaaa(x0*x3*x2)+iaaa(x8*x3*x2)+iaaa(x1*x3*x3)+iaaa(x2*x3*x3)+iaaa(x0*x3*x3)+iaaa(x8*x3*x3)
403,1817.340723,210,370.570690,f1 f0 f3 f0 f0 f0 f0 v2 v1 v8 v0 v2 v3 v3 v3 ,y=u+iaa(x2*x2)+iaa(x1*x2)+iaa(x8*x2)+iaa(x0*x2)+iaa(x2*x3)+iaa(x1*x3)+iaa(x8*x3)+iaa(x0*x3)+iaaa(x2*x3*x2)+iaaa(x1*x3*x2)+iaaa(x8*x3*x2)+iaaa(x0*x3*x2)+iaaa(x2*x3*x3)+iaaa(x1*x3*x3)+iaaa(x8*x3*x3)+iaaa(x0*x3*x3)
404,1822.158095,210,370.570690,f1 f0 f3 f0 f0 f0 v3 v2 v1 v8 v0 v2 v3   ,y=u+iaa(x2*x2)+iaa(x1*x2)+iaa(x8*x2)+iaa(x0*x2)+iaa(x2*x3)+iaa(x1*x3)+iaa(x8*x3)+iaa(x0*x3)+iaaa(x2*x3*x2)+iaaa(x1*x3*x2)+iaaa(x8*x3*x2)+iaaa(x0*x3*x2)+iaaa(x2*x3*x3)+iaaa(x1*x3*x3)+iaaa(x8*x3*x3)+iaaa(x0*x3*x3)
405,1827.412137,210,370.570690,f1 f0 f3 f0 f0 f0 v3 v1 v2 v0 v8 v2 v3   ,y=u+iaa(x1*x2)+iaa(x2*x2)+iaa(x0*x2)+iaa(x8*x2)+iaa(x1*x3)+iaa(x2*x3)+iaa(x0*x3)+iaa(x8*x3)+iaaa(x1*x3*x2)+iaaa(x2*x3*x2)+iaaa(x0*x3*x2)+iaaa(x8*x3*x2)+iaaa(x1*x3*x3)+iaaa(x2*x3*x3)+iaaa(x0*x3*x3)+iaaa(x8*x3*x3)
406,1832.664125,210,370.570690,f1 f0 f3 f0 f0 f0 v3 v2 v1 v8 v0 v2 v3   ,y=u+iaa(x2*x2)+iaa(x1*x2)+iaa(x8*x2)+iaa(x0*x2)+iaa(x2*x3)+iaa(x1*x3)+iaa(x8*x3)+iaa(x0*x3)+iaaa(x2*x3*x2)+iaaa(x1*x3*x2)+iaaa(x8*x3*x2)+iaaa(x0*x3*x2)+iaaa(x2*x3*x3)+iaaa(x1*x3*x3)+iaaa(x8*x3*x3)+iaaa(x0*x3*x3)
407,1837.206969,210,370.570690,f1 f0 f3 f0 f0 f0 v3 v1 v2 v0 v8 v3 v2   ,y=u+iaa(x1*x3)+iaa(x2*x3)+iaa(x0*x3)+iaa(x8*x3)+iaa(x1*x2)+iaa(x2*x2)+iaa(x0*x2)+iaa(x8*x2)+iaaa(x1*x3*x3)+iaaa(x2*x3*x3)+iaaa(x0*x3*x3)+iaaa(x8*x3*x3)+iaaa(x1*x3*x2)+iaaa(x2*x3*x2)+iaaa(x0*x3*x2)+iaaa(x8*x3*x2)
408,1840.241555,208,370.570690,f1 f0 f3 f0 f0 f0 v3 v2 v1 v8 v0 v2 v3   ,y=u+iaa(x2*x2)+iaa(x1*x2)+iaa(x8*x2)+iaa(x0*x2)+iaa(x2*x3)+iaa(x1*x3)+iaa(x8*x3)+iaa(x0*x3)+iaaa(x2*x3*x2)+iaaa(x1*x3*x2)+iaaa(x8*x3*x2)+iaaa(x0*x3*x2)+iaaa(x2*x3*x3)+iaaa(x1*x3*x3)+iaaa(x8*x3*x3)+iaaa(x0*x3*x3)
409,1844.723040,210,370.570690,f1 f0 f3 f0 f0 f0 v3 v2 v1 v8 v0 v3 v2   ,y=u+iaa(x2*x3)+iaa(x1*x3)+iaa(x8*x3)+iaa(x0*x3)+iaa(x2*x2)+iaa(x1*x2)+iaa(x8*x2)+iaa(x0*x2)+iaaa(x2*x3*x3)+iaaa(x1*x3*x3)+iaaa(x8*x3*x3)+iaaa(x0*x3*x3)+iaaa(x2*x3*x2)+iaaa(x1*x3*x2)+iaaa(x8*x3*x2)+iaaa(x0*x3*x2)
410,1850.272699,210,370.570690,f1 f0 f3 f0 f0 f0 v3 v1 v2 v0 v8 v3 v2   ,y=u+iaa(x1*x3)+iaa(x2*x3)+iaa(x0*x3)+iaa(x8*x3)+iaa(x1*x2)+iaa(x2*x2)+iaa(x0*x2)+iaa(x8*x2)+iaaa(x1*x3*x3)+iaaa(x2*x3*x3)+iaaa(x0*x3*x3)+iaaa(x8*x3*x3)+iaaa(x1*x3*x2)+iaaa(x2*x3*x2)+iaaa(x0*x3*x2)+iaaa(x8*x3*x2)
411,1855.672994,210,370.570690,f1 f0 f3 f0 f0 f0 v3 v2 v1 v8 v0 v2 v3   ,y=u+iaa(x2*x2)+iaa(x1*x2)+iaa(x8*x2)+iaa(x0*x2)+iaa(x2*x3)+iaa(x1*x3)+iaa(x8*x3)+iaa(x0*x3)+iaaa(x2*x3*x2)+iaaa(x1*x3*x2)+iaaa(x8*x3*x2)+iaaa(x0*x3*x2)+iaaa(x2*x3*x3)+iaaa(x1*x3*x3)+iaaa(x8*x3*x3)+iaaa(x0*x3*x3)
412,1859.127850,210,370.570690,f1 f0 f3 f0 f0 f0 f0 v1 v2 v0 v8 v3 v2 v3 v3 ,y=u+iaa(x1*x3)+iaa(x2*x3)+iaa(x0*x3)+iaa(x8*x3)+iaa(x1*x2)+iaa(x2*x2)+iaa(x0*x2)+iaa(x8*x2)+iaaa(x1*x3*x3)+iaaa(x2*x3*x3)+iaaa(x0*x3*x3)+iaaa(x8*x3*x3)+iaaa(x1*x3*x2)+iaaa(x2*x3*x2)+iaaa(x0*x3*x2)+iaaa(x8*x3*x2)
413,1863.92797,200,370.570690,f1 f0 f3 f0 f0 f0 v3 v1 v2 v0 v8 v2 v3   ,y=u+iaa(x1*x2)+iaa(x2*x2)+iaa(x0*x2)+iaa(x8*x2)+iaa(x1*x3)+iaa(x2*x3)+iaa(x0*x3)+iaa(x8*x3)+iaaa(x1*x3*x2)+iaaa(x2*x3*x2)+iaaa(x0*x3*x2)+iaaa(x8*x3*x2)+iaaa(x1*x3*x3)+iaaa(x2*x3*x3)+iaaa(x0*x3*x3)+iaaa(x8*x3*x3)
414,1869.748035,200,370.570690,f1 f0 f3 f0 f0 f0 v3 v1 v2 v0 v8 v3 v2   ,y=u+iaa(x1*x3)+iaa(x2*x3)+iaa(x0*x3)+iaa(x8*x3)+iaa(x1*x2)+iaa(x2*x2)+iaa(x0*x2)+iaa(x8*x2)+iaaa(x1*x3*x3)+iaaa(x2*x3*x3)+iaaa(x0*x3*x3)+iaaa(x8*x3*x3)+iaaa(x1*x3*x2)+iaaa(x2*x3*x2)+iaaa(x0*x3*x2)+iaaa(x8*x3*x2)
415,1875.761641,200,370.570690,f1 f0 f3 f0 f0 f0 f0 v1 v2 v0 v8 v3 v2 v3 v3 ,y=u+iaa(x1*x3)+iaa(x2*x3)+iaa(x0*x3)+iaa(x8*x3)+iaa(x1*x2)+iaa(x2*x2)+iaa(x0*x2)+iaa(x8*x2)+iaaa(x1*x3*x3)+iaaa(x2*x3*x3)+iaaa(x0*x3*x3)+iaaa(x8*x3*x3)+iaaa(x1*x3*x2)+iaaa(x2*x3*x2)+iaaa(x0*x3*x2)+iaaa(x8*x3*x2)
416,1879.909297,200,370.570690,f1 f0 f3 f0 f0 f0 v3 v1 v2 v0 v8 v3 v2   ,y=u+iaa(x1*x3)+iaa(x2*x3)+iaa(x0*x3)+iaa(x8*x3)+iaa(x1*x2)+iaa(x2*x2)+iaa(x0*x2)+iaa(x8*x2)+iaaa(x1*x3*x3)+iaaa(x2*x3*x3)+iaaa(x0*x3*x3)+iaaa(x8*x3*x3)+iaaa(x1*x3*x2)+iaaa(x2*x3*x2)+iaaa(x0*x3*x2)+iaaa(x8*x3*x2)
417,1886.364368,202,370.570690,f1 f0 f3 f0 f0 f0 v3 v2 v1 v8 v0 v2 v3   ,y=u+iaa(x2*x2)+iaa(x1*x2)+iaa(x8*x2)+iaa(x0*x2)+iaa(x2*x3)+iaa(x1*x3)+iaa(x8*x3)+iaa(x0*x3)+iaaa(x2*x3*x2)+iaaa(x1*x3*x2)+iaaa(x8*x3*x2)+iaaa(x0*x3*x2)+iaaa(x2*x3*x3)+iaaa(x1*x3*x3)+iaaa(x8*x3*x3)+iaaa(x0*x3*x3)
418,1889.589773,206,370.570690,f1 f0 f3 f0 f0 f0 v3 v0 v1 v2 v8 v3 v2   ,y=u+iaa(x0*x3)+iaa(x1*x3)+iaa(x2*x3)+iaa(x8*x3)+iaa(x0*x2)+iaa(x1*x2)+iaa(x2*x2)+iaa(x8*x2)+iaaa(x0*x3*x3)+iaaa(x1*x3*x3)+iaaa(x2*x3*x3)+iaaa(x8*x3*x3)+iaaa(x0*x3*x2)+iaaa(x1*x3*x2)+iaaa(x2*x3*x2)+iaaa(x8*x3*x2)
419,1894.124876,210,370.570690,f1 f0 f3 f0 f0 f0 f0 v1 v2 v0 v8 v3 v2 v3 v3 ,y=u+iaa(x1*x3)+iaa(x2*x3)+iaa(x0*x3)+iaa(x8*x3)+iaa(x1*x2)+iaa(x2*x2)+iaa(x0*x2)+iaa(x8*x2)+iaaa(x1*x3*x3)+iaaa(x2*x3*x3)+iaaa(x0*x3*x3)+iaaa(x8*x3*x3)+iaaa(x1*x3*x2)+iaaa(x2*x3*x2)+iaaa(x0*x3*x2)+iaaa(x8*x3*x2)
420,1897.568914,210,370.570690,f1 f0 f3 f0 f0 f0 v3 v2 v1 v8 v0 v3 v2   ,y=u+iaa(x2*x3)+iaa(x1*x3)+iaa(x8*x3)+iaa(x0*x3)+iaa(x2*x2)+iaa(x1*x2)+iaa(x8*x2)+iaa(x0*x2)+iaaa(x2*x3*x3)+iaaa(x1*x3*x3)+iaaa(x8*x3*x3)+iaaa(x0*x3*x3)+iaaa(x2*x3*x2)+iaaa(x1*x3*x2)+iaaa(x8*x3*x2)+iaaa(x0*x3*x2)
421,1903.94644,210,370.570690,f1 f0 f3 f0 f0 f0 v3 v2 v1 v8 v0 v2 v3   ,y=u+iaa(x2*x2)+iaa(x1*x2)+iaa(x8*x2)+iaa(x0*x2)+iaa(x2*x3)+iaa(x1*x3)+iaa(x8*x3)+iaa(x0*x3)+iaaa(x2*x3*x2)+iaaa(x1*x3*x2)+iaaa(x8*x3*x2)+iaaa(x0*x3*x2)+iaaa(x2*x3*x3)+iaaa(x1*x3*x3)+iaaa(x8*x3*x3)+iaaa(x0*x3*x3)
422,1909.158908,210,370.570690,f1 f0 f3 f0 f0 f0 v3 v2 v1 v0 v8 v2 v3   ,y=u+iaa(x2*x2)+iaa(x1*x2)+iaa(x0*x2)+iaa(x8*x2)+iaa(x2*x3)+iaa(x1*x3)+iaa(x0*x3)+iaa(x8*x3)+iaaa(x2*x3*x2)+iaaa(x1*x3*x2)+iaaa(x0*x3*x2)+iaaa(x8*x3*x2)+iaaa(x2*x3*x3)+iaaa(x1*x3*x3)+iaaa(x0*x3*x3)+iaaa(x8*x3*x3)
423,1914.792465,210,370.570690,f1 f0 f3 f0 f0 f0 f0 v1 v2 v0 v8 v2 v3 v3 v3 ,y=u+iaa(x1*x2)+iaa(x2*x2)+iaa(x0*x2)+iaa(x8*x2)+iaa(x1*x3)+iaa(x2*x3)+iaa(x0*x3)+iaa(x8*x3)+iaaa(x1*x3*x2)+iaaa(x2*x3*x2)+iaaa(x0*x3*x2)+iaaa(x8*x3*x2)+iaaa(x1*x3*x3)+iaaa(x2*x3*x3)+iaaa(x0*x3*x3)+iaaa(x8*x3*x3)
424,1920.816809,210,370.570690,f1 f0 f3 f0 f0 f0 f0 v2 v1 v8 v0 v3 v2 v3 v3 ,y=u+iaa(x2*x3)+iaa(x1*x3)+iaa(x8*x3)+iaa(x0*x3)+iaa(x2*x2)+iaa(x1*x2)+iaa(x8*x2)+iaa(x0*x2)+iaaa(x2*x3*x3)+iaaa(x1*x3*x3)+iaaa(x8*x3*x3)+iaaa(x0*x3*x3)+iaaa(x2*x3*x2)+iaaa(x1*x3*x2)+iaaa(x8*x3*x2)+iaaa(x0*x3*x2)
425,1927.107881,210,370.570690,f1 f0 f3 f0 f0 f0 f0 v1 v2 v0 v8 v2 v3 v3 v3 ,y=u+iaa(x1*x2)+iaa(x2*x2)+iaa(x0*x2)+iaa(x8*x2)+iaa(x1*x3)+iaa(x2*x3)+iaa(x0*x3)+iaa(x8*x3)+iaaa(x1*x3*x2)+iaaa(x2*x3*x2)+iaaa(x0*x3*x2)+iaaa(x8*x3*x2)+iaaa(x1*x3*x3)+iaaa(x2*x3*x3)+iaaa(x0*x3*x3)+iaaa(x8*x3*x3)
426,1933.75346,200,370.570690,f1 f0 f3 f0 f0 f0 f0 v1 v2 v0 v8 v3 v2 v3 v3 ,y=u+iaa(x1*x3)+iaa(x2*x3)+iaa(x0*x3)+iaa(x8*x3)+iaa(x1*x2)+iaa(x2*x2)+iaa(x0*x2)+iaa(x8*x2)+iaaa(x1*x3*x3)+iaaa(x2*x3*x3)+iaaa(x0*x3*x3)+iaaa(x8*x3*x3)+iaaa(x1*x3*x2)+iaaa(x2*x3*x2)+iaaa(x0*x3*x2)+iaaa(x8*x3*x2)
427,1936.753715,200,370.570690,f1 f0 f3 f0 f0 f0 f0 v1 v2 v0 v8 v2 v3 v3 v3 ,y=u+iaa(x1*x2)+iaa(x2*x2)+iaa(x0*x2)+iaa(x8*x2)+iaa(x1*x3)+iaa(x2*x3)+iaa(x0*x3)+iaa(x8*x3)+iaaa(x1*x3*x2)+iaaa(x2*x3*x2)+iaaa(x0*x3*x2)+iaaa(x8*x3*x2)+iaaa(x1*x3*x3)+iaaa(x2*x3*x3)+iaaa(x0*x3*x3)+iaaa(x8*x3*x3)
428,1945.942497,200,370.570690,f1 f0 f3 f0 f0 f0 f0 v1 v2 v0 v8 v3 v2 v3 v3 ,y=u+iaa(x1*x3)+iaa(x2*x3)+iaa(x0*x3)+iaa(x8*x3)+iaa(x1*x2)+iaa(x2*x2)+iaa(x0*x2)+iaa(x8*x2)+iaaa(x1*x3*x3)+iaaa(x2*x3*x3)+iaaa(x0*x3*x3)+iaaa(x8*x3*x3)+iaaa(x1*x3*x2)+iaaa(x2*x3*x2)+iaaa(x0*x3*x2)+iaaa(x8*x3*x2)
430,1954.875809,202,370.570690,f1 f0 f3 f0 f0 f0 f0 v2 v1 v8 v0 v3 v2 v3 v3 ,y=u+iaa(x2*x3)+iaa(x1*x3)+iaa(x8*x3)+iaa(x0*x3)+iaa(x2*x2)+iaa(x1*x2)+iaa(x8*x2)+iaa(x0*x2)+iaaa(x2*x3*x3)+iaaa(x1*x3*x3)+iaaa(x8*x3*x3)+iaaa(x0*x3*x3)+iaaa(x2*x3*x2)+iaaa(x1*x3*x2)+iaaa(x8*x3*x2)+iaaa(x0*x3*x2)
431,1958.246752,202,370.570690,f1 f0 f3 f0 f0 f0 v3 v2 v1 v8 v0 v2 v3   ,y=u+iaa(x2*x2)+iaa(x1*x2)+iaa(x8*x2)+iaa(x0*x2)+iaa(x2*x3)+iaa(x1*x3)+iaa(x8*x3)+iaa(x0*x3)+iaaa(x2*x3*x2)+iaaa(x1*x3*x2)+iaaa(x8*x3*x2)+iaaa(x0*x3*x2)+iaaa(x2*x3*x3)+iaaa(x1*x3*x3)+iaaa(x8*x3*x3)+iaaa(x0*x3*x3)
432,1962.193885,206,370.570690,f1 f0 f3 f0 f0 f0 f0 v1 v2 v0 v8 v2 v3 v3 v3 ,y=u+iaa(x1*x2)+iaa(x2*x2)+iaa(x0*x2)+iaa(x8*x2)+iaa(x1*x3)+iaa(x2*x3)+iaa(x0*x3)+iaa(x8*x3)+iaaa(x1*x3*x2)+iaaa(x2*x3*x2)+iaaa(x0*x3*x2)+iaaa(x8*x3*x2)+iaaa(x1*x3*x3)+iaaa(x2*x3*x3)+iaaa(x0*x3*x3)+iaaa(x8*x3*x3)
433,1965.181221,208,370.570690,f1 f0 f3 f0 f0 f0 v3 v1 v2 v0 v8 v3 v2   ,y=u+iaa(x1*x3)+iaa(x2*x3)+iaa(x0*x3)+iaa(x8*x3)+iaa(x1*x2)+iaa(x2*x2)+iaa(x0*x2)+iaa(x8*x2)+iaaa(x1*x3*x3)+iaaa(x2*x3*x3)+iaaa(x0*x3*x3)+iaaa(x8*x3*x3)+iaaa(x1*x3*x2)+iaaa(x2*x3*x2)+iaaa(x0*x3*x2)+iaaa(x8*x3*x2)
435,1976.606701,210,370.570690,f1 f0 f3 f0 f0 f0 f0 v1 v2 v0 v8 v2 v3 v3 v3 ,y=u+iaa(x1*x2)+iaa(x2*x2)+iaa(x0*x2)+iaa(x8*x2)+iaa(x1*x3)+iaa(x2*x3)+iaa(x0*x3)+iaa(x8*x3)+iaaa(x1*x3*x2)+iaaa(x2*x3*x2)+iaaa(x0*x3*x2)+iaaa(x8*x3*x2)+iaaa(x1*x3*x3)+iaaa(x2*x3*x3)+iaaa(x0*x3*x3)+iaaa(x8*x3*x3)
436,1982.936482,210,370.570690,f1 f0 f3 f0 f0 f0 f0 v0 v1 v2 v8 v3 v2 v3 v3 ,y=u+iaa(x0*x3)+iaa(x1*x3)+iaa(x2*x3)+iaa(x8*x3)+iaa(x0*x2)+iaa(x1*x2)+iaa(x2*x2)+iaa(x8*x2)+iaaa(x0*x3*x3)+iaaa(x1*x3*x3)+iaaa(x2*x3*x3)+iaaa(x8*x3*x3)+iaaa(x0*x3*x2)+iaaa(x1*x3*x2)+iaaa(x2*x3*x2)+iaaa(x8*x3*x2)
437,1989.176994,210,370.570690,f1 f0 f3 f0 f0 f0 f0 v1 v2 v0 v8 v2 v3 v3 v3 ,y=u+iaa(x1*x2)+iaa(x2*x2)+iaa(x0*x2)+iaa(x8*x2)+iaa(x1*x3)+iaa(x2*x3)+iaa(x0*x3)+iaa(x8*x3)+iaaa(x1*x3*x2)+iaaa(x2*x3*x2)+iaaa(x0*x3*x2)+iaaa(x8*x3*x2)+iaaa(x1*x3*x3)+iaaa(x2*x3*x3)+iaaa(x0*x3*x3)+iaaa(x8*x3*x3)
438,1994.95520,210,370.570690,f1 f0 f3 f0 f0 f0 v3 v0 v1 v2 v8 v3 v2   ,y=u+iaa(x0*x3)+iaa(x1*x3)+iaa(x2*x3)+iaa(x8*x3)+iaa(x0*x2)+iaa(x1*x2)+iaa(x2*x2)+iaa(x8*x2)+iaaa(x0*x3*x3)+iaaa(x1*x3*x3)+iaaa(x2*x3*x3)+iaaa(x8*x3*x3)+iaaa(x0*x3*x2)+iaaa(x1*x3*x2)+iaaa(x2*x3*x2)+iaaa(x8*x3*x2)
440,2002.82611,210,370.570690,f1 f0 f3 f0 f0 f0 f0 v2 v1 v8 v0 v3 v2 v3 v3 ,y=u+iaa(x2*x3)+iaa(x1*x3)+iaa(x8*x3)+iaa(x0*x3)+iaa(x2*x2)+iaa(x1*x2)+iaa(x8*x2)+iaa(x0*x2)+iaaa(x2*x3*x3)+iaaa(x1*x3*x3)+iaaa(x8*x3*x3)+iaaa(x0*x3*x3)+iaaa(x2*x3*x2)+iaaa(x1*x3*x2)+iaaa(x8*x3*x2)+iaaa(x0*x3*x2)
441,2005.611463,210,370.570690,f1 f0 f3 f0 f0 f0 v3 v1 v2 v0 v8 v2 v3   ,y=u+iaa(x1*x2)+iaa(x2*x2)+iaa(x0*x2)+iaa(x8*x2)+iaa(x1*x3)+iaa(x2*x3)+iaa(x0*x3)+iaa(x8*x3)+iaaa(x1*x3*x2)+iaaa(x2*x3*x2)+iaaa(x0*x3*x2)+iaaa(x8*x3*x2)+iaaa(x1*x3*x3)+iaaa(x2*x3*x3)+iaaa(x0*x3*x3)+iaaa(x8*x3*x3)
442,2011.457747,210,370.570690,f1 f0 f3 f0 f0 f0 f0 v2 v1 v8 v0 v2 v3 v3 v3 ,y=u+iaa(x2*x2)+iaa(x1*x2)+iaa(x8*x2)+iaa(x0*x2)+iaa(x2*x3)+iaa(x1*x3)+iaa(x8*x3)+iaa(x0*x3)+iaaa(x2*x3*x2)+iaaa(x1*x3*x2)+iaaa(x8*x3*x2)+iaaa(x0*x3*x2)+iaaa(x2*x3*x3)+iaaa(x1*x3*x3)+iaaa(x8*x3*x3)+iaaa(x0*x3*x3)
443,2017.642586,210,370.570690,f1 f0 f3 f0 f0 f0 f0 v2 v1 v0 v8 v2 v3 v3 v3 ,y=u+iaa(x2*x2)+iaa(x1*x2)+iaa(x0*x2)+iaa(x8*x2)+iaa(x2*x3)+iaa(x1*x3)+iaa(x0*x3)+iaa(x8*x3)+iaaa(x2*x3*x2)+iaaa(x1*x3*x2)+iaaa(x0*x3*x2)+iaaa(x8*x3*x2)+iaaa(x2*x3*x3)+iaaa(x1*x3*x3)+iaaa(x0*x3*x3)+iaaa(x8*x3*x3)
444,2022.469975,210,370.570690,f1 f0 f3 f0 f0 f0 f0 v2 v1 v8 v0 v2 v3 v3 v3 ,y=u+iaa(x2*x2)+iaa(x1*x2)+iaa(x8*x2)+iaa(x0*x2)+iaa(x2*x3)+iaa(x1*x3)+iaa(x8*x3)+iaa(x0*x3)+iaaa(x2*x3*x2)+iaaa(x1*x3*x2)+iaaa(x8*x3*x2)+iaaa(x0*x3*x2)+iaaa(x2*x3*x3)+iaaa(x1*x3*x3)+iaaa(x8*x3*x3)+iaaa(x0*x3*x3)
445,2026.717913,210,370.570690,f1 f0 f3 f0 f0 f0 v3 v0 v1 v2 v8 v3 v2   ,y=u+iaa(x0*x3)+iaa(x1*x3)+iaa(x2*x3)+iaa(x8*x3)+iaa(x0*x2)+iaa(x1*x2)+iaa(x2*x2)+iaa(x8*x2)+iaaa(x0*x3*x3)+iaaa(x1*x3*x3)+iaaa(x2*x3*x3)+iaaa(x8*x3*x3)+iaaa(x0*x3*x2)+iaaa(x1*x3*x2)+iaaa(x2*x3*x2)+iaaa(x8*x3*x2)
446,2031.267831,210,370.570690,f1 f0 f3 f0 f0 f0 f0 v2 v1 v0 v8 v2 v3 v3 v3 ,y=u+iaa(x2*x2)+iaa(x1*x2)+iaa(x0*x2)+iaa(x8*x2)+iaa(x2*x3)+iaa(x1*x3)+iaa(x0*x3)+iaa(x8*x3)+iaaa(x2*x3*x2)+iaaa(x1*x3*x2)+iaaa(x0*x3*x2)+iaaa(x8*x3*x2)+iaaa(x2*x3*x3)+iaaa(x1*x3*x3)+iaaa(x0*x3*x3)+iaaa(x8*x3*x3)
448,2042.849859,210,370.570690,f1 f0 f3 f0 f0 f0 f0 v2 v1 v8 v0 v2 v3 v3 v3 ,y=u+iaa(x2*x2)+iaa(x1*x2)+iaa(x8*x2)+iaa(x0*x2)+iaa(x2*x3)+iaa(x1*x3)+iaa(x8*x3)+iaa(x0*x3)+iaaa(x2*x3*x2)+iaaa(x1*x3*x2)+iaaa(x8*x3*x2)+iaaa(x0*x3*x2)+iaaa(x2*x3*x3)+iaaa(x1*x3*x3)+iaaa(x8*x3*x3)+iaaa(x0*x3*x3)
449,2049.88037,210,370.570690,f1 f0 f3 f0 f0 f0 f0 v0 v1 v2 v8 v3 v2 v3 v3 ,y=u+iaa(x0*x3)+iaa(x1*x3)+iaa(x2*x3)+iaa(x8*x3)+iaa(x0*x2)+iaa(x1*x2)+iaa(x2*x2)+iaa(x8*x2)+iaaa(x0*x3*x3)+iaaa(x1*x3*x3)+iaaa(x2*x3*x3)+iaaa(x8*x3*x3)+iaaa(x0*x3*x2)+iaaa(x1*x3*x2)+iaaa(x2*x3*x2)+iaaa(x8*x3*x2)
450,2052.624512,210,370.570690,f1 f0 f3 f0 f0 f0 f0 v1 v2 v0 v8 v2 v3 v3 v3 ,y=u+iaa(x1*x2)+iaa(x2*x2)+iaa(x0*x2)+iaa(x8*x2)+iaa(x1*x3)+iaa(x2*x3)+iaa(x0*x3)+iaa(x8*x3)+iaaa(x1*x3*x2)+iaaa(x2*x3*x2)+iaaa(x0*x3*x2)+iaaa(x8*x3*x2)+iaaa(x1*x3*x3)+iaaa(x2*x3*x3)+iaaa(x0*x3*x3)+iaaa(x8*x3*x3)
451,2058.916610,200,370.570690,f1 f0 f3 f0 f0 f0 f0 v0 v1 v2 v8 v3 v2 v3 v3 ,y=u+iaa(x0*x3)+iaa(x1*x3)+iaa(x2*x3)+iaa(x8*x3)+iaa(x0*x2)+iaa(x1*x2)+iaa(x2*x2)+iaa(x8*x2)+iaaa(x0*x3*x3)+iaaa(x1*x3*x3)+iaaa(x2*x3*x3)+iaaa(x8*x3*x3)+iaaa(x0*x3*x2)+iaaa(x1*x3*x2)+iaaa(x2*x3*x2)+iaaa(x8*x3*x2)
452,2069.560697,200,370.570690,f1 f0 f3 f0 f0 f0 v3 v1 v2 v0 v8 v3 v2   ,y=u+iaa(x1*x3)+iaa(x2*x3)+iaa(x0*x3)+iaa(x8*x3)+iaa(x1*x2)+iaa(x2*x2)+iaa(x0*x2)+iaa(x8*x2)+iaaa(x1*x3*x3)+iaaa(x2*x3*x3)+iaaa(x0*x3*x3)+iaaa(x8*x3*x3)+iaaa(x1*x3*x2)+iaaa(x2*x3*x2)+iaaa(x0*x3*x2)+iaaa(x8*x3*x2)
453,2073.524448,200,370.570690,f1 f0 f3 f0 f0 f0 f0 v2 v1 v0 v8 v2 v3 v3 v3 ,y=u+iaa(x2*x2)+iaa(x1*x2)+iaa(x0*x2)+iaa(x8*x2)+iaa(x2*x3)+iaa(x1*x3)+iaa(x0*x3)+iaa(x8*x3)+iaaa(x2*x3*x2)+iaaa(x1*x3*x2)+iaaa(x0*x3*x2)+iaaa(x8*x3*x2)+iaaa(x2*x3*x3)+iaaa(x1*x3*x3)+iaaa(x0*x3*x3)+iaaa(x8*x3*x3)
454,2078.207406,200,370.570690,f1 f0 f3 f0 f0 f0 v3 v1 v2 v0 v8 v3 v2   ,y=u+iaa(x1*x3)+iaa(x2*x3)+iaa(x0*x3)+iaa(x8*x3)+iaa(x1*x2)+iaa(x2*x2)+iaa(x0*x2)+iaa(x8*x2)+iaaa(x1*x3*x3)+iaaa(x2*x3*x3)+iaaa(x0*x3*x3)+iaaa(x8*x3*x3)+iaaa(x1*x3*x2)+iaaa(x2*x3*x2)+iaaa(x0*x3*x2)+iaaa(x8*x3*x2)
455,2081.528928,200,370.570690,f1 f0 f3 f0 f0 f0 f0 v2 v1 v0 v8 v2 v3 v3 v3 ,y=u+iaa(x2*x2)+iaa(x1*x2)+iaa(x0*x2)+iaa(x8*x2)+iaa(x2*x3)+iaa(x1*x3)+iaa(x0*x3)+iaa(x8*x3)+iaaa(x2*x3*x2)+iaaa(x1*x3*x2)+iaaa(x0*x3*x2)+iaaa(x8*x3*x2)+iaaa(x2*x3*x3)+iaaa(x1*x3*x3)+iaaa(x0*x3*x3)+iaaa(x8*x3*x3)
456,2087.87458,200,370.570690,f1 f0 f3 f0 f0 f0 v3 v1 v2 v0 v8 v3 v2   ,y=u+iaa(x1*x3)+iaa(x2*x3)+iaa(x0*x3)+iaa(x8*x3)+iaa(x1*x2)+iaa(x2*x2)+iaa(x0*x2)+iaa(x8*x2)+iaaa(x1*x3*x3)+iaaa(x2*x3*x3)+iaaa(x0*x3*x3)+iaaa(x8*x3*x3)+iaaa(x1*x3*x2)+iaaa(x2*x3*x2)+iaaa(x0*x3*x2)+iaaa(x8*x3*x2)
457,2093.84256,200,370.570690,f1 f0 f3 f0 f0 f0 f0 v1 v2 v0 v8 v2 v3 v3 v3 ,y=u+iaa(x1*x2)+iaa(x2*x2)+iaa(x0*x2)+iaa(x8*x2)+iaa(x1*x3)+iaa(x2*x3)+iaa(x0*x3)+iaa(x8*x3)+iaaa(x1*x3*x2)+iaaa(x2*x3*x2)+iaaa(x0*x3*x2)+iaaa(x8*x3*x2)+iaaa(x1*x3*x3)+iaaa(x2*x3*x3)+iaaa(x0*x3*x3)+iaaa(x8*x3*x3)
458,2099.496415,204,370.570690,f1 f0 f3 f0 f0 f0 f0 v0 v1 v2 v8 v3 v2 v3 v3 ,y=u+iaa(x0*x3)+iaa(x1*x3)+iaa(x2*x3)+iaa(x8*x3)+iaa(x0*x2)+iaa(x1*x2)+iaa(x2*x2)+iaa(x8*x2)+iaaa(x0*x3*x3)+iaaa(x1*x3*x3)+iaaa(x2*x3*x3)+iaaa(x8*x3*x3)+iaaa(x0*x3*x2)+iaaa(x1*x3*x2)+iaaa(x2*x3*x2)+iaaa(x8*x3*x2)
459,2105.266939,208,370.570690,f1 f0 f3 f0 f0 f0 f0 v2 v1 v8 v0 v2 v3 v3 v3 ,y=u+iaa(x2*x2)+iaa(x1*x2)+iaa(x8*x2)+iaa(x0*x2)+iaa(x2*x3)+iaa(x1*x3)+iaa(x8*x3)+iaa(x0*x3)+iaaa(x2*x3*x2)+iaaa(x1*x3*x2)+iaaa(x8*x3*x2)+iaaa(x0*x3*x2)+iaaa(x2*x3*x3)+iaaa(x1*x3*x3)+iaaa(x8*x3*x3)+iaaa(x0*x3*x3)
460,2108.689847,210,370.570690,f1 f0 f3 f0 f0 f0 f0 v0 v1 v2 v8 v3 v2 v3 v3 ,y=u+iaa(x0*x3)+iaa(x1*x3)+iaa(x2*x3)+iaa(x8*x3)+iaa(x0*x2)+iaa(x1*x2)+iaa(x2*x2)+iaa(x8*x2)+iaaa(x0*x3*x3)+iaaa(x1*x3*x3)+iaaa(x2*x3*x3)+iaaa(x8*x3*x3)+iaaa(x0*x3*x2)+iaaa(x1*x3*x2)+iaaa(x2*x3*x2)+iaaa(x8*x3*x2)
461,2114.502192,210,370.570690,f1 f0 f3 f0 f0 f0 f0 v1 v2 v0 v8 v2 v3 v3 v3 ,y=u+iaa(x1*x2)+iaa(x2*x2)+iaa(x0*x2)+iaa(x8*x2)+iaa(x1*x3)+iaa(x2*x3)+iaa(x0*x3)+iaa(x8*x3)+iaaa(x1*x3*x2)+iaaa(x2*x3*x2)+iaaa(x0*x3*x2)+iaaa(x8*x3*x2)+iaaa(x1*x3*x3)+iaaa(x2*x3*x3)+iaaa(x0*x3*x3)+iaaa(x8*x3*x3)
462,2121.239890,210,370.570690,f1 f0 f3 f0 f0 f0 f0 v0 v1 v2 v8 v3 v2 v3 v3 ,y=u+iaa(x0*x3)+iaa(x1*x3)+iaa(x2*x3)+iaa(x8*x3)+iaa(x0*x2)+iaa(x1*x2)+iaa(x2*x2)+iaa(x8*x2)+iaaa(x0*x3*x3)+iaaa(x1*x3*x3)+iaaa(x2*x3*x3)+iaaa(x8*x3*x3)+iaaa(x0*x3*x2)+iaaa(x1*x3*x2)+iaaa(x2*x3*x2)+iaaa(x8*x3*x2)
463,2128.72118,210,370.570690,f1 f0 f3 f0 f0 f0 v3 v1 v2 v8 v0 v3 v2   ,y=u+iaa(x1*x3)+iaa(x2*x3)+iaa(x8*x3)+iaa(x0*x3)+iaa(x1*x2)+iaa(x2*x2)+iaa(x8*x2)+iaa(x0*x2)+iaaa(x1*x3*x3)+iaaa(x2*x3*x3)+iaaa(x8*x3*x3)+iaaa(x0*x3*x3)+iaaa(x1*x3*x2)+iaaa(x2*x3*x2)+iaaa(x8*x3*x2)+iaaa(x0*x3*x2)
464,2133.725924,210,370.570690,f1 f0 f3 f0 f0 f0 f0 v0 v1 v2 v8 v3 v2 v3 v3 ,y=u+iaa(x0*x3)+iaa(x1*x3)+iaa(x2*x3)+iaa(x8*x3)+iaa(x0*x2)+iaa(x1*x2)+iaa(x2*x2)+iaa(x8*x2)+iaaa(x0*x3*x3)+iaaa(x1*x3*x3)+iaaa(x2*x3*x3)+iaaa(x8*x3*x3)+iaaa(x0*x3*x2)+iaaa(x1*x3*x2)+iaaa(x2*x3*x2)+iaaa(x8*x3*x2)
465,2137.311952,210,370.570690,f1 f0 f3 f0 f0 f0 v3 v1 v2 v8 v0 v3 v2   ,y=u+iaa(x1*x3)+iaa(x2*x3)+iaa(x8*x3)+iaa(x0*x3)+iaa(x1*x2)+iaa(x2*x2)+iaa(x8*x2)+iaa(x0*x2)+iaaa(x1*x3*x3)+iaaa(x2*x3*x3)+iaaa(x8*x3*x3)+iaaa(x0*x3*x3)+iaaa(x1*x3*x2)+iaaa(x2*x3*x2)+iaaa(x8*x3*x2)+iaaa(x0*x3*x2)
466,2143.432067,210,370.570690,f1 f0 f3 f0 f0 f0 v3 v1 v2 v0 v8 v3 v2   ,y=u+iaa(x1*x3)+iaa(x2*x3)+iaa(x0*x3)+iaa(x8*x3)+iaa(x1*x2)+iaa(x2*x2)+iaa(x0*x2)+iaa(x8*x2)+iaaa(x1*x3*x3)+iaaa(x2*x3*x3)+iaaa(x0*x3*x3)+iaaa(x8*x3*x3)+iaaa(x1*x3*x2)+iaaa(x2*x3*x2)+iaaa(x0*x3*x2)+iaaa(x8*x3*x2)
467,2150.14490,210,370.570690,f1 f0 f3 f0 f0 f0 f0 v1 v2 v0 v8 v2 v3 v3 v3 ,y=u+iaa(x1*x2)+iaa(x2*x2)+iaa(x0*x2)+iaa(x8*x2)+iaa(x1*x3)+iaa(x2*x3)+iaa(x0*x3)+iaa(x8*x3)+iaaa(x1*x3*x2)+iaaa(x2*x3*x2)+iaaa(x0*x3*x2)+iaaa(x8*x3*x2)+iaaa(x1*x3*x3)+iaaa(x2*x3*x3)+iaaa(x0*x3*x3)+iaaa(x8*x3*x3)
468,2156.883138,210,370.570690,f1 f0 f3 f0 f0 f0 f0 v2 v1 v8 v0 v3 v2 v3 v3 ,y=u+iaa(x2*x3)+iaa(x1*x3)+iaa(x8*x3)+iaa(x0*x3)+iaa(x2*x2)+iaa(x1*x2)+iaa(x8*x2)+iaa(x0*x2)+iaaa(x2*x3*x3)+iaaa(x1*x3*x3)+iaaa(x8*x3*x3)+iaaa(x0*x3*x3)+iaaa(x2*x3*x2)+iaaa(x1*x3*x2)+iaaa(x8*x3*x2)+iaaa(x0*x3*x2)
469,2163.274317,210,370.570690,f1 f0 f3 f0 f0 f0 v3 v1 v2 v0 v8 v3 v2   ,y=u+iaa(x1*x3)+iaa(x2*x3)+iaa(x0*x3)+iaa(x8*x3)+iaa(x1*x2)+iaa(x2*x2)+iaa(x0*x2)+iaa(x8*x2)+iaaa(x1*x3*x3)+iaaa(x2*x3*x3)+iaaa(x0*x3*x3)+iaaa(x8*x3*x3)+iaaa(x1*x3*x2)+iaaa(x2*x3*x2)+iaaa(x0*x3*x2)+iaaa(x8*x3*x2)
472,2182.689489,202,370.570690,f1 f0 f3 f0 f0 f0 f0 v1 v2 v8 v0 v3 v2 v3 v3 ,y=u+iaa(x1*x3)+iaa(x2*x3)+iaa(x8*x3)+iaa(x0*x3)+iaa(x1*x2)+iaa(x2*x2)+iaa(x8*x2)+iaa(x0*x2)+iaaa(x1*x3*x3)+iaaa(x2*x3*x3)+iaaa(x8*x3*x3)+iaaa(x0*x3*x3)+iaaa(x1*x3*x2)+iaaa(x2*x3*x2)+iaaa(x8*x3*x2)+iaaa(x0*x3*x2)
473,2188.901292,206,370.570690,f1 f0 f3 f0 f0 f0 f0 v2 v1 v0 v8 v2 v3 v3 v3 ,y=u+iaa(x2*x2)+iaa(x1*x2)+iaa(x0*x2)+iaa(x8*x2)+iaa(x2*x3)+iaa(x1*x3)+iaa(x0*x3)+iaa(x8*x3)+iaaa(x2*x3*x2)+iaaa(x1*x3*x2)+iaaa(x0*x3*x2)+iaaa(x8*x3*x2)+iaaa(x2*x3*x3)+iaaa(x1*x3*x3)+iaaa(x0*x3*x3)+iaaa(x8*x3*x3)
474,2194.358664,210,370.570690,f1 f0 f3 f0 f0 f0 v3 v1 v2 v8 v0 v3 v2   ,y=u+iaa(x1*x3)+iaa(x2*x3)+iaa(x8*x3)+iaa(x0*x3)+iaa(x1*x2)+iaa(x2*x2)+iaa(x8*x2)+iaa(x0*x2)+iaaa(x1*x3*x3)+iaaa(x2*x3*x3)+iaaa(x8*x3*x3)+iaaa(x0*x3*x3)+iaaa(x1*x3*x2)+iaaa(x2*x3*x2)+iaaa(x8*x3*x2)+iaaa(x0*x3*x2)
475,2198.245528,208,370.570690,f1 f0 f3 f0 f0 f0 f0 v2 v1 v0 v8 v2 v3 v3 v3 ,y=u+iaa(x2*x2)+iaa(x1*x2)+iaa(x0*x2)+iaa(x8*x2)+iaa(x2*x3)+iaa(x1*x3)+iaa(x0*x3)+iaa(x8*x3)+iaaa(x2*x3*x2)+iaaa(x1*x3*x2)+iaaa(x0*x3*x2)+iaaa(x8*x3*x2)+iaaa(x2*x3*x3)+iaaa(x1*x3*x3)+iaaa(x0*x3*x3)+iaaa(x8*x3*x3)
476,2204.376446,210,370.570690,f1 f0 f3 f0 f0 f0 v3 v1 v2 v8 v0 v3 v2   ,y=u+iaa(x1*x3)+iaa(x2*x3)+iaa(x8*x3)+iaa(x0*x3)+iaa(x1*x2)+iaa(x2*x2)+iaa(x8*x2)+iaa(x0*x2)+iaaa(x1*x3*x3)+iaaa(x2*x3*x3)+iaaa(x8*x3*x3)+iaaa(x0*x3*x3)+iaaa(x1*x3*x2)+iaaa(x2*x3*x2)+iaaa(x8*x3*x2)+iaaa(x0*x3*x2)
477,2210.882951,210,370.570690,f1 f0 f3 f0 f0 f0 f0 v2 v1 v8 v0 v3 v2 v3 v3 ,y=u+iaa(x2*x3)+iaa(x1*x3)+iaa(x8*x3)+iaa(x0*x3)+iaa(x2*x2)+iaa(x1*x2)+iaa(x8*x2)+iaa(x0*x2)+iaaa(x2*x3*x3)+iaaa(x1*x3*x3)+iaaa(x8*x3*x3)+iaaa(x0*x3*x3)+iaaa(x2*x3*x2)+iaaa(x1*x3*x2)+iaaa(x8*x3*x2)+iaaa(x0*x3*x2)
478,2217.444148,210,370.570690,f1 f0 f3 f0 f0 f0 f0 v1 v2 v0 v8 v3 v2 v3 v3 ,y=u+iaa(x1*x3)+iaa(x2*x3)+iaa(x0*x3)+iaa(x8*x3)+iaa(x1*x2)+iaa(x2*x2)+iaa(x0*x2)+iaa(x8*x2)+iaaa(x1*x3*x3)+iaaa(x2*x3*x3)+iaaa(x0*x3*x3)+iaaa(x8*x3*x3)+iaaa(x1*x3*x2)+iaaa(x2*x3*x2)+iaaa(x0*x3*x2)+iaaa(x8*x3*x2)
479,2222.538598,210,370.570690,f1 f0 f3 f0 f0 f0 f0 v2 v1 v0 v8 v2 v3 v3 v3 ,y=u+iaa(x2*x2)+iaa(x1*x2)+iaa(x0*x2)+iaa(x8*x2)+iaa(x2*x3)+iaa(x1*x3)+iaa(x0*x3)+iaa(x8*x3)+iaaa(x2*x3*x2)+iaaa(x1*x3*x2)+iaaa(x0*x3*x2)+iaaa(x8*x3*x2)+iaaa(x2*x3*x3)+iaaa(x1*x3*x3)+iaaa(x0*x3*x3)+iaaa(x8*x3*x3)
480,2226.576692,208,370.570690,f1 f0 f3 f0 f0 f0 v3 v2 v1 v0 v8 v2 v3   ,y=u+iaa(x2*x2)+iaa(x1*x2)+iaa(x0*x2)+iaa(x8*x2)+iaa(x2*x3)+iaa(x1*x3)+iaa(x0*x3)+iaa(x8*x3)+iaaa(x2*x3*x2)+iaaa(x1*x3*x2)+iaaa(x0*x3*x2)+iaaa(x8*x3*x2)+iaaa(x2*x3*x3)+iaaa(x1*x3*x3)+iaaa(x0*x3*x3)+iaaa(x8*x3*x3)
481,2233.191865,210,370.570690,f1 f0 f3 f0 f0 f0 f0 v0 v1 v2 v8 v3 v2 v3 v3 ,y=u+iaa(x0*x3)+iaa(x1*x3)+iaa(x2*x3)+iaa(x8*x3)+iaa(x0*x2)+iaa(x1*x2)+iaa(x2*x2)+iaa(x8*x2)+iaaa(x0*x3*x3)+iaaa(x1*x3*x3)+iaaa(x2*x3*x3)+iaaa(x8*x3*x3)+iaaa(x0*x3*x2)+iaaa(x1*x3*x2)+iaaa(x2*x3*x2)+iaaa(x8*x3*x2)
482,2239.907255,210,370.570690,f1 f0 f3 f0 f0 f0 v3 v1 v2 v0 v8 v2 v3   ,y=u+iaa(x1*x2)+iaa(x2*x2)+iaa(x0*x2)+iaa(x8*x2)+iaa(x1*x3)+iaa(x2*x3)+iaa(x0*x3)+iaa(x8*x3)+iaaa(x1*x3*x2)+iaaa(x2*x3*x2)+iaaa(x0*x3*x2)+iaaa(x8*x3*x2)+iaaa(x1*x3*x3)+iaaa(x2*x3*x3)+iaaa(x0*x3*x3)+iaaa(x8*x3*x3)
483,2244.239815,210,370.570690,f1 f0 f3 f0 f0 f0 f0 v0 v1 v2 v8 v3 v2 v3 v3 ,y=u+iaa(x0*x3)+iaa(x1*x3)+iaa(x2*x3)+iaa(x8*x3)+iaa(x0*x2)+iaa(x1*x2)+iaa(x2*x2)+iaa(x8*x2)+iaaa(x0*x3*x3)+iaaa(x1*x3*x3)+iaaa(x2*x3*x3)+iaaa(x8*x3*x3)+iaaa(x0*x3*x2)+iaaa(x1*x3*x2)+iaaa(x2*x3*x2)+iaaa(x8*x3*x2)
484,2249.552203,210,370.570690,f1 f0 f3 f0 f0 f0 v3 v2 v1 v0 v8 v2 v3   ,y=u+iaa(x2*x2)+iaa(x1*x2)+iaa(x0*x2)+iaa(x8*x2)+iaa(x2*x3)+iaa(x1*x3)+iaa(x0*x3)+iaa(x8*x3)+iaaa(x2*x3*x2)+iaaa(x1*x3*x2)+iaaa(x0*x3*x2)+iaaa(x8*x3*x2)+iaaa(x2*x3*x3)+iaaa(x1*x3*x3)+iaaa(x0*x3*x3)+iaaa(x8*x3*x3)
485,2256.581145,210,370.570690,f1 f0 f3 f0 f0 f0 v3 v2 v1 v8 v0 v3 v2   ,y=u+iaa(x2*x3)+iaa(x1*x3)+iaa(x8*x3)+iaa(x0*x3)+iaa(x2*x2)+iaa(x1*x2)+iaa(x8*x2)+iaa(x0*x2)+iaaa(x2*x3*x3)+iaaa(x1*x3*x3)+iaaa(x8*x3*x3)+iaaa(x0*x3*x3)+iaaa(x2*x3*x2)+iaaa(x1*x3*x2)+iaaa(x8*x3*x2)+iaaa(x0*x3*x2)
487,2266.609449,208,370.570690,f1 f0 f3 f0 f0 f0 f0 v0 v1 v2 v8 v3 v2 v3 v3 ,y=u+iaa(x0*x3)+iaa(x1*x3)+iaa(x2*x3)+iaa(x8*x3)+iaa(x0*x2)+iaa(x1*x2)+iaa(x2*x2)+iaa(x8*x2)+iaaa(x0*x3*x3)+iaaa(x1*x3*x3)+iaaa(x2*x3*x3)+iaaa(x8*x3*x3)+iaaa(x0*x3*x2)+iaaa(x1*x3*x2)+iaaa(x2*x3*x2)+iaaa(x8*x3*x2)
488,2271.488828,210,370.570690,f1 f0 f3 f0 f0 f0 f0 v2 v1 v0 v8 v2 v3 v3 v3 ,y=u+iaa(x2*x2)+iaa(x1*x2)+iaa(x0*x2)+iaa(x8*x2)+iaa(x2*x3)+iaa(x1*x3)+iaa(x0*x3)+iaa(x8*x3)+iaaa(x2*x3*x2)+iaaa(x1*x3*x2)+iaaa(x0*x3*x2)+iaaa(x8*x3*x2)+iaaa(x2*x3*x3)+iaaa(x1*x3*x3)+iaaa(x0*x3*x3)+iaaa(x8*x3*x3)
489,2276.735082,210,370.570690,f1 f0 f3 f0 f0 f0 v3 v2 v1 v8 v0 v2 v3   ,y=u+iaa(x2*x2)+iaa(x1*x2)+iaa(x8*x2)+iaa(x0*x2)+iaa(x2*x3)+iaa(x1*x3)+iaa(x8*x3)+iaa(x0*x3)+iaaa(x2*x3*x2)+iaaa(x1*x3*x2)+iaaa(x8*x3*x2)+iaaa(x0*x3*x2)+iaaa(x2*x3*x3)+iaaa(x1*x3*x3)+iaaa(x8*x3*x3)+iaaa(x0*x3*x3)
490,2281.100306,210,370.570690,f1 f0 f3 f0 f0 f0 f0 v1 v2 v0 v8 v2 v3 v3 v3 ,y=u+iaa(x1*x2)+iaa(x2*x2)+iaa(x0*x2)+iaa(x8*x2)+iaa(x1*x3)+iaa(x2*x3)+iaa(x0*x3)+iaa(x8*x3)+iaaa(x1*x3*x2)+iaaa(x2*x3*x2)+iaaa(x0*x3*x2)+iaaa(x8*x3*x2)+iaaa(x1*x3*x3)+iaaa(x2*x3*x3)+iaaa(x0*x3*x3)+iaaa(x8*x3*x3)
491,2287.867080,210,370.570690,f1 f0 f3 f0 f0 f0 v3 v1 v2 v0 v8 v3 v2   ,y=u+iaa(x1*x3)+iaa(x2*x3)+iaa(x0*x3)+iaa(x8*x3)+iaa(x1*x2)+iaa(x2*x2)+iaa(x0*x2)+iaa(x8*x2)+iaaa(x1*x3*x3)+iaaa(x2*x3*x3)+iaaa(x0*x3*x3)+iaaa(x8*x3*x3)+iaaa(x1*x3*x2)+iaaa(x2*x3*x2)+iaaa(x0*x3*x2)+iaaa(x8*x3*x2)
492,2295.79247,200,370.570690,f1 f0 f3 f0 f0 f0 v3 v2 v1 v0 v8 v2 v3   ,y=u+iaa(x2*x2)+iaa(x1*x2)+iaa(x0*x2)+iaa(x8*x2)+iaa(x2*x3)+iaa(x1*x3)+iaa(x0*x3)+iaa(x8*x3)+iaaa(x2*x3*x2)+iaaa(x1*x3*x2)+iaaa(x0*x3*x2)+iaaa(x8*x3*x2)+iaaa(x2*x3*x3)+iaaa(x1*x3*x3)+iaaa(x0*x3*x3)+iaaa(x8*x3*x3)
493,2300.751270,200,370.570690,f1 f0 f3 f0 f0 f0 f0 v1 v2 v0 v8 v2 v3 v3 v3 ,y=u+iaa(x1*x2)+iaa(x2*x2)+iaa(x0*x2)+iaa(x8*x2)+iaa(x1*x3)+iaa(x2*x3)+iaa(x0*x3)+iaa(x8*x3)+iaaa(x1*x3*x2)+iaaa(x2*x3*x2)+iaaa(x0*x3*x2)+iaaa(x8*x3*x2)+iaaa(x1*x3*x3)+iaaa(x2*x3*x3)+iaaa(x0*x3*x3)+iaaa(x8*x3*x3)
494,2307.886211,204,370.570690,f1 f0 f3 f0 f0 f0 v3 v2 v1 v0 v8 v2 v3   ,y=u+iaa(x2*x2)+iaa(x1*x2)+iaa(x0*x2)+iaa(x8*x2)+iaa(x2*x3)+iaa(x1*x3)+iaa(x0*x3)+iaa(x8*x3)+iaaa(x2*x3*x2)+iaaa(x1*x3*x2)+iaaa(x0*x3*x2)+iaaa(x8*x3*x2)+iaaa(x2*x3*x3)+iaaa(x1*x3*x3)+iaaa(x0*x3*x3)+iaaa(x8*x3*x3)
495,2314.925426,208,370.570690,f1 f0 f3 f0 f0 f0 v3 v1 v2 v0 v8 v2 v3   ,y=u+iaa(x1*x2)+iaa(x2*x2)+iaa(x0*x2)+iaa(x8*x2)+iaa(x1*x3)+iaa(x2*x3)+iaa(x0*x3)+iaa(x8*x3)+iaaa(x1*x3*x2)+iaaa(x2*x3*x2)+iaaa(x0*x3*x2)+iaaa(x8*x3*x2)+iaaa(x1*x3*x3)+iaaa(x2*x3*x3)+iaaa(x0*x3*x3)+iaaa(x8*x3*x3)
496,2319.662647,210,370.570690,f1 f0 f3 f0 f0 f0 f0 v2 v1 v8 v0 v2 v3 v3 v3 ,y=u+iaa(x2*x2)+iaa(x1*x2)+iaa(x8*x2)+iaa(x0*x2)+iaa(x2*x3)+iaa(x1*x3)+iaa(x8*x3)+iaa(x0*x3)+iaaa(x2*x3*x2)+iaaa(x1*x3*x2)+iaaa(x8*x3*x2)+iaaa(x0*x3*x2)+iaaa(x2*x3*x3)+iaaa(x1*x3*x3)+iaaa(x8*x3*x3)+iaaa(x0*x3*x3)
497,2325.315280,210,370.570690,f1 f0 f3 f0 f0 f0 f0 v1 v2 v8 v0 v3 v2 v3 v3 ,y=u+iaa(x1*x3)+iaa(x2*x3)+iaa(x8*x3)+iaa(x0*x3)+iaa(x1*x2)+iaa(x2*x2)+iaa(x8*x2)+iaa(x0*x2)+iaaa(x1*x3*x3)+iaaa(x2*x3*x3)+iaaa(x8*x3*x3)+iaaa(x0*x3*x3)+iaaa(x1*x3*x2)+iaaa(x2*x3*x2)+iaaa(x8*x3*x2)+iaaa(x0*x3*x2)
498,2329.588910,210,370.570690,f1 f0 f3 f0 f0 f0 f0 v2 v1 v8 v0 v2 v3 v3 v3 ,y=u+iaa(x2*x2)+iaa(x1*x2)+iaa(x8*x2)+iaa(x0*x2)+iaa(x2*x3)+iaa(x1*x3)+iaa(x8*x3)+iaa(x0*x3)+iaaa(x2*x3*x2)+iaaa(x1*x3*x2)+iaaa(x8*x3*x2)+iaaa(x0*x3*x2)+iaaa(x2*x3*x3)+iaaa(x1*x3*x3)+iaaa(x8*x3*x3)+iaaa(x0*x3*x3)
499,2336.748404,210,370.570690,f1 f0 f3 f0 f0 f0 v3 v1 v2 v8 v0 v3 v2   ,y=u+iaa(x1*x3)+iaa(x2*x3)+iaa(x8*x3)+iaa(x0*x3)+iaa(x1*x2)+iaa(x2*x2)+iaa(x8*x2)+iaa(x0*x2)+iaaa(x1*x3*x3)+iaaa(x2*x3*x3)+iaaa(x8*x3*x3)+iaaa(x0*x3*x3)+iaaa(x1*x3*x2)+iaaa(x2*x3*x2)+iaaa(x8*x3*x2)+iaaa(x0*x3*x2)
