0,12.961098,200,586.584308,f3 V2 v0 ,y=u+a0(x0)+ida(z2*x0)
2,19.851280,200,541.888964,f2 f0 v3 v13 f0     v3 v1     ,y=u+a3(x3)+iaa(x3*x13)+iaa(x3*x3)+iaa(x3*x1)
6,29.676229,200,522.086043,f1 V2 f4   v2 f2       v0 v8 ,y=u+ida(z2*x2)+ida(z2*x0)+idaa(z2*x0*x8)+idaa(z2*x2*x0)+idaaa(z2*x2*x0*x8)
10,34.192215,200,463.670298,f3 f3 v2 v0 f2     v0 v3     ,y=u+a0(x0)+iaa(x0*x3)+iaa(x0*x0)+iaaa(x0*x0*x3)+iaa(x2*x0)+iaaa(x2*x0*x3)+iaaa(x2*x0*x0)+iaaaa(x2*x0*x0*x3)
12,35.655027,200,463.234585,f3 f0 f4 v2 V1 v2 f2       v0 v8 ,y=u+a2(x2)+a0(x0)+iaa(x0*x8)+iaa(x2*x0)+iaaa(x2*x0*x8)+iaa(x2*x2)+ida(z1*x2)+ida(z1*x0)+idaa(z1*x0*x8)+iaaa(x2*x2*x0)+idaa(z1*x2*x0)+iaaaa(x2*x2*x0*x8)+idaaa(z1*x2*x0*x8)
14,37.593721,200,460.201750,f3 f3 v3 v2 f0     v3 v1     ,y=u+a3(x3)+a1(x1)+iaa(x2*x3)+iaa(x2*x1)+iaa(x3*x3)+iaa(x3*x1)+iaaa(x3*x2*x3)+iaaa(x3*x2*x1)
16,38.827789,200,445.912548,f3 f0 f4 v2 f0 v2 f2   v3 v1   v0 v10 ,y=u+a2(x2)+a0(x0)+iaa(x0*x10)+iaa(x2*x0)+iaaa(x2*x0*x10)+iaa(x2*x2)+iaa(x3*x2)+iaa(x1*x2)+iaa(x3*x0)+iaa(x1*x0)+iaaa(x3*x0*x10)+iaaa(x1*x0*x10)+iaaa(x2*x2*x0)+iaaa(x3*x2*x0)+iaaa(x1*x2*x0)+iaaaa(x2*x2*x0*x10)+iaaaa(x3*x2*x0*x10)+iaaaa(x1*x2*x0*x10)
30,51.838187,206,439.008681,f2 f0 f4 v0 f0 v2 f2   v3 v3   v0 v1 ,y=u+a0(x0)+a3(x3)+iaa(x0*x2)+iaa(x3*x2)+iaa(x0*x0)+iaa(x3*x0)+iaaa(x0*x0*x1)+iaaa(x3*x0*x1)+iaaa(x0*x2*x0)+iaaa(x3*x2*x0)+iaaaa(x0*x2*x0*x1)+iaaaa(x3*x2*x0*x1)
34,55.706986,204,435.490242,f3 f0 f0 v2 f0 v2 f2   v3 v1   v0 v10 ,y=u+a2(x2)+a0(x0)+iaa(x0*x10)+iaa(x2*x2)+iaa(x3*x2)+iaa(x1*x2)+iaa(x2*x0)+iaa(x3*x0)+iaa(x1*x0)+iaaa(x2*x0*x10)+iaaa(x3*x0*x10)+iaaa(x1*x0*x10)
35,57.94231,208,432.652226,f1 f0 f0 v2 f0 v2 v0   v3 v1     ,y=u+iaa(x2*x2)+iaa(x3*x2)+iaa(x1*x2)+iaa(x2*x0)+iaa(x3*x0)+iaa(x1*x0)
40,63.990816,210,431.154409,f1 f0 f0 v2 f0 v3 v0   v3 v1     ,y=u+iaa(x2*x3)+iaa(x3*x3)+iaa(x1*x3)+iaa(x2*x0)+iaa(x3*x0)+iaa(x1*x0)
47,73.254271,210,427.452840,f3 f0 f0 v2 f0 v2 f2   v3 v1   v0 v18 ,y=u+a2(x2)+a0(x0)+iaa(x0*x18)+iaa(x2*x2)+iaa(x3*x2)+iaa(x1*x2)+iaa(x2*x0)+iaa(x3*x0)+iaa(x1*x0)+iaaa(x2*x0*x18)+iaaa(x3*x0*x18)+iaaa(x1*x0*x18)
56,90.592831,210,415.891848,f1 f0 f0 v0 f0 v3 f2   v3 v1   v11 v1 ,y=u+iaa(x0*x3)+iaa(x3*x3)+iaa(x1*x3)+iaa(x0*x11)+iaa(x3*x11)+iaa(x1*x11)+iaaa(x0*x11*x1)+iaaa(x3*x11*x1)+iaaa(x1*x11*x1)
65,110.522601,208,404.296638,f2 f0 f0 v2 f0 v3 f2   v3 v1   v11 v1 ,y=u+a2(x2)+a3(x3)+a1(x1)+iaa(x2*x3)+iaa(x3*x3)+iaa(x1*x3)+iaa(x2*x11)+iaa(x3*x11)+iaa(x1*x11)+iaaa(x2*x11*x1)+iaaa(x3*x11*x1)+iaaa(x1*x11*x1)
95,178.180338,210,403.816566,f1 f0 f0 f0 f0 v3 f2 v2 v19 v3 v1   v8 v2 ,y=u+iaa(x2*x3)+iaa(x19*x3)+iaa(x3*x3)+iaa(x1*x3)+iaa(x2*x8)+iaa(x19*x8)+iaa(x3*x8)+iaa(x1*x8)+iaaa(x2*x8*x2)+iaaa(x19*x8*x2)+iaaa(x3*x8*x2)+iaaa(x1*x8*x2)
101,196.74352,210,385.593289,f2 f0 f0 f0 f0 v3 f2 v3 v2 v1 v0   v11 v2 ,y=u+a3(x3)+a2(x2)+a1(x1)+a0(x0)+iaa(x3*x3)+iaa(x2*x3)+iaa(x1*x3)+iaa(x0*x3)+iaa(x3*x11)+iaa(x2*x11)+iaa(x1*x11)+iaa(x0*x11)+iaaa(x3*x11*x2)+iaaa(x2*x11*x2)+iaaa(x1*x11*x2)+iaaa(x0*x11*x2)
108,217.126623,210,381.723686,f2 f0 f0 f0 f0 v3 f2 v3 v2 v1 v0   v11 v1 ,y=u+a3(x3)+a2(x2)+a1(x1)+a0(x0)+iaa(x3*x3)+iaa(x2*x3)+iaa(x1*x3)+iaa(x0*x3)+iaa(x3*x11)+iaa(x2*x11)+iaa(x1*x11)+iaa(x0*x11)+iaaa(x3*x11*x1)+iaaa(x2*x11*x1)+iaaa(x1*x11*x1)+iaaa(x0*x11*x1)
116,250.613987,210,381.723686,f2 f0 f0 f0 f0 v3 f2 v3 v2 v0 v1   v11 v1 ,y=u+a3(x3)+a2(x2)+a0(x0)+a1(x1)+iaa(x3*x3)+iaa(x2*x3)+iaa(x0*x3)+iaa(x1*x3)+iaa(x3*x11)+iaa(x2*x11)+iaa(x0*x11)+iaa(x1*x11)+iaaa(x3*x11*x1)+iaaa(x2*x11*x1)+iaaa(x0*x11*x1)+iaaa(x1*x11*x1)
131,315.523799,210,366.479665,f1 f0 f0 f0 f0 v2 f2 v3 v2 v1 v0   v8 v3 ,y=u+iaa(x3*x2)+iaa(x2*x2)+iaa(x1*x2)+iaa(x0*x2)+iaa(x3*x8)+iaa(x2*x8)+iaa(x1*x8)+iaa(x0*x8)+iaaa(x3*x8*x3)+iaaa(x2*x8*x3)+iaaa(x1*x8*x3)+iaaa(x0*x8*x3)
175,541.500363,200,366.479665,f1 f0 f0 f0 f0 v2 f2 v3 v2 v0 v1   v8 v3 ,y=u+iaa(x3*x2)+iaa(x2*x2)+iaa(x0*x2)+iaa(x1*x2)+iaa(x3*x8)+iaa(x2*x8)+iaa(x0*x8)+iaa(x1*x8)+iaaa(x3*x8*x3)+iaaa(x2*x8*x3)+iaaa(x0*x8*x3)+iaaa(x1*x8*x3)
181,569.310266,206,361.178706,f1 f0 f0 f0 f0 v2 f1 v3 v2 v1 v0   v8 v3 ,y=u+iaa(x3*x2)+iaa(x2*x2)+iaa(x1*x2)+iaa(x0*x2)+iaaa(x3*x8*x3)+iaaa(x2*x8*x3)+iaaa(x1*x8*x3)+iaaa(x0*x8*x3)
203,657.630758,210,361.178706,f1 f0 f0 f0 f0 v2 f1 v3 v2 v0 v1   v8 v3 ,y=u+iaa(x3*x2)+iaa(x2*x2)+iaa(x0*x2)+iaa(x1*x2)+iaaa(x3*x8*x3)+iaaa(x2*x8*x3)+iaaa(x0*x8*x3)+iaaa(x1*x8*x3)
204,661.788590,210,361.178706,f1 f0 f0 f0 f0 v2 f1 v3 v2 v1 v0   v8 v3 ,y=u+iaa(x3*x2)+iaa(x2*x2)+iaa(x1*x2)+iaa(x0*x2)+iaaa(x3*x8*x3)+iaaa(x2*x8*x3)+iaaa(x1*x8*x3)+iaaa(x0*x8*x3)
205,666.380446,210,361.178706,f1 f0 f0 f0 f0 v2 f1 v3 v2 v0 v1   v8 v3 ,y=u+iaa(x3*x2)+iaa(x2*x2)+iaa(x0*x2)+iaa(x1*x2)+iaaa(x3*x8*x3)+iaaa(x2*x8*x3)+iaaa(x0*x8*x3)+iaaa(x1*x8*x3)
206,670.917940,210,361.178706,f1 f0 f0 f0 f0 v2 f1 v3 v2 v1 v0   v8 v3 ,y=u+iaa(x3*x2)+iaa(x2*x2)+iaa(x1*x2)+iaa(x0*x2)+iaaa(x3*x8*x3)+iaaa(x2*x8*x3)+iaaa(x1*x8*x3)+iaaa(x0*x8*x3)
207,675.444950,210,361.178706,f1 f0 f0 f0 f0 v2 f1 v3 v2 v0 v1   v8 v3 ,y=u+iaa(x3*x2)+iaa(x2*x2)+iaa(x0*x2)+iaa(x1*x2)+iaaa(x3*x8*x3)+iaaa(x2*x8*x3)+iaaa(x0*x8*x3)+iaaa(x1*x8*x3)
210,687.634116,210,361.178706,f1 f0 f0 f0 f0 v2 f1 v3 v2 v1 v0   v8 v3 ,y=u+iaa(x3*x2)+iaa(x2*x2)+iaa(x1*x2)+iaa(x0*x2)+iaaa(x3*x8*x3)+iaaa(x2*x8*x3)+iaaa(x1*x8*x3)+iaaa(x0*x8*x3)
211,691.708160,208,361.178706,f1 f0 f0 f0 f0 v2 f1 v3 v2 v0 v1   v8 v3 ,y=u+iaa(x3*x2)+iaa(x2*x2)+iaa(x0*x2)+iaa(x1*x2)+iaaa(x3*x8*x3)+iaaa(x2*x8*x3)+iaaa(x0*x8*x3)+iaaa(x1*x8*x3)
212,694.903625,210,361.178706,f1 f0 f0 f0 f0 v2 f1 v3 v2 v1 v0   v8 v3 ,y=u+iaa(x3*x2)+iaa(x2*x2)+iaa(x1*x2)+iaa(x0*x2)+iaaa(x3*x8*x3)+iaaa(x2*x8*x3)+iaaa(x1*x8*x3)+iaaa(x0*x8*x3)
214,701.177993,210,361.178706,f1 f0 f0 f0 f0 v2 f1 v3 v2 v0 v1   v8 v3 ,y=u+iaa(x3*x2)+iaa(x2*x2)+iaa(x0*x2)+iaa(x1*x2)+iaaa(x3*x8*x3)+iaaa(x2*x8*x3)+iaaa(x0*x8*x3)+iaaa(x1*x8*x3)
216,709.269228,210,361.178706,f1 f0 f0 f0 f0 v2 f1 v3 v2 v1 v0   v8 v3 ,y=u+iaa(x3*x2)+iaa(x2*x2)+iaa(x1*x2)+iaa(x0*x2)+iaaa(x3*x8*x3)+iaaa(x2*x8*x3)+iaaa(x1*x8*x3)+iaaa(x0*x8*x3)
219,717.900337,204,361.178706,f1 f0 f0 f0 f0 v2 f1 v3 v2 v0 v1   v8 v3 ,y=u+iaa(x3*x2)+iaa(x2*x2)+iaa(x0*x2)+iaa(x1*x2)+iaaa(x3*x8*x3)+iaaa(x2*x8*x3)+iaaa(x0*x8*x3)+iaaa(x1*x8*x3)
221,723.686546,210,361.178706,f1 f0 f0 f0 f0 v2 f1 v3 v2 v1 v0   v8 v3 ,y=u+iaa(x3*x2)+iaa(x2*x2)+iaa(x1*x2)+iaa(x0*x2)+iaaa(x3*x8*x3)+iaaa(x2*x8*x3)+iaaa(x1*x8*x3)+iaaa(x0*x8*x3)
226,741.349296,210,361.178706,f1 f0 f0 f0 f0 v2 f1 v3 v2 v0 v1   v8 v3 ,y=u+iaa(x3*x2)+iaa(x2*x2)+iaa(x0*x2)+iaa(x1*x2)+iaaa(x3*x8*x3)+iaaa(x2*x8*x3)+iaaa(x0*x8*x3)+iaaa(x1*x8*x3)
227,745.690729,210,361.178706,f1 f0 f0 f0 f0 v2 f1 v3 v2 v1 v0   v8 v3 ,y=u+iaa(x3*x2)+iaa(x2*x2)+iaa(x1*x2)+iaa(x0*x2)+iaaa(x3*x8*x3)+iaaa(x2*x8*x3)+iaaa(x1*x8*x3)+iaaa(x0*x8*x3)
228,749.694483,208,361.178706,f1 f0 f0 f0 f0 v2 f1 v3 v2 v0 v1   v8 v3 ,y=u+iaa(x3*x2)+iaa(x2*x2)+iaa(x0*x2)+iaa(x1*x2)+iaaa(x3*x8*x3)+iaaa(x2*x8*x3)+iaaa(x0*x8*x3)+iaaa(x1*x8*x3)
229,753.537836,210,361.178706,f1 f0 f0 f0 f0 v2 f1 v3 v2 v1 v0   v8 v3 ,y=u+iaa(x3*x2)+iaa(x2*x2)+iaa(x1*x2)+iaa(x0*x2)+iaaa(x3*x8*x3)+iaaa(x2*x8*x3)+iaaa(x1*x8*x3)+iaaa(x0*x8*x3)
231,761.697888,210,361.178706,f1 f0 f0 f0 f0 v2 f1 v3 v2 v0 v1   v8 v3 ,y=u+iaa(x3*x2)+iaa(x2*x2)+iaa(x0*x2)+iaa(x1*x2)+iaaa(x3*x8*x3)+iaaa(x2*x8*x3)+iaaa(x0*x8*x3)+iaaa(x1*x8*x3)
236,779.404241,210,361.178706,f1 f0 f0 f0 f0 v2 f1 v3 v2 v1 v0   v8 v3 ,y=u+iaa(x3*x2)+iaa(x2*x2)+iaa(x1*x2)+iaa(x0*x2)+iaaa(x3*x8*x3)+iaaa(x2*x8*x3)+iaaa(x1*x8*x3)+iaaa(x0*x8*x3)
237,781.424441,210,361.178706,f1 f0 f0 f0 f0 v2 f1 v3 v2 v0 v1   v8 v3 ,y=u+iaa(x3*x2)+iaa(x2*x2)+iaa(x0*x2)+iaa(x1*x2)+iaaa(x3*x8*x3)+iaaa(x2*x8*x3)+iaaa(x0*x8*x3)+iaaa(x1*x8*x3)
238,784.595207,210,361.178706,f1 f0 f0 f0 f0 v2 f1 v3 v2 v1 v0   v8 v3 ,y=u+iaa(x3*x2)+iaa(x2*x2)+iaa(x1*x2)+iaa(x0*x2)+iaaa(x3*x8*x3)+iaaa(x2*x8*x3)+iaaa(x1*x8*x3)+iaaa(x0*x8*x3)
240,791.575629,210,361.178706,f1 f0 f0 f0 f0 v2 f1 v3 v2 v0 v1   v8 v3 ,y=u+iaa(x3*x2)+iaa(x2*x2)+iaa(x0*x2)+iaa(x1*x2)+iaaa(x3*x8*x3)+iaaa(x2*x8*x3)+iaaa(x0*x8*x3)+iaaa(x1*x8*x3)
241,795.225915,210,361.178706,f1 f0 f0 f0 f0 v2 f1 v3 v2 v1 v0   v8 v3 ,y=u+iaa(x3*x2)+iaa(x2*x2)+iaa(x1*x2)+iaa(x0*x2)+iaaa(x3*x8*x3)+iaaa(x2*x8*x3)+iaaa(x1*x8*x3)+iaaa(x0*x8*x3)
247,813.807751,200,361.178706,f1 f0 f0 f0 f0 v2 f1 v3 v2 v0 v1   v8 v3 ,y=u+iaa(x3*x2)+iaa(x2*x2)+iaa(x0*x2)+iaa(x1*x2)+iaaa(x3*x8*x3)+iaaa(x2*x8*x3)+iaaa(x0*x8*x3)+iaaa(x1*x8*x3)
250,822.364696,200,361.178706,f1 f0 f0 f0 f0 v2 f1 v3 v2 v1 v0   v8 v3 ,y=u+iaa(x3*x2)+iaa(x2*x2)+iaa(x1*x2)+iaa(x0*x2)+iaaa(x3*x8*x3)+iaaa(x2*x8*x3)+iaaa(x1*x8*x3)+iaaa(x0*x8*x3)
252,825.819651,200,361.178706,f1 f0 f0 f0 f0 v2 f1 v3 v2 v0 v1   v8 v3 ,y=u+iaa(x3*x2)+iaa(x2*x2)+iaa(x0*x2)+iaa(x1*x2)+iaaa(x3*x8*x3)+iaaa(x2*x8*x3)+iaaa(x0*x8*x3)+iaaa(x1*x8*x3)
254,831.12390,208,361.178706,f1 f0 f0 f0 f0 v2 f1 v3 v2 v1 v0   v8 v3 ,y=u+iaa(x3*x2)+iaa(x2*x2)+iaa(x1*x2)+iaa(x0*x2)+iaaa(x3*x8*x3)+iaaa(x2*x8*x3)+iaaa(x1*x8*x3)+iaaa(x0*x8*x3)
258,843.476164,210,361.178706,f1 f0 f0 f0 f0 v2 f1 v3 v2 v0 v1   v8 v3 ,y=u+iaa(x3*x2)+iaa(x2*x2)+iaa(x0*x2)+iaa(x1*x2)+iaaa(x3*x8*x3)+iaaa(x2*x8*x3)+iaaa(x0*x8*x3)+iaaa(x1*x8*x3)
259,846.491108,210,361.178706,f1 f0 f0 f0 f0 v2 f1 v3 v2 v1 v0   v8 v3 ,y=u+iaa(x3*x2)+iaa(x2*x2)+iaa(x1*x2)+iaa(x0*x2)+iaaa(x3*x8*x3)+iaaa(x2*x8*x3)+iaaa(x1*x8*x3)+iaaa(x0*x8*x3)
266,869.424891,210,361.178706,f1 f0 f0 f0 f0 v2 f1 v3 v2 v0 v1   v8 v3 ,y=u+iaa(x3*x2)+iaa(x2*x2)+iaa(x0*x2)+iaa(x1*x2)+iaaa(x3*x8*x3)+iaaa(x2*x8*x3)+iaaa(x0*x8*x3)+iaaa(x1*x8*x3)
267,872.752149,210,361.178706,f1 f0 f0 f0 f0 v2 f1 v3 v2 v1 v0   v8 v3 ,y=u+iaa(x3*x2)+iaa(x2*x2)+iaa(x1*x2)+iaa(x0*x2)+iaaa(x3*x8*x3)+iaaa(x2*x8*x3)+iaaa(x1*x8*x3)+iaaa(x0*x8*x3)
269,878.618886,210,361.178706,f1 f0 f0 f0 f0 v2 f1 v3 v2 v0 v1   v8 v3 ,y=u+iaa(x3*x2)+iaa(x2*x2)+iaa(x0*x2)+iaa(x1*x2)+iaaa(x3*x8*x3)+iaaa(x2*x8*x3)+iaaa(x0*x8*x3)+iaaa(x1*x8*x3)
280,915.717169,204,361.178706,f1 f0 f0 f0 f0 v2 f1 v3 v2 v1 v0   v8 v3 ,y=u+iaa(x3*x2)+iaa(x2*x2)+iaa(x1*x2)+iaa(x0*x2)+iaaa(x3*x8*x3)+iaaa(x2*x8*x3)+iaaa(x1*x8*x3)+iaaa(x0*x8*x3)
281,919.72782,204,361.178706,f1 f0 f0 f0 f0 v2 f1 v3 v2 v0 v1   v8 v3 ,y=u+iaa(x3*x2)+iaa(x2*x2)+iaa(x0*x2)+iaa(x1*x2)+iaaa(x3*x8*x3)+iaaa(x2*x8*x3)+iaaa(x0*x8*x3)+iaaa(x1*x8*x3)
282,922.605081,208,361.178706,f1 f0 f0 f0 f0 v2 f1 v3 v2 v1 v0   v8 v3 ,y=u+iaa(x3*x2)+iaa(x2*x2)+iaa(x1*x2)+iaa(x0*x2)+iaaa(x3*x8*x3)+iaaa(x2*x8*x3)+iaaa(x1*x8*x3)+iaaa(x0*x8*x3)
283,925.921685,208,361.178706,f1 f0 f0 f0 f0 v2 f1 v3 v2 v0 v1   v8 v3 ,y=u+iaa(x3*x2)+iaa(x2*x2)+iaa(x0*x2)+iaa(x1*x2)+iaaa(x3*x8*x3)+iaaa(x2*x8*x3)+iaaa(x0*x8*x3)+iaaa(x1*x8*x3)
286,936.593163,210,361.178706,f1 f0 f0 f0 f0 v2 f1 v3 v2 v1 v0   v8 v3 ,y=u+iaa(x3*x2)+iaa(x2*x2)+iaa(x1*x2)+iaa(x0*x2)+iaaa(x3*x8*x3)+iaaa(x2*x8*x3)+iaaa(x1*x8*x3)+iaaa(x0*x8*x3)
290,950.834287,210,361.178706,f1 f0 f0 f0 f0 v2 f1 v3 v2 v0 v1   v8 v3 ,y=u+iaa(x3*x2)+iaa(x2*x2)+iaa(x0*x2)+iaa(x1*x2)+iaaa(x3*x8*x3)+iaaa(x2*x8*x3)+iaaa(x0*x8*x3)+iaaa(x1*x8*x3)
291,954.21005,210,361.178706,f1 f0 f0 f0 f0 f0 f1 v3 v2 v0 v1 v2 v2 v8 v3 ,y=u+iaa(x3*x2)+iaa(x2*x2)+iaa(x0*x2)+iaa(x1*x2)+iaaa(x3*x8*x3)+iaaa(x2*x8*x3)+iaaa(x0*x8*x3)+iaaa(x1*x8*x3)
294,963.497884,210,361.178706,f1 f0 f0 f0 f0 v2 f1 v3 v2 v0 v1   v8 v3 ,y=u+iaa(x3*x2)+iaa(x2*x2)+iaa(x0*x2)+iaa(x1*x2)+iaaa(x3*x8*x3)+iaaa(x2*x8*x3)+iaaa(x0*x8*x3)+iaaa(x1*x8*x3)
296,968.586292,210,361.178706,f1 f0 f0 f0 f0 f0 f1 v3 v2 v0 v1 v2 v2 v8 v3 ,y=u+iaa(x3*x2)+iaa(x2*x2)+iaa(x0*x2)+iaa(x1*x2)+iaaa(x3*x8*x3)+iaaa(x2*x8*x3)+iaaa(x0*x8*x3)+iaaa(x1*x8*x3)
297,972.619552,210,361.178706,f1 f0 f0 f0 f0 v2 f1 v3 v2 v0 v1   v8 v3 ,y=u+iaa(x3*x2)+iaa(x2*x2)+iaa(x0*x2)+iaa(x1*x2)+iaaa(x3*x8*x3)+iaaa(x2*x8*x3)+iaaa(x0*x8*x3)+iaaa(x1*x8*x3)
300,985.88101,210,361.178706,f1 f0 f0 f0 f0 v2 f1 v3 v2 v1 v0   v8 v3 ,y=u+iaa(x3*x2)+iaa(x2*x2)+iaa(x1*x2)+iaa(x0*x2)+iaaa(x3*x8*x3)+iaaa(x2*x8*x3)+iaaa(x1*x8*x3)+iaaa(x0*x8*x3)
